,Team,Season_Yr,R_per_G,PA,AB,B_R,B_H,2B,3B,B_HR,RBI,SB,CS,B_BB,B_SO,BA,OBP,SLG,OPS,OPS_Plus,TB,GDP,B_HBP,SH,SF,B_IBB,B_LOB,RA_per_G,WinLoss_Perc,ERA,CG,tSho,cSho,SV,IP,P_H,P_R,ER,P_HR,P_BB,P_IBB,P_SO,P_HBP,BK,WP,BF,ERA_Plus,FIP,WHIP,H9,HR9,BB9,SO9,SO_per_W,P_LOB
0,ARI,2006,4.77,6330.0,5645.0,773.0,1506.0,331.0,38.0,160.0,743.0,76.0,30.0,504.0,965.0,0.267,0.331,0.424,0.755,89.0,2393.0,136.0,67.0,61.0,53.0,47.0,1166.0,4.86,0.469,4.48,8.0,9.0,4.0,34.0,1459.2,1503.0,788.0,727.0,168.0,536.0,44.0,1115.0,61.0,4.0,53.0,6341.0,106.0,4.34,1.397,9.3,1.0,3.3,6.9,2.08,1174.0
1,ATL,2006,5.24,6284.0,5583.0,849.0,1510.0,312.0,26.0,222.0,818.0,52.0,35.0,526.0,1169.0,0.27,0.337,0.455,0.791,101.0,2540.0,131.0,52.0,78.0,44.0,48.0,1105.0,4.97,0.488,4.6,6.0,6.0,2.0,38.0,1441.1,1529.0,805.0,736.0,183.0,572.0,69.0,1049.0,55.0,2.0,39.0,6350.0,97.0,4.65,1.458,9.5,1.1,3.6,6.6,1.83,1221.0
2,BAL,2006,4.74,6240.0,5610.0,768.0,1556.0,288.0,20.0,164.0,727.0,121.0,32.0,474.0,878.0,0.277,0.339,0.424,0.763,97.0,2376.0,145.0,73.0,40.0,41.0,35.0,1177.0,5.55,0.432,5.35,5.0,9.0,1.0,35.0,1419.0,1579.0,899.0,843.0,216.0,613.0,26.0,1016.0,48.0,4.0,59.0,6327.0,86.0,5.09,1.545,10.0,1.4,3.9,6.4,1.66,1171.0
3,BOS,2006,5.06,6435.0,5619.0,820.0,1510.0,327.0,16.0,192.0,777.0,51.0,23.0,672.0,1056.0,0.269,0.351,0.435,0.786,98.0,2445.0,136.0,66.0,22.0,56.0,56.0,1301.0,5.09,0.531,4.83,3.0,6.0,1.0,46.0,1441.1,1570.0,825.0,773.0,181.0,509.0,25.0,1070.0,68.0,3.0,52.0,6292.0,99.0,4.5,1.442,9.8,1.1,3.2,6.7,2.1,1143.0
4,CHC,2006,4.42,6147.0,5587.0,716.0,1496.0,271.0,46.0,166.0,677.0,121.0,49.0,395.0,928.0,0.268,0.319,0.422,0.741,86.0,2357.0,135.0,43.0,84.0,37.0,24.0,1082.0,5.15,0.407,4.74,2.0,7.0,1.0,29.0,1439.0,1396.0,834.0,758.0,210.0,687.0,44.0,1250.0,67.0,4.0,68.0,6366.0,98.0,4.88,1.448,8.7,1.3,4.3,7.8,1.82,1215.0
5,CHW,2006,5.36,6318.0,5657.0,868.0,1586.0,291.0,20.0,236.0,839.0,93.0,48.0,502.0,1056.0,0.28,0.342,0.464,0.806,103.0,2625.0,118.0,58.0,44.0,57.0,33.0,1125.0,4.9,0.556,4.61,5.0,11.0,2.0,46.0,1449.0,1534.0,794.0,743.0,200.0,433.0,59.0,1012.0,58.0,1.0,51.0,6232.0,103.0,4.56,1.357,9.5,1.2,2.7,6.3,2.34,1091.0
6,CIN,2006,4.62,6296.0,5515.0,749.0,1419.0,291.0,12.0,217.0,718.0,124.0,33.0,614.0,1192.0,0.257,0.336,0.432,0.768,93.0,2385.0,122.0,59.0,66.0,38.0,52.0,1196.0,4.94,0.494,4.51,9.0,10.0,3.0,36.0,1445.2,1576.0,801.0,725.0,213.0,464.0,55.0,1053.0,60.0,9.0,40.0,6319.0,104.0,4.69,1.411,9.8,1.3,2.9,6.6,2.27,1181.0
7,CLE,2006,5.37,6303.0,5619.0,870.0,1576.0,351.0,27.0,196.0,839.0,55.0,23.0,556.0,1204.0,0.28,0.349,0.457,0.806,108.0,2569.0,127.0,54.0,30.0,43.0,42.0,1162.0,4.83,0.481,4.41,13.0,13.0,6.0,24.0,1423.1,1583.0,782.0,698.0,166.0,429.0,35.0,948.0,51.0,2.0,46.0,6190.0,101.0,4.34,1.414,10.0,1.0,2.7,6.0,2.21,1138.0
8,COL,2006,5.02,6348.0,5562.0,813.0,1504.0,325.0,54.0,157.0,761.0,85.0,50.0,561.0,1108.0,0.27,0.341,0.433,0.774,90.0,2408.0,119.0,60.0,119.0,45.0,64.0,1174.0,5.01,0.469,4.66,5.0,8.0,4.0,34.0,1447.1,1549.0,812.0,749.0,155.0,553.0,81.0,952.0,66.0,2.0,43.0,6318.0,106.0,4.51,1.452,9.6,1.0,3.4,5.9,1.72,1164.0
9,DET,2006,5.07,6198.0,5642.0,822.0,1548.0,294.0,40.0,203.0,785.0,60.0,40.0,430.0,1133.0,0.274,0.329,0.449,0.777,99.0,2531.0,120.0,45.0,45.0,36.0,27.0,1068.0,4.17,0.586,3.84,3.0,16.0,1.0,46.0,1448.0,1420.0,675.0,618.0,160.0,489.0,35.0,1003.0,53.0,2.0,44.0,6145.0,119.0,4.32,1.318,8.8,1.0,3.0,6.2,2.05,1126.0
10,FLA,2006,4.68,6191.0,5502.0,758.0,1454.0,309.0,42.0,182.0,713.0,110.0,58.0,497.0,1249.0,0.264,0.331,0.435,0.766,99.0,2393.0,109.0,74.0,76.0,42.0,55.0,1126.0,4.77,0.481,4.37,6.0,6.0,2.0,41.0,1433.1,1465.0,772.0,696.0,166.0,622.0,58.0,1088.0,74.0,4.0,47.0,6294.0,99.0,4.59,1.456,9.2,1.0,3.9,6.8,1.75,1222.0
11,HOU,2006,4.54,6326.0,5521.0,735.0,1407.0,275.0,27.0,174.0,708.0,79.0,36.0,585.0,1076.0,0.255,0.332,0.409,0.741,89.0,2258.0,122.0,73.0,100.0,46.0,54.0,1191.0,4.44,0.506,4.08,5.0,12.0,2.0,42.0,1468.2,1425.0,719.0,666.0,182.0,480.0,65.0,1160.0,54.0,2.0,44.0,6219.0,109.0,4.27,1.297,8.7,1.1,2.9,7.1,2.42,1094.0
12,KCR,2006,4.67,6229.0,5589.0,757.0,1515.0,335.0,37.0,124.0,718.0,65.0,34.0,474.0,1040.0,0.271,0.332,0.411,0.743,91.0,2296.0,130.0,64.0,52.0,48.0,32.0,1144.0,5.99,0.383,5.65,3.0,5.0,2.0,35.0,1426.1,1648.0,971.0,896.0,213.0,637.0,45.0,904.0,60.0,9.0,85.0,6434.0,83.0,5.29,1.602,10.4,1.3,4.0,5.7,1.42,1184.0
13,LAA,2006,4.73,6221.0,5609.0,766.0,1539.0,309.0,29.0,159.0,737.0,148.0,57.0,486.0,914.0,0.274,0.334,0.425,0.759,95.0,2383.0,126.0,42.0,31.0,53.0,49.0,1121.0,4.52,0.549,4.04,5.0,12.0,3.0,50.0,1452.2,1410.0,732.0,652.0,158.0,471.0,27.0,1164.0,50.0,3.0,85.0,6149.0,113.0,4.03,1.295,8.7,1.0,2.9,7.2,2.47,1059.0
14,LAD,2006,5.06,6394.0,5628.0,820.0,1552.0,307.0,58.0,153.0,787.0,128.0,49.0,601.0,959.0,0.276,0.348,0.432,0.781,99.0,2434.0,140.0,51.0,66.0,48.0,61.0,1223.0,4.64,0.543,4.23,1.0,10.0,0.0,40.0,1460.1,1524.0,751.0,686.0,152.0,492.0,40.0,1068.0,41.0,8.0,54.0,6289.0,107.0,4.13,1.381,9.4,0.9,3.0,6.6,2.17,1157.0
15,MIL,2006,4.51,6130.0,5433.0,730.0,1400.0,301.0,20.0,180.0,695.0,71.0,37.0,502.0,1233.0,0.258,0.327,0.42,0.747,89.0,2281.0,133.0,82.0,58.0,53.0,48.0,1108.0,5.14,0.463,4.82,7.0,8.0,5.0,43.0,1425.2,1454.0,833.0,763.0,177.0,514.0,34.0,1145.0,74.0,2.0,57.0,6210.0,95.0,4.39,1.38,9.2,1.1,3.2,7.2,2.23,1100.0
16,MIN,2006,4.94,6228.0,5602.0,801.0,1608.0,275.0,34.0,143.0,754.0,101.0,42.0,490.0,872.0,0.287,0.347,0.425,0.771,101.0,2380.0,163.0,50.0,31.0,55.0,46.0,1143.0,4.22,0.593,3.95,1.0,6.0,0.0,40.0,1439.1,1490.0,683.0,632.0,182.0,356.0,25.0,1164.0,36.0,3.0,40.0,6066.0,114.0,3.99,1.283,9.3,1.1,2.2,7.3,3.27,1065.0
17,NYM,2006,5.15,6291.0,5558.0,834.0,1469.0,323.0,41.0,200.0,800.0,146.0,35.0,547.0,1071.0,0.264,0.334,0.445,0.78,100.0,2474.0,114.0,62.0,77.0,47.0,63.0,1115.0,4.51,0.599,4.14,5.0,12.0,3.0,43.0,1461.1,1402.0,731.0,673.0,180.0,527.0,39.0,1161.0,62.0,5.0,37.0,6240.0,106.0,4.37,1.32,8.6,1.1,3.2,7.2,2.2,1125.0
18,NYY,2006,5.74,6455.0,5651.0,930.0,1608.0,327.0,21.0,210.0,902.0,139.0,35.0,649.0,1053.0,0.285,0.363,0.461,0.824,111.0,2607.0,139.0,72.0,34.0,49.0,43.0,1253.0,4.73,0.599,4.41,5.0,8.0,1.0,43.0,1443.2,1463.0,767.0,708.0,170.0,496.0,41.0,1019.0,59.0,7.0,46.0,6215.0,103.0,4.42,1.357,9.1,1.1,3.1,6.4,2.05,1117.0
19,OAK,2006,4.76,6281.0,5500.0,771.0,1429.0,266.0,22.0,175.0,735.0,61.0,20.0,650.0,976.0,0.26,0.34,0.412,0.752,97.0,2264.0,170.0,50.0,25.0,56.0,28.0,1187.0,4.49,0.574,4.21,5.0,11.0,2.0,54.0,1451.2,1525.0,727.0,679.0,162.0,529.0,47.0,1003.0,55.0,4.0,43.0,6279.0,106.0,4.42,1.415,9.5,1.0,3.3,6.2,1.9,1197.0
20,PHI,2006,5.34,6509.0,5687.0,865.0,1518.0,294.0,41.0,216.0,823.0,92.0,25.0,626.0,1203.0,0.267,0.347,0.447,0.794,98.0,2542.0,115.0,95.0,57.0,44.0,67.0,1275.0,5.01,0.525,4.6,4.0,6.0,2.0,42.0,1460.1,1561.0,812.0,747.0,211.0,512.0,63.0,1138.0,62.0,4.0,58.0,6366.0,102.0,4.65,1.42,9.6,1.3,3.2,7.0,2.22,1173.0
21,PIT,2006,4.27,6218.0,5558.0,691.0,1462.0,286.0,17.0,141.0,656.0,68.0,23.0,459.0,1200.0,0.263,0.327,0.397,0.723,86.0,2205.0,153.0,89.0,62.0,49.0,49.0,1175.0,4.92,0.414,4.52,2.0,10.0,1.0,39.0,1435.0,1545.0,797.0,720.0,156.0,620.0,62.0,1060.0,70.0,6.0,61.0,6354.0,98.0,4.53,1.509,9.7,1.0,3.9,6.6,1.71,1252.0
22,SDP,2006,4.51,6287.0,5576.0,731.0,1465.0,298.0,38.0,161.0,698.0,123.0,31.0,564.0,1104.0,0.263,0.332,0.416,0.749,99.0,2322.0,127.0,40.0,59.0,47.0,37.0,1188.0,4.19,0.543,3.87,4.0,11.0,2.0,50.0,1463.2,1385.0,679.0,629.0,176.0,468.0,63.0,1097.0,50.0,4.0,34.0,6175.0,105.0,4.27,1.266,8.5,1.1,2.9,6.7,2.34,1105.0
23,SEA,2006,4.67,6213.0,5670.0,756.0,1540.0,266.0,42.0,172.0,703.0,106.0,37.0,404.0,974.0,0.272,0.325,0.424,0.749,95.0,2406.0,117.0,63.0,38.0,38.0,49.0,1110.0,4.89,0.481,4.6,6.0,6.0,2.0,47.0,1446.2,1500.0,792.0,739.0,183.0,560.0,50.0,1067.0,53.0,6.0,47.0,6294.0,97.0,4.59,1.424,9.3,1.1,3.5,6.6,1.91,1162.0
24,SFG,2006,4.63,6136.0,5472.0,746.0,1418.0,297.0,52.0,163.0,711.0,58.0,25.0,494.0,891.0,0.259,0.324,0.422,0.746,90.0,2308.0,136.0,53.0,80.0,37.0,76.0,1092.0,4.91,0.472,4.63,7.0,9.0,3.0,37.0,1429.2,1422.0,790.0,735.0,153.0,584.0,37.0,992.0,70.0,7.0,50.0,6225.0,97.0,4.52,1.403,9.0,1.0,3.7,6.2,1.7,1146.0
25,STL,2006,4.85,6225.0,5522.0,781.0,1484.0,292.0,27.0,184.0,745.0,59.0,32.0,531.0,922.0,0.269,0.337,0.431,0.769,97.0,2382.0,129.0,61.0,71.0,40.0,70.0,1158.0,4.73,0.516,4.54,6.0,9.0,3.0,38.0,1429.2,1475.0,762.0,721.0,193.0,504.0,35.0,970.0,80.0,3.0,35.0,6196.0,98.0,4.77,1.384,9.3,1.2,3.2,6.1,1.92,1145.0
26,TBD,2006,4.25,6041.0,5474.0,689.0,1395.0,267.0,33.0,190.0,650.0,134.0,52.0,441.0,1106.0,0.255,0.314,0.42,0.733,89.0,2298.0,101.0,47.0,35.0,43.0,23.0,1038.0,5.28,0.377,4.96,3.0,7.0,2.0,33.0,1420.1,1600.0,856.0,782.0,180.0,606.0,39.0,979.0,63.0,8.0,70.0,6374.0,93.0,4.83,1.553,10.1,1.1,3.8,6.2,1.62,1257.0
27,TEX,2006,5.15,6273.0,5659.0,835.0,1571.0,357.0,23.0,183.0,799.0,53.0,24.0,505.0,1061.0,0.278,0.338,0.446,0.784,101.0,2523.0,148.0,40.0,18.0,50.0,35.0,1139.0,4.84,0.494,4.6,3.0,8.0,1.0,42.0,1431.1,1558.0,784.0,731.0,162.0,496.0,18.0,972.0,66.0,4.0,34.0,6237.0,101.0,4.44,1.435,9.8,1.0,3.1,6.1,1.96,1159.0
28,TOR,2006,4.99,6241.0,5596.0,809.0,1591.0,348.0,27.0,199.0,778.0,65.0,33.0,514.0,906.0,0.284,0.348,0.463,0.811,108.0,2590.0,166.0,63.0,16.0,52.0,31.0,1162.0,4.65,0.537,4.37,6.0,6.0,1.0,42.0,1428.1,1447.0,754.0,694.0,185.0,504.0,56.0,1076.0,59.0,13.0,53.0,6151.0,105.0,4.51,1.366,9.1,1.2,3.2,6.8,2.13,1112.0
29,WSN,2006,4.6,6283.0,5495.0,746.0,1437.0,322.0,22.0,164.0,695.0,123.0,62.0,594.0,1156.0,0.262,0.338,0.418,0.756,98.0,2295.0,118.0,69.0,76.0,49.0,66.0,1194.0,5.38,0.438,5.03,1.0,3.0,1.0,32.0,1436.1,1535.0,872.0,803.0,193.0,584.0,93.0,960.0,92.0,10.0,47.0,6424.0,85.0,4.97,1.475,9.6,1.2,3.7,6.0,1.64,1243.0
30,ARI,2007,4.4,6101.0,5398.0,712.0,1350.0,286.0,40.0,171.0,687.0,109.0,24.0,532.0,1111.0,0.25,0.321,0.413,0.734,83.0,2229.0,121.0,57.0,55.0,58.0,38.0,1090.0,4.52,0.556,4.13,7.0,12.0,4.0,51.0,1441.0,1446.0,732.0,662.0,169.0,546.0,38.0,1088.0,61.0,9.0,48.0,6216.0,115.0,4.52,1.382,9.0,1.1,3.4,6.8,1.99,1161.0
31,ATL,2007,5.0,6374.0,5689.0,810.0,1562.0,328.0,27.0,176.0,781.0,64.0,30.0,534.0,1149.0,0.275,0.339,0.435,0.774,101.0,2472.0,137.0,49.0,55.0,47.0,43.0,1205.0,4.52,0.519,4.11,1.0,6.0,1.0,36.0,1456.1,1442.0,733.0,665.0,172.0,537.0,89.0,1106.0,42.0,5.0,48.0,6263.0,107.0,4.45,1.359,8.9,1.1,3.3,6.8,2.06,1161.0
32,BAL,2007,4.67,6264.0,5631.0,756.0,1529.0,306.0,30.0,142.0,718.0,144.0,42.0,500.0,939.0,0.272,0.333,0.412,0.746,95.0,2321.0,139.0,47.0,38.0,47.0,31.0,1152.0,5.36,0.426,5.17,4.0,9.0,1.0,30.0,1438.2,1491.0,868.0,827.0,161.0,696.0,37.0,1087.0,72.0,8.0,55.0,6418.0,89.0,4.79,1.52,9.3,1.0,4.4,6.8,1.56,1234.0
33,BOS,2007,5.35,6426.0,5589.0,867.0,1561.0,352.0,35.0,166.0,829.0,96.0,24.0,689.0,1042.0,0.279,0.362,0.444,0.806,107.0,2481.0,146.0,64.0,30.0,54.0,54.0,1291.0,4.06,0.593,3.87,5.0,13.0,3.0,45.0,1438.2,1350.0,657.0,618.0,151.0,482.0,20.0,1149.0,62.0,0.0,33.0,6071.0,123.0,4.14,1.273,8.4,0.9,3.0,7.2,2.38,1098.0
34,CHC,2007,4.64,6268.0,5643.0,752.0,1530.0,340.0,28.0,151.0,711.0,86.0,33.0,500.0,1054.0,0.271,0.333,0.422,0.754,90.0,2379.0,127.0,40.0,48.0,37.0,48.0,1190.0,4.26,0.525,4.04,2.0,10.0,1.0,39.0,1446.2,1340.0,690.0,650.0,165.0,573.0,46.0,1211.0,59.0,3.0,42.0,6186.0,115.0,4.36,1.322,8.3,1.0,3.6,7.5,2.11,1156.0
35,CHW,2007,4.28,6103.0,5441.0,693.0,1341.0,249.0,20.0,190.0,667.0,78.0,45.0,532.0,1149.0,0.246,0.318,0.404,0.722,86.0,2200.0,138.0,52.0,41.0,35.0,33.0,1074.0,5.18,0.444,4.77,9.0,9.0,4.0,42.0,1440.2,1556.0,839.0,763.0,174.0,499.0,50.0,1015.0,59.0,0.0,45.0,6293.0,99.0,4.56,1.426,9.7,1.1,3.1,6.3,2.03,1132.0
36,CIN,2007,4.83,6332.0,5607.0,783.0,1496.0,293.0,23.0,204.0,747.0,97.0,31.0,536.0,1113.0,0.267,0.335,0.436,0.772,95.0,2447.0,140.0,66.0,73.0,46.0,51.0,1170.0,5.27,0.444,4.94,6.0,7.0,2.0,34.0,1449.2,1605.0,853.0,796.0,198.0,482.0,47.0,1068.0,73.0,5.0,54.0,6354.0,94.0,4.69,1.44,10.0,1.2,3.0,6.6,2.22,1152.0
37,CLE,2007,5.01,6367.0,5604.0,811.0,1504.0,305.0,27.0,178.0,784.0,72.0,41.0,590.0,1202.0,0.268,0.343,0.428,0.771,102.0,2397.0,114.0,80.0,32.0,59.0,56.0,1215.0,4.35,0.593,4.05,9.0,9.0,4.0,49.0,1462.2,1519.0,704.0,658.0,146.0,410.0,42.0,1047.0,56.0,2.0,42.0,6206.0,112.0,4.06,1.319,9.3,0.9,2.5,6.4,2.55,1114.0
38,COL,2007,5.28,6498.0,5691.0,860.0,1591.0,313.0,36.0,171.0,823.0,100.0,31.0,622.0,1152.0,0.28,0.354,0.437,0.791,98.0,2489.0,140.0,58.0,83.0,44.0,51.0,1251.0,4.65,0.552,4.32,4.0,7.0,1.0,39.0,1472.0,1497.0,758.0,706.0,164.0,504.0,61.0,967.0,59.0,8.0,35.0,6293.0,112.0,4.52,1.359,9.2,1.0,3.1,5.9,1.92,1119.0
39,DET,2007,5.48,6364.0,5757.0,887.0,1652.0,352.0,50.0,177.0,857.0,103.0,30.0,474.0,1054.0,0.287,0.345,0.458,0.802,108.0,2635.0,128.0,56.0,31.0,45.0,45.0,1148.0,4.92,0.543,4.57,1.0,9.0,1.0,44.0,1447.1,1498.0,797.0,735.0,174.0,566.0,41.0,1047.0,68.0,8.0,75.0,6345.0,100.0,4.67,1.426,9.3,1.1,3.5,6.5,1.85,1206.0
40,FLA,2007,4.88,6344.0,5627.0,790.0,1504.0,340.0,38.0,201.0,749.0,105.0,34.0,521.0,1332.0,0.267,0.336,0.448,0.784,104.0,2523.0,107.0,82.0,72.0,42.0,46.0,1192.0,5.5,0.438,4.94,0.0,4.0,0.0,40.0,1443.2,1617.0,891.0,793.0,176.0,661.0,60.0,1142.0,76.0,9.0,67.0,6544.0,88.0,4.77,1.578,10.1,1.1,4.1,7.1,1.73,1322.0
41,HOU,2007,4.46,6324.0,5605.0,723.0,1457.0,293.0,30.0,167.0,700.0,65.0,33.0,547.0,1043.0,0.26,0.33,0.412,0.742,91.0,2311.0,142.0,55.0,77.0,40.0,40.0,1181.0,5.02,0.451,4.68,2.0,6.0,1.0,38.0,1464.2,1566.0,813.0,761.0,206.0,510.0,62.0,1109.0,63.0,3.0,40.0,6417.0,95.0,4.73,1.417,9.6,1.3,3.1,6.8,2.17,1210.0
42,KCR,2007,4.36,6140.0,5534.0,706.0,1447.0,300.0,46.0,102.0,660.0,78.0,44.0,428.0,1069.0,0.261,0.322,0.388,0.71,87.0,2145.0,151.0,89.0,41.0,47.0,34.0,1089.0,4.8,0.426,4.48,2.0,6.0,0.0,36.0,1437.1,1547.0,778.0,716.0,168.0,520.0,54.0,993.0,41.0,4.0,56.0,6253.0,102.0,4.55,1.438,9.7,1.1,3.3,6.2,1.91,1163.0
43,LAA,2007,5.07,6198.0,5554.0,822.0,1578.0,324.0,23.0,123.0,776.0,139.0,55.0,507.0,883.0,0.284,0.345,0.417,0.762,99.0,2317.0,146.0,40.0,32.0,65.0,55.0,1100.0,4.51,0.58,4.23,5.0,9.0,3.0,43.0,1435.0,1480.0,731.0,674.0,151.0,477.0,22.0,1156.0,51.0,5.0,69.0,6161.0,107.0,4.1,1.364,9.3,0.9,3.0,7.3,2.42,1125.0
44,LAD,2007,4.54,6282.0,5614.0,735.0,1544.0,276.0,35.0,129.0,706.0,137.0,50.0,511.0,864.0,0.275,0.337,0.406,0.743,91.0,2277.0,116.0,41.0,58.0,55.0,41.0,1200.0,4.49,0.506,4.2,4.0,6.0,0.0,43.0,1450.0,1443.0,727.0,677.0,146.0,518.0,34.0,1184.0,38.0,5.0,44.0,6196.0,106.0,4.07,1.352,9.0,0.9,3.2,7.3,2.29,1119.0
45,MIL,2007,4.94,6238.0,5554.0,801.0,1455.0,310.0,37.0,231.0,774.0,96.0,32.0,501.0,1137.0,0.262,0.329,0.456,0.785,101.0,2532.0,112.0,76.0,60.0,47.0,60.0,1117.0,4.79,0.512,4.41,3.0,6.0,0.0,49.0,1444.1,1513.0,776.0,708.0,161.0,507.0,37.0,1174.0,52.0,2.0,57.0,6285.0,100.0,4.22,1.399,9.4,1.0,3.2,7.3,2.32,1176.0
46,MIN,2007,4.43,6161.0,5522.0,718.0,1460.0,273.0,36.0,118.0,671.0,112.0,30.0,512.0,839.0,0.264,0.33,0.391,0.721,94.0,2159.0,149.0,48.0,34.0,45.0,41.0,1121.0,4.48,0.488,4.15,5.0,8.0,3.0,38.0,1436.2,1505.0,725.0,663.0,185.0,420.0,33.0,1094.0,51.0,5.0,46.0,6133.0,103.0,4.37,1.34,9.4,1.2,2.6,6.9,2.6,1098.0
47,NYM,2007,4.96,6344.0,5605.0,804.0,1543.0,294.0,27.0,177.0,761.0,200.0,46.0,549.0,981.0,0.275,0.342,0.432,0.775,101.0,2422.0,114.0,54.0,77.0,58.0,64.0,1196.0,4.63,0.543,4.26,2.0,10.0,2.0,39.0,1452.1,1415.0,750.0,687.0,165.0,570.0,40.0,1134.0,61.0,3.0,36.0,6293.0,101.0,4.46,1.367,8.8,1.0,3.5,7.0,1.99,1186.0
48,NYY,2007,5.98,6528.0,5717.0,968.0,1656.0,326.0,32.0,201.0,929.0,123.0,40.0,637.0,991.0,0.29,0.366,0.463,0.829,116.0,2649.0,138.0,78.0,41.0,54.0,32.0,1249.0,4.8,0.58,4.49,1.0,5.0,0.0,34.0,1450.2,1498.0,777.0,724.0,150.0,578.0,33.0,1009.0,60.0,6.0,59.0,6308.0,101.0,4.51,1.431,9.3,0.9,3.6,6.3,1.75,1179.0
49,OAK,2007,4.57,6365.0,5577.0,741.0,1430.0,295.0,16.0,171.0,711.0,52.0,20.0,664.0,1119.0,0.256,0.338,0.407,0.745,101.0,2270.0,142.0,49.0,18.0,56.0,29.0,1258.0,4.68,0.469,4.28,4.0,9.0,1.0,36.0,1448.0,1468.0,758.0,689.0,138.0,530.0,60.0,1036.0,43.0,4.0,52.0,6247.0,99.0,4.24,1.38,9.1,0.9,3.3,6.4,1.95,1145.0
50,PHI,2007,5.51,6537.0,5688.0,892.0,1558.0,326.0,41.0,213.0,850.0,138.0,19.0,641.0,1205.0,0.274,0.354,0.458,0.812,105.0,2605.0,125.0,90.0,65.0,52.0,74.0,1295.0,5.07,0.549,4.73,5.0,5.0,2.0,42.0,1458.1,1555.0,821.0,767.0,198.0,558.0,62.0,1050.0,72.0,3.0,46.0,6385.0,97.0,4.86,1.449,9.6,1.2,3.4,6.5,1.88,1189.0
51,PIT,2007,4.47,6214.0,5569.0,724.0,1463.0,322.0,31.0,148.0,694.0,68.0,30.0,463.0,1135.0,0.263,0.325,0.411,0.736,92.0,2291.0,130.0,71.0,60.0,51.0,31.0,1119.0,5.22,0.42,4.93,4.0,5.0,2.0,32.0,1447.2,1627.0,846.0,793.0,174.0,518.0,55.0,997.0,76.0,3.0,45.0,6374.0,89.0,4.66,1.482,10.1,1.1,3.2,6.2,1.92,1185.0
52,SDP,2007,4.55,6326.0,5612.0,741.0,1408.0,322.0,31.0,171.0,704.0,55.0,24.0,557.0,1229.0,0.251,0.322,0.411,0.732,97.0,2305.0,113.0,49.0,64.0,44.0,45.0,1152.0,4.09,0.546,3.7,1.0,20.0,0.0,45.0,1484.2,1406.0,666.0,611.0,119.0,474.0,48.0,1136.0,48.0,6.0,42.0,6254.0,108.0,3.81,1.266,8.5,0.7,2.9,6.9,2.4,1134.0
53,SEA,2007,4.9,6209.0,5684.0,794.0,1629.0,284.0,22.0,153.0,754.0,81.0,30.0,389.0,861.0,0.287,0.337,0.425,0.762,103.0,2416.0,154.0,62.0,33.0,40.0,32.0,1128.0,5.02,0.543,4.73,6.0,12.0,4.0,43.0,1434.1,1578.0,813.0,754.0,147.0,546.0,39.0,1020.0,62.0,10.0,59.0,6313.0,92.0,4.42,1.481,9.9,0.9,3.4,6.4,1.87,1197.0
54,SFG,2007,4.22,6213.0,5538.0,683.0,1407.0,267.0,37.0,131.0,641.0,119.0,33.0,532.0,907.0,0.254,0.322,0.387,0.708,82.0,2141.0,142.0,39.0,67.0,36.0,74.0,1141.0,4.44,0.438,4.19,5.0,10.0,0.0,37.0,1453.2,1442.0,720.0,677.0,133.0,593.0,41.0,1057.0,47.0,4.0,49.0,6299.0,107.0,4.3,1.4,8.9,0.8,3.7,6.5,1.78,1218.0
55,STL,2007,4.48,6211.0,5529.0,725.0,1513.0,279.0,13.0,141.0,690.0,56.0,33.0,506.0,909.0,0.274,0.337,0.405,0.743,92.0,2241.0,154.0,54.0,68.0,54.0,47.0,1167.0,5.12,0.481,4.65,2.0,8.0,0.0,34.0,1435.2,1514.0,829.0,741.0,168.0,509.0,25.0,945.0,73.0,6.0,39.0,6283.0,95.0,4.66,1.409,9.5,1.1,3.2,5.9,1.86,1147.0
56,TBD,2007,4.83,6280.0,5593.0,782.0,1500.0,291.0,36.0,187.0,750.0,131.0,48.0,545.0,1324.0,0.268,0.336,0.433,0.769,103.0,2424.0,119.0,53.0,34.0,52.0,31.0,1166.0,5.83,0.407,5.53,2.0,2.0,1.0,28.0,1429.2,1649.0,944.0,879.0,199.0,568.0,31.0,1194.0,63.0,2.0,55.0,6403.0,82.0,4.7,1.551,10.4,1.3,3.6,7.5,2.1,1170.0
57,TEX,2007,5.04,6214.0,5555.0,816.0,1460.0,298.0,36.0,179.0,768.0,88.0,25.0,503.0,1224.0,0.263,0.328,0.426,0.754,97.0,2367.0,129.0,56.0,57.0,42.0,27.0,1092.0,5.21,0.463,4.75,0.0,6.0,0.0,42.0,1430.0,1525.0,844.0,755.0,155.0,668.0,38.0,976.0,70.0,4.0,66.0,6389.0,96.0,4.83,1.534,9.6,1.0,4.2,6.1,1.46,1255.0
58,TOR,2007,4.65,6197.0,5536.0,753.0,1434.0,344.0,24.0,165.0,719.0,57.0,22.0,533.0,1044.0,0.259,0.327,0.419,0.746,95.0,2321.0,127.0,47.0,33.0,48.0,32.0,1112.0,4.31,0.512,4.0,11.0,9.0,2.0,44.0,1448.2,1383.0,699.0,644.0,157.0,479.0,34.0,1067.0,55.0,3.0,42.0,6108.0,112.0,4.28,1.285,8.6,1.0,3.0,6.6,2.23,1063.0
59,WSN,2007,4.15,6201.0,5520.0,673.0,1415.0,309.0,31.0,123.0,646.0,69.0,23.0,524.0,1128.0,0.256,0.325,0.39,0.715,89.0,2155.0,143.0,53.0,63.0,41.0,38.0,1163.0,4.83,0.451,4.58,0.0,6.0,0.0,46.0,1446.2,1502.0,783.0,736.0,187.0,580.0,44.0,931.0,42.0,4.0,52.0,6333.0,93.0,4.92,1.439,9.3,1.2,3.6,5.8,1.61,1210.0
60,ARI,2008,4.44,6156.0,5409.0,720.0,1355.0,318.0,47.0,159.0,683.0,58.0,23.0,587.0,1287.0,0.251,0.327,0.415,0.742,88.0,2244.0,105.0,49.0,68.0,43.0,49.0,1142.0,4.36,0.506,3.98,6.0,9.0,2.0,39.0,1434.2,1403.0,706.0,635.0,147.0,451.0,41.0,1229.0,68.0,3.0,59.0,6119.0,117.0,3.84,1.292,8.8,0.9,2.8,7.7,2.73,1109.0
61,ATL,2008,4.65,6368.0,5604.0,753.0,1514.0,316.0,33.0,130.0,721.0,58.0,27.0,618.0,1023.0,0.27,0.345,0.408,0.753,99.0,2286.0,143.0,42.0,69.0,34.0,56.0,1274.0,4.8,0.444,4.46,2.0,7.0,1.0,26.0,1440.2,1439.0,778.0,714.0,156.0,586.0,80.0,1076.0,42.0,5.0,42.0,6244.0,95.0,4.35,1.406,9.0,1.0,3.7,6.7,1.84,1144.0
62,BAL,2008,4.86,6211.0,5559.0,782.0,1486.0,322.0,30.0,172.0,750.0,81.0,37.0,533.0,990.0,0.267,0.333,0.429,0.762,100.0,2384.0,111.0,42.0,27.0,48.0,37.0,1134.0,5.4,0.422,5.13,4.0,4.0,1.0,35.0,1422.0,1538.0,869.0,810.0,184.0,687.0,44.0,922.0,80.0,7.0,72.0,6414.0,87.0,5.14,1.565,9.7,1.2,4.3,5.8,1.34,1279.0
63,BOS,2008,5.22,6402.0,5596.0,845.0,1565.0,353.0,33.0,173.0,807.0,120.0,35.0,646.0,1068.0,0.28,0.358,0.447,0.805,106.0,2503.0,147.0,70.0,28.0,62.0,49.0,1262.0,4.28,0.586,4.01,5.0,16.0,2.0,47.0,1446.1,1369.0,694.0,645.0,147.0,548.0,17.0,1185.0,68.0,2.0,43.0,6180.0,116.0,4.09,1.325,8.5,0.9,3.4,7.4,2.16,1147.0
64,CHC,2008,5.31,6384.0,5588.0,855.0,1552.0,329.0,21.0,184.0,811.0,87.0,34.0,636.0,1186.0,0.278,0.354,0.443,0.797,102.0,2475.0,134.0,50.0,65.0,45.0,48.0,1237.0,4.17,0.602,3.87,2.0,8.0,1.0,44.0,1450.2,1329.0,671.0,624.0,160.0,548.0,45.0,1264.0,65.0,7.0,48.0,6194.0,119.0,4.09,1.294,8.2,1.0,3.4,7.8,2.31,1171.0
65,CHW,2008,4.98,6231.0,5553.0,811.0,1458.0,296.0,13.0,235.0,785.0,67.0,34.0,540.0,1016.0,0.263,0.332,0.448,0.78,101.0,2485.0,157.0,63.0,28.0,47.0,33.0,1067.0,4.47,0.546,4.06,4.0,10.0,0.0,34.0,1457.2,1471.0,729.0,658.0,156.0,460.0,42.0,1147.0,48.0,3.0,54.0,6218.0,112.0,4.0,1.325,9.1,1.0,2.8,7.1,2.49,1116.0
66,CIN,2008,4.35,6188.0,5465.0,704.0,1351.0,269.0,24.0,187.0,677.0,85.0,47.0,560.0,1125.0,0.247,0.321,0.408,0.729,89.0,2229.0,101.0,50.0,72.0,41.0,50.0,1138.0,4.94,0.457,4.55,2.0,6.0,1.0,34.0,1442.1,1542.0,800.0,729.0,201.0,557.0,40.0,1227.0,67.0,7.0,52.0,6352.0,98.0,4.54,1.455,9.6,1.3,3.5,7.7,2.2,1225.0
67,CLE,2008,4.97,6299.0,5543.0,805.0,1455.0,339.0,22.0,171.0,772.0,77.0,29.0,560.0,1213.0,0.262,0.339,0.424,0.763,103.0,2351.0,123.0,103.0,43.0,49.0,44.0,1184.0,4.7,0.5,4.45,10.0,13.0,5.0,31.0,1437.0,1530.0,761.0,711.0,170.0,444.0,28.0,986.0,51.0,5.0,44.0,6164.0,96.0,4.33,1.374,9.6,1.1,2.8,6.2,2.22,1092.0
68,COL,2008,4.61,6312.0,5557.0,747.0,1462.0,310.0,28.0,160.0,714.0,141.0,37.0,570.0,1209.0,0.263,0.336,0.415,0.751,89.0,2308.0,119.0,57.0,90.0,38.0,36.0,1207.0,5.07,0.457,4.77,3.0,8.0,1.0,36.0,1446.0,1547.0,822.0,766.0,148.0,562.0,49.0,1041.0,53.0,7.0,61.0,6338.0,99.0,4.3,1.459,9.6,0.9,3.5,6.5,1.85,1178.0
69,DET,2008,5.07,6331.0,5641.0,821.0,1529.0,293.0,41.0,200.0,780.0,63.0,31.0,572.0,1076.0,0.271,0.34,0.444,0.784,104.0,2504.0,144.0,44.0,30.0,44.0,23.0,1159.0,5.29,0.457,4.9,1.0,2.0,0.0,34.0,1445.0,1541.0,857.0,786.0,172.0,644.0,63.0,991.0,68.0,7.0,65.0,6411.0,92.0,4.79,1.512,9.6,1.1,4.0,6.2,1.54,1219.0
70,FLA,2008,4.78,6206.0,5499.0,770.0,1397.0,302.0,28.0,208.0,741.0,76.0,28.0,543.0,1371.0,0.254,0.326,0.433,0.759,97.0,2379.0,98.0,69.0,49.0,46.0,50.0,1140.0,4.76,0.522,4.43,2.0,8.0,1.0,36.0,1435.1,1421.0,767.0,707.0,161.0,586.0,66.0,1127.0,58.0,4.0,59.0,6271.0,98.0,4.37,1.398,8.9,1.0,3.7,7.1,1.92,1198.0
71,HOU,2008,4.42,6051.0,5451.0,712.0,1432.0,284.0,22.0,167.0,684.0,114.0,52.0,449.0,1051.0,0.263,0.323,0.415,0.737,94.0,2261.0,116.0,52.0,57.0,41.0,42.0,1073.0,4.61,0.534,4.36,4.0,13.0,3.0,48.0,1425.1,1453.0,743.0,691.0,197.0,492.0,53.0,1095.0,50.0,9.0,22.0,6125.0,96.0,4.53,1.365,9.2,1.2,3.1,6.9,2.23,1106.0
72,KCR,2008,4.27,6118.0,5608.0,691.0,1507.0,303.0,28.0,120.0,650.0,79.0,38.0,392.0,1005.0,0.269,0.32,0.397,0.717,91.0,2226.0,144.0,50.0,32.0,36.0,31.0,1073.0,4.82,0.463,4.48,2.0,8.0,0.0,44.0,1445.2,1473.0,781.0,720.0,159.0,515.0,15.0,1085.0,41.0,5.0,68.0,6214.0,97.0,4.21,1.375,9.2,1.0,3.2,6.8,2.11,1096.0
73,LAA,2008,4.72,6155.0,5540.0,765.0,1486.0,274.0,25.0,159.0,721.0,129.0,48.0,481.0,987.0,0.268,0.33,0.413,0.743,94.0,2287.0,140.0,52.0,32.0,50.0,52.0,1087.0,4.3,0.617,3.99,7.0,10.0,1.0,66.0,1451.1,1455.0,697.0,644.0,160.0,457.0,32.0,1106.0,63.0,2.0,50.0,6161.0,112.0,4.12,1.317,9.0,1.0,2.8,6.9,2.42,1110.0
74,LAD,2008,4.32,6194.0,5506.0,700.0,1455.0,271.0,29.0,137.0,659.0,126.0,43.0,543.0,1032.0,0.264,0.333,0.399,0.732,93.0,2195.0,153.0,43.0,64.0,38.0,62.0,1161.0,4.0,0.519,3.68,5.0,11.0,4.0,35.0,1447.1,1381.0,648.0,591.0,123.0,480.0,58.0,1205.0,48.0,4.0,47.0,6127.0,114.0,3.67,1.286,8.6,0.8,3.0,7.5,2.51,1137.0
75,MIL,2008,4.63,6252.0,5535.0,750.0,1398.0,324.0,35.0,198.0,722.0,108.0,38.0,550.0,1203.0,0.253,0.325,0.431,0.757,99.0,2386.0,97.0,69.0,54.0,43.0,44.0,1153.0,4.25,0.556,3.85,12.0,10.0,6.0,45.0,1455.2,1415.0,689.0,623.0,175.0,528.0,32.0,1110.0,42.0,5.0,53.0,6209.0,109.0,4.34,1.335,8.7,1.1,3.3,6.9,2.1,1153.0
76,MIN,2008,5.09,6331.0,5641.0,829.0,1572.0,298.0,49.0,111.0,791.0,102.0,42.0,529.0,979.0,0.279,0.34,0.408,0.748,102.0,2301.0,142.0,36.0,52.0,72.0,48.0,1140.0,4.57,0.54,4.16,5.0,10.0,2.0,42.0,1459.0,1568.0,745.0,675.0,183.0,406.0,38.0,995.0,31.0,4.0,45.0,6221.0,101.0,4.3,1.353,9.7,1.1,2.5,6.1,2.45,1099.0
77,NYM,2008,4.93,6388.0,5606.0,799.0,1491.0,274.0,38.0,172.0,751.0,138.0,36.0,619.0,1024.0,0.266,0.34,0.42,0.761,100.0,2357.0,129.0,39.0,73.0,49.0,71.0,1220.0,4.41,0.549,4.07,5.0,12.0,2.0,43.0,1464.1,1415.0,715.0,662.0,163.0,590.0,53.0,1181.0,70.0,4.0,55.0,6338.0,104.0,4.32,1.369,8.7,1.0,3.6,7.3,2.0,1230.0
78,NYY,2008,4.87,6257.0,5572.0,789.0,1512.0,289.0,20.0,180.0,758.0,118.0,39.0,535.0,1015.0,0.271,0.342,0.427,0.769,101.0,2381.0,149.0,80.0,31.0,39.0,36.0,1160.0,4.49,0.549,4.28,1.0,11.0,0.0,42.0,1441.2,1478.0,727.0,685.0,143.0,489.0,37.0,1141.0,51.0,5.0,55.0,6175.0,104.0,3.96,1.364,9.2,0.9,3.1,7.1,2.33,1123.0
79,OAK,2008,4.01,6138.0,5451.0,646.0,1318.0,270.0,23.0,125.0,610.0,88.0,21.0,574.0,1226.0,0.242,0.318,0.369,0.686,86.0,2009.0,126.0,48.0,30.0,35.0,23.0,1166.0,4.29,0.466,4.01,4.0,7.0,1.0,33.0,1435.0,1364.0,690.0,640.0,135.0,576.0,45.0,1061.0,54.0,4.0,30.0,6112.0,104.0,4.19,1.352,8.6,0.8,3.6,6.7,1.84,1117.0
80,PHI,2008,4.93,6273.0,5509.0,799.0,1407.0,291.0,36.0,214.0,762.0,136.0,25.0,586.0,1117.0,0.255,0.332,0.438,0.77,98.0,2412.0,108.0,67.0,71.0,40.0,68.0,1154.0,4.2,0.568,3.88,4.0,11.0,3.0,47.0,1449.2,1444.0,680.0,625.0,160.0,533.0,64.0,1081.0,57.0,3.0,34.0,6229.0,113.0,4.3,1.364,9.0,1.0,3.3,6.7,2.03,1200.0
81,PIT,2008,4.54,6278.0,5628.0,735.0,1454.0,314.0,21.0,153.0,705.0,57.0,19.0,474.0,1039.0,0.258,0.32,0.403,0.723,92.0,2269.0,111.0,59.0,66.0,51.0,40.0,1135.0,5.46,0.414,5.08,3.0,7.0,2.0,34.0,1455.0,1631.0,884.0,822.0,176.0,657.0,31.0,963.0,49.0,9.0,64.0,6528.0,83.0,4.84,1.573,10.1,1.1,4.1,6.0,1.47,1279.0
82,SDP,2008,3.93,6244.0,5568.0,637.0,1390.0,264.0,27.0,154.0,615.0,36.0,17.0,518.0,1259.0,0.25,0.317,0.39,0.707,95.0,2170.0,129.0,53.0,59.0,46.0,35.0,1181.0,4.72,0.389,4.41,3.0,6.0,0.0,30.0,1458.1,1466.0,764.0,714.0,165.0,561.0,61.0,1100.0,38.0,4.0,43.0,6286.0,87.0,4.33,1.39,9.0,1.0,3.5,6.8,1.96,1147.0
83,SEA,2008,4.14,6176.0,5643.0,671.0,1498.0,285.0,20.0,124.0,631.0,90.0,32.0,417.0,890.0,0.265,0.318,0.389,0.707,89.0,2195.0,137.0,38.0,36.0,42.0,44.0,1151.0,5.01,0.377,4.73,4.0,4.0,0.0,36.0,1435.1,1544.0,811.0,754.0,161.0,626.0,37.0,1016.0,53.0,5.0,60.0,6368.0,90.0,4.59,1.512,9.7,1.0,3.9,6.4,1.62,1251.0
84,SFG,2008,3.95,6145.0,5543.0,640.0,1452.0,311.0,37.0,94.0,606.0,108.0,46.0,452.0,1044.0,0.262,0.321,0.382,0.703,83.0,2119.0,139.0,48.0,57.0,44.0,45.0,1148.0,4.69,0.444,4.38,4.0,12.0,2.0,41.0,1442.0,1416.0,759.0,701.0,147.0,652.0,59.0,1240.0,70.0,7.0,77.0,6341.0,102.0,4.24,1.434,8.8,0.9,4.1,7.7,1.9,1256.0
85,STL,2008,4.81,6370.0,5636.0,779.0,1585.0,283.0,26.0,174.0,744.0,73.0,32.0,577.0,985.0,0.281,0.35,0.433,0.783,106.0,2442.0,150.0,42.0,71.0,44.0,63.0,1241.0,4.48,0.531,4.19,2.0,7.0,1.0,42.0,1454.0,1517.0,725.0,677.0,163.0,496.0,21.0,957.0,51.0,2.0,50.0,6264.0,102.0,4.4,1.384,9.4,1.0,3.1,5.9,1.93,1177.0
86,TBR,2008,4.78,6312.0,5541.0,774.0,1443.0,284.0,37.0,180.0,735.0,142.0,50.0,626.0,1224.0,0.26,0.34,0.422,0.762,101.0,2341.0,111.0,68.0,23.0,52.0,33.0,1215.0,4.14,0.599,3.82,7.0,12.0,5.0,52.0,1457.2,1349.0,671.0,618.0,166.0,526.0,29.0,1143.0,46.0,3.0,52.0,6145.0,116.0,4.22,1.286,8.3,1.0,3.2,7.1,2.17,1101.0
87,TEX,2008,5.56,6478.0,5728.0,901.0,1619.0,376.0,35.0,194.0,867.0,81.0,25.0,595.0,1207.0,0.283,0.354,0.462,0.816,113.0,2647.0,117.0,63.0,37.0,54.0,43.0,1238.0,5.97,0.488,5.37,6.0,8.0,2.0,36.0,1442.0,1647.0,967.0,860.0,176.0,625.0,44.0,963.0,72.0,9.0,62.0,6506.0,83.0,4.83,1.576,10.3,1.1,3.9,6.0,1.54,1213.0
88,TOR,2008,4.41,6191.0,5503.0,714.0,1453.0,303.0,32.0,126.0,681.0,80.0,27.0,521.0,938.0,0.264,0.331,0.399,0.731,95.0,2198.0,150.0,59.0,48.0,56.0,34.0,1155.0,3.77,0.531,3.49,15.0,13.0,5.0,44.0,1446.2,1330.0,610.0,561.0,134.0,467.0,42.0,1184.0,67.0,4.0,51.0,6067.0,122.0,3.81,1.242,8.3,0.8,2.9,7.4,2.54,1117.0
89,WSN,2008,3.98,6192.0,5491.0,641.0,1376.0,269.0,26.0,117.0,608.0,81.0,43.0,534.0,1095.0,0.251,0.323,0.373,0.696,83.0,2048.0,153.0,67.0,64.0,36.0,21.0,1178.0,5.12,0.366,4.66,2.0,8.0,0.0,28.0,1434.0,1496.0,825.0,742.0,190.0,588.0,44.0,1063.0,51.0,8.0,59.0,6310.0,93.0,4.71,1.453,9.4,1.2,3.7,6.7,1.81,1183.0
90,ARI,2009,4.44,6269.0,5565.0,720.0,1408.0,307.0,45.0,173.0,686.0,102.0,40.0,571.0,1298.0,0.253,0.324,0.418,0.742,91.0,2324.0,93.0,37.0,54.0,41.0,47.0,1173.0,4.83,0.432,4.42,4.0,12.0,1.0,36.0,1447.2,1470.0,782.0,711.0,168.0,525.0,27.0,1158.0,53.0,2.0,79.0,6267.0,101.0,4.2,1.378,9.1,1.0,3.3,7.2,2.21,1142.0
91,ATL,2009,4.54,6335.0,5539.0,735.0,1459.0,300.0,20.0,149.0,700.0,58.0,26.0,602.0,1064.0,0.263,0.339,0.405,0.744,97.0,2246.0,142.0,52.0,95.0,47.0,54.0,1223.0,3.96,0.531,3.57,3.0,10.0,0.0,38.0,1462.2,1399.0,641.0,581.0,119.0,530.0,59.0,1232.0,49.0,6.0,40.0,6208.0,116.0,3.66,1.319,8.6,0.7,3.3,7.6,2.32,1179.0
92,BAL,2009,4.57,6233.0,5618.0,741.0,1508.0,307.0,19.0,160.0,708.0,76.0,37.0,517.0,1013.0,0.268,0.332,0.415,0.747,95.0,2333.0,131.0,39.0,13.0,46.0,25.0,1160.0,5.41,0.395,5.15,2.0,3.0,0.0,31.0,1429.0,1633.0,876.0,817.0,218.0,546.0,45.0,933.0,51.0,7.0,31.0,6359.0,89.0,5.03,1.525,10.3,1.4,3.4,5.9,1.71,1196.0
93,BOS,2009,5.38,6344.0,5543.0,872.0,1495.0,335.0,25.0,212.0,822.0,126.0,39.0,659.0,1120.0,0.27,0.352,0.454,0.806,105.0,2516.0,137.0,70.0,19.0,51.0,39.0,1210.0,4.54,0.586,4.35,8.0,11.0,2.0,41.0,1436.2,1494.0,736.0,695.0,167.0,530.0,24.0,1230.0,68.0,5.0,42.0,6283.0,108.0,4.14,1.409,9.4,1.0,3.3,7.7,2.32,1237.0
94,CHC,2009,4.39,6244.0,5486.0,707.0,1398.0,293.0,29.0,161.0,678.0,56.0,34.0,592.0,1185.0,0.255,0.332,0.407,0.738,89.0,2232.0,134.0,59.0,65.0,42.0,44.0,1209.0,4.17,0.516,3.84,3.0,8.0,2.0,40.0,1445.1,1329.0,672.0,616.0,160.0,586.0,46.0,1272.0,59.0,6.0,60.0,6177.0,116.0,4.11,1.325,8.3,1.0,3.6,7.9,2.17,1169.0
95,CHW,2009,4.47,6132.0,5463.0,724.0,1410.0,246.0,20.0,184.0,695.0,113.0,49.0,534.0,1022.0,0.258,0.329,0.411,0.74,90.0,2248.0,139.0,62.0,34.0,39.0,25.0,1086.0,4.52,0.488,4.14,4.0,11.0,1.0,36.0,1439.2,1438.0,732.0,663.0,169.0,507.0,41.0,1119.0,41.0,5.0,55.0,6155.0,113.0,4.21,1.351,9.0,1.1,3.2,7.0,2.21,1104.0
96,CIN,2009,4.15,6187.0,5462.0,673.0,1349.0,280.0,25.0,158.0,637.0,96.0,40.0,531.0,1129.0,0.247,0.318,0.394,0.712,87.0,2153.0,103.0,53.0,100.0,41.0,37.0,1131.0,4.46,0.481,4.18,6.0,12.0,4.0,41.0,1458.1,1420.0,723.0,677.0,188.0,577.0,36.0,1069.0,65.0,1.0,45.0,6253.0,101.0,4.63,1.369,8.8,1.2,3.6,6.6,1.85,1155.0
97,CLE,2009,4.77,6320.0,5568.0,773.0,1468.0,314.0,28.0,161.0,730.0,84.0,31.0,582.0,1211.0,0.264,0.339,0.417,0.756,102.0,2321.0,140.0,81.0,39.0,50.0,20.0,1198.0,5.34,0.401,5.06,5.0,6.0,2.0,25.0,1434.0,1570.0,865.0,806.0,183.0,598.0,31.0,986.0,45.0,7.0,49.0,6354.0,84.0,4.73,1.512,9.9,1.1,3.8,6.2,1.65,1187.0
98,COL,2009,4.96,6241.0,5398.0,804.0,1408.0,300.0,50.0,190.0,760.0,106.0,55.0,660.0,1277.0,0.261,0.343,0.441,0.784,96.0,2378.0,111.0,47.0,76.0,60.0,40.0,1147.0,4.41,0.568,4.22,5.0,7.0,2.0,45.0,1438.1,1427.0,715.0,675.0,141.0,528.0,51.0,1154.0,46.0,5.0,48.0,6171.0,112.0,3.96,1.359,8.9,0.9,3.3,7.2,2.19,1141.0
99,DET,2009,4.56,6234.0,5540.0,743.0,1443.0,245.0,35.0,183.0,718.0,72.0,33.0,540.0,1114.0,0.26,0.331,0.416,0.747,95.0,2307.0,131.0,61.0,53.0,39.0,30.0,1159.0,4.57,0.528,4.29,4.0,9.0,1.0,42.0,1447.0,1449.0,745.0,690.0,182.0,594.0,42.0,1102.0,41.0,6.0,48.0,6240.0,105.0,4.53,1.412,9.0,1.1,3.7,6.9,1.86,1154.0
100,FLA,2009,4.77,6312.0,5572.0,772.0,1493.0,296.0,25.0,159.0,727.0,75.0,35.0,568.0,1226.0,0.268,0.34,0.416,0.756,97.0,2316.0,110.0,63.0,70.0,39.0,46.0,1214.0,4.73,0.537,4.29,5.0,5.0,1.0,45.0,1446.1,1425.0,766.0,690.0,160.0,601.0,60.0,1248.0,45.0,5.0,59.0,6299.0,100.0,4.15,1.401,8.9,1.0,3.7,7.8,2.08,1194.0
101,HOU,2009,3.97,6040.0,5436.0,643.0,1415.0,270.0,32.0,142.0,616.0,113.0,44.0,448.0,990.0,0.26,0.319,0.4,0.719,91.0,2175.0,153.0,43.0,66.0,45.0,37.0,1080.0,4.75,0.457,4.54,5.0,10.0,1.0,39.0,1430.0,1521.0,770.0,722.0,176.0,546.0,56.0,1144.0,50.0,4.0,43.0,6237.0,91.0,4.35,1.445,9.6,1.1,3.4,7.2,2.1,1177.0
102,KCR,2009,4.23,6103.0,5532.0,686.0,1432.0,276.0,51.0,144.0,657.0,88.0,29.0,457.0,1091.0,0.259,0.318,0.405,0.724,92.0,2242.0,135.0,42.0,38.0,32.0,20.0,1090.0,5.2,0.401,4.83,10.0,9.0,5.0,34.0,1426.0,1486.0,842.0,765.0,166.0,600.0,28.0,1153.0,51.0,6.0,89.0,6265.0,92.0,4.36,1.463,9.4,1.0,3.8,7.3,1.92,1145.0
103,LAA,2009,5.45,6305.0,5622.0,883.0,1604.0,293.0,33.0,173.0,841.0,148.0,63.0,547.0,1054.0,0.285,0.35,0.441,0.792,108.0,2482.0,128.0,41.0,43.0,52.0,32.0,1134.0,4.7,0.599,4.45,9.0,13.0,6.0,51.0,1445.0,1513.0,761.0,715.0,180.0,523.0,35.0,1062.0,58.0,2.0,67.0,6252.0,99.0,4.45,1.409,9.4,1.1,3.3,6.6,2.03,1156.0
104,LAD,2009,4.81,6385.0,5592.0,780.0,1511.0,278.0,39.0,145.0,739.0,116.0,48.0,607.0,1068.0,0.27,0.346,0.412,0.758,103.0,2302.0,141.0,63.0,78.0,44.0,76.0,1224.0,3.77,0.586,3.41,1.0,9.0,1.0,44.0,1473.1,1265.0,611.0,558.0,127.0,584.0,68.0,1272.0,57.0,2.0,76.0,6182.0,118.0,3.8,1.255,7.7,0.8,3.6,7.8,2.18,1151.0
105,MIL,2009,4.85,6296.0,5510.0,785.0,1447.0,281.0,37.0,182.0,757.0,68.0,37.0,610.0,1231.0,0.263,0.341,0.426,0.767,103.0,2348.0,128.0,71.0,58.0,47.0,44.0,1203.0,5.05,0.494,4.83,1.0,8.0,0.0,44.0,1435.0,1498.0,818.0,770.0,207.0,607.0,60.0,1104.0,65.0,1.0,61.0,6352.0,85.0,4.84,1.467,9.4,1.3,3.8,6.9,1.82,1229.0
106,MIN,2009,5.01,6346.0,5608.0,817.0,1539.0,271.0,40.0,172.0,770.0,85.0,32.0,585.0,1021.0,0.274,0.345,0.429,0.774,103.0,2406.0,147.0,45.0,51.0,57.0,46.0,1185.0,4.69,0.534,4.5,4.0,7.0,1.0,48.0,1453.0,1542.0,765.0,726.0,185.0,466.0,20.0,1052.0,58.0,3.0,43.0,6274.0,98.0,4.39,1.382,9.6,1.1,2.9,6.5,2.26,1150.0
107,NYM,2009,4.14,6159.0,5453.0,671.0,1472.0,295.0,49.0,95.0,631.0,122.0,44.0,526.0,928.0,0.27,0.335,0.394,0.729,95.0,2150.0,144.0,36.0,88.0,55.0,49.0,1183.0,4.67,0.432,4.45,3.0,12.0,2.0,39.0,1426.0,1452.0,757.0,705.0,158.0,616.0,60.0,1031.0,55.0,10.0,41.0,6284.0,92.0,4.5,1.45,9.2,1.0,3.9,6.5,1.67,1249.0
108,NYY,2009,5.65,6449.0,5660.0,915.0,1604.0,325.0,21.0,244.0,881.0,111.0,28.0,663.0,1014.0,0.283,0.362,0.478,0.839,114.0,2703.0,144.0,54.0,31.0,39.0,35.0,1238.0,4.65,0.636,4.26,3.0,8.0,1.0,51.0,1450.0,1386.0,753.0,687.0,181.0,574.0,28.0,1260.0,71.0,5.0,66.0,6247.0,108.0,4.32,1.352,8.6,1.1,3.6,7.8,2.2,1144.0
109,OAK,2009,4.69,6247.0,5584.0,759.0,1464.0,307.0,21.0,135.0,723.0,133.0,48.0,527.0,1046.0,0.262,0.328,0.397,0.726,91.0,2218.0,130.0,50.0,31.0,54.0,16.0,1130.0,4.7,0.463,4.26,2.0,10.0,2.0,38.0,1447.1,1486.0,761.0,685.0,156.0,523.0,30.0,1124.0,36.0,2.0,43.0,6243.0,104.0,4.1,1.388,9.2,1.0,3.3,7.0,2.15,1140.0
110,PHI,2009,5.06,6338.0,5578.0,820.0,1439.0,312.0,35.0,224.0,788.0,119.0,28.0,589.0,1155.0,0.258,0.334,0.447,0.781,104.0,2493.0,90.0,71.0,55.0,45.0,47.0,1192.0,4.38,0.574,4.16,8.0,9.0,5.0,44.0,1455.2,1479.0,709.0,673.0,189.0,489.0,31.0,1153.0,75.0,2.0,28.0,6263.0,101.0,4.36,1.352,9.1,1.2,3.0,7.1,2.36,1187.0
111,PIT,2009,3.95,6058.0,5417.0,636.0,1364.0,289.0,34.0,125.0,612.0,90.0,32.0,499.0,1142.0,0.252,0.318,0.387,0.705,87.0,2096.0,124.0,46.0,60.0,36.0,44.0,1124.0,4.77,0.385,4.59,5.0,7.0,2.0,28.0,1418.1,1491.0,768.0,723.0,152.0,563.0,37.0,919.0,47.0,3.0,52.0,6144.0,91.0,4.48,1.448,9.5,1.0,3.6,5.8,1.63,1121.0
112,SDP,2009,3.94,6179.0,5425.0,638.0,1315.0,265.0,31.0,141.0,605.0,82.0,29.0,586.0,1182.0,0.242,0.321,0.381,0.701,93.0,2065.0,131.0,57.0,74.0,36.0,52.0,1168.0,4.75,0.463,4.37,2.0,9.0,1.0,45.0,1450.2,1422.0,769.0,704.0,167.0,603.0,58.0,1187.0,45.0,8.0,52.0,6273.0,87.0,4.3,1.396,8.8,1.0,3.7,7.4,1.97,1152.0
113,SEA,2009,3.95,6113.0,5543.0,640.0,1430.0,280.0,19.0,160.0,613.0,89.0,33.0,421.0,1093.0,0.258,0.314,0.402,0.716,92.0,2228.0,124.0,49.0,56.0,44.0,39.0,1121.0,4.27,0.525,3.87,4.0,10.0,2.0,49.0,1452.2,1359.0,692.0,625.0,172.0,534.0,13.0,1043.0,43.0,5.0,61.0,6159.0,111.0,4.39,1.303,8.4,1.1,3.3,6.5,1.95,1109.0
114,SFG,2009,4.06,6057.0,5493.0,657.0,1411.0,275.0,43.0,122.0,612.0,78.0,28.0,392.0,1158.0,0.257,0.309,0.389,0.699,82.0,2138.0,115.0,50.0,67.0,55.0,41.0,1080.0,3.77,0.543,3.55,11.0,18.0,3.0,41.0,1446.0,1268.0,611.0,571.0,140.0,584.0,49.0,1302.0,41.0,3.0,71.0,6103.0,121.0,3.85,1.281,7.9,0.9,3.6,8.1,2.23,1154.0
115,STL,2009,4.51,6168.0,5465.0,730.0,1436.0,294.0,29.0,160.0,694.0,75.0,31.0,528.0,1041.0,0.263,0.332,0.415,0.747,98.0,2268.0,127.0,61.0,68.0,43.0,73.0,1152.0,3.95,0.562,3.66,8.0,11.0,4.0,43.0,1440.2,1407.0,640.0,586.0,123.0,460.0,23.0,1049.0,53.0,5.0,43.0,6087.0,112.0,3.82,1.296,8.8,0.8,2.9,6.6,2.28,1125.0
116,TBR,2009,4.96,6223.0,5462.0,803.0,1434.0,297.0,36.0,199.0,765.0,194.0,61.0,642.0,1229.0,0.263,0.343,0.439,0.782,106.0,2400.0,104.0,49.0,25.0,45.0,36.0,1151.0,4.65,0.519,4.33,3.0,5.0,3.0,41.0,1427.1,1421.0,754.0,686.0,183.0,515.0,22.0,1125.0,46.0,5.0,46.0,6146.0,100.0,4.37,1.356,9.0,1.2,3.2,7.1,2.18,1110.0
117,TEX,2009,4.84,6127.0,5526.0,784.0,1436.0,296.0,27.0,224.0,748.0,149.0,36.0,472.0,1253.0,0.26,0.32,0.445,0.764,95.0,2458.0,97.0,37.0,40.0,51.0,23.0,1059.0,4.57,0.537,4.38,8.0,11.0,3.0,45.0,1434.2,1432.0,740.0,698.0,171.0,531.0,14.0,1016.0,70.0,8.0,45.0,6172.0,106.0,4.49,1.368,9.0,1.1,3.3,6.4,1.91,1128.0
118,TOR,2009,4.93,6362.0,5696.0,798.0,1516.0,339.0,13.0,209.0,766.0,73.0,23.0,548.0,1028.0,0.266,0.333,0.44,0.773,102.0,2508.0,130.0,45.0,24.0,49.0,23.0,1195.0,4.76,0.463,4.47,10.0,10.0,4.0,25.0,1451.0,1509.0,771.0,720.0,181.0,551.0,26.0,1181.0,58.0,4.0,43.0,6281.0,100.0,4.35,1.42,9.4,1.1,3.4,7.3,2.14,1157.0
119,WSN,2009,4.38,6273.0,5493.0,710.0,1416.0,271.0,38.0,156.0,685.0,73.0,40.0,617.0,1208.0,0.258,0.337,0.406,0.743,96.0,2231.0,133.0,56.0,64.0,42.0,39.0,1223.0,5.4,0.364,5.0,6.0,3.0,1.0,33.0,1424.1,1533.0,874.0,791.0,173.0,629.0,59.0,911.0,48.0,5.0,74.0,6349.0,85.0,4.82,1.518,9.7,1.1,4.0,5.8,1.45,1200.0
120,ARI,2010,4.4,6183.0,5473.0,713.0,1366.0,301.0,34.0,180.0,691.0,86.0,41.0,589.0,1529.0,0.25,0.325,0.416,0.74,95.0,2275.0,113.0,39.0,41.0,41.0,45.0,1139.0,5.16,0.401,4.81,3.0,3.0,1.0,35.0,1432.0,1503.0,836.0,765.0,210.0,548.0,38.0,1070.0,58.0,4.0,82.0,6260.0,89.0,4.76,1.432,9.4,1.3,3.4,6.7,1.95,1128.0
121,ATL,2010,4.56,6252.0,5463.0,738.0,1411.0,312.0,25.0,139.0,699.0,63.0,29.0,634.0,1140.0,0.258,0.339,0.401,0.74,101.0,2190.0,136.0,51.0,69.0,35.0,50.0,1222.0,3.88,0.562,3.56,2.0,9.0,0.0,41.0,1439.1,1326.0,629.0,569.0,126.0,505.0,64.0,1241.0,49.0,3.0,42.0,6052.0,110.0,3.65,1.272,8.3,0.8,3.2,7.8,2.46,1105.0
122,BAL,2010,3.78,6109.0,5554.0,613.0,1440.0,264.0,21.0,133.0,577.0,76.0,34.0,424.0,1056.0,0.259,0.316,0.386,0.702,90.0,2145.0,154.0,54.0,31.0,45.0,32.0,1139.0,4.85,0.407,4.59,3.0,7.0,0.0,35.0,1436.1,1508.0,785.0,733.0,186.0,520.0,45.0,1007.0,59.0,5.0,45.0,6262.0,93.0,4.57,1.412,9.4,1.2,3.3,6.3,1.94,1168.0
123,BOS,2010,5.05,6356.0,5646.0,818.0,1511.0,358.0,22.0,211.0,782.0,68.0,17.0,587.0,1140.0,0.268,0.339,0.451,0.79,109.0,2546.0,130.0,47.0,29.0,46.0,43.0,1200.0,4.59,0.549,4.2,3.0,9.0,1.0,44.0,1456.2,1402.0,744.0,679.0,152.0,580.0,30.0,1207.0,53.0,3.0,58.0,6267.0,104.0,4.08,1.361,8.7,0.9,3.6,7.5,2.08,1153.0
124,CHC,2010,4.23,6140.0,5512.0,685.0,1414.0,298.0,27.0,149.0,658.0,55.0,31.0,479.0,1236.0,0.257,0.32,0.401,0.721,87.0,2213.0,124.0,50.0,60.0,38.0,32.0,1129.0,4.73,0.463,4.18,1.0,14.0,0.0,40.0,1436.2,1409.0,767.0,668.0,154.0,605.0,42.0,1268.0,65.0,6.0,46.0,6298.0,103.0,4.11,1.402,8.8,1.0,3.8,7.9,2.1,1221.0
125,CHW,2010,4.64,6118.0,5484.0,752.0,1467.0,263.0,21.0,177.0,710.0,160.0,74.0,467.0,922.0,0.268,0.332,0.42,0.752,100.0,2303.0,148.0,79.0,50.0,38.0,23.0,1046.0,4.35,0.543,4.09,6.0,11.0,2.0,43.0,1446.1,1471.0,704.0,658.0,136.0,490.0,41.0,1149.0,34.0,9.0,59.0,6180.0,107.0,3.8,1.356,9.2,0.8,3.0,7.1,2.34,1137.0
126,CIN,2010,4.88,6285.0,5579.0,790.0,1515.0,293.0,30.0,188.0,761.0,93.0,43.0,522.0,1218.0,0.272,0.338,0.436,0.774,108.0,2432.0,113.0,68.0,66.0,50.0,34.0,1174.0,4.23,0.562,4.01,4.0,9.0,2.0,43.0,1453.0,1404.0,685.0,648.0,158.0,524.0,32.0,1130.0,50.0,6.0,48.0,6182.0,100.0,4.12,1.327,8.7,1.0,3.2,7.0,2.16,1138.0
127,CLE,2010,3.99,6165.0,5487.0,646.0,1362.0,290.0,20.0,128.0,601.0,91.0,33.0,545.0,1184.0,0.248,0.322,0.378,0.7,97.0,2076.0,118.0,64.0,36.0,33.0,34.0,1186.0,4.64,0.426,4.3,10.0,4.0,2.0,34.0,1433.0,1477.0,752.0,684.0,147.0,572.0,36.0,967.0,66.0,3.0,54.0,6224.0,90.0,4.4,1.43,9.3,0.9,3.6,6.1,1.69,1173.0
128,COL,2010,4.75,6265.0,5530.0,770.0,1452.0,270.0,54.0,173.0,741.0,99.0,41.0,585.0,1274.0,0.263,0.336,0.425,0.76,92.0,2349.0,103.0,47.0,56.0,47.0,53.0,1175.0,4.43,0.512,4.14,6.0,12.0,2.0,35.0,1442.0,1405.0,717.0,663.0,139.0,525.0,54.0,1234.0,56.0,12.0,77.0,6143.0,112.0,3.83,1.338,8.8,0.9,3.3,7.7,2.35,1100.0
129,DET,2010,4.64,6312.0,5643.0,751.0,1515.0,308.0,32.0,152.0,717.0,69.0,30.0,546.0,1147.0,0.268,0.335,0.415,0.75,103.0,2343.0,118.0,41.0,41.0,41.0,50.0,1229.0,4.59,0.5,4.3,6.0,5.0,1.0,32.0,1444.1,1445.0,743.0,690.0,142.0,537.0,29.0,1056.0,65.0,9.0,75.0,6198.0,98.0,4.15,1.372,9.0,0.9,3.3,6.6,1.97,1122.0
130,FLA,2010,4.44,6194.0,5531.0,719.0,1403.0,294.0,37.0,152.0,686.0,92.0,26.0,514.0,1375.0,0.254,0.321,0.403,0.724,90.0,2227.0,107.0,55.0,51.0,43.0,42.0,1154.0,4.43,0.494,4.08,5.0,17.0,2.0,39.0,1438.1,1433.0,717.0,652.0,134.0,549.0,42.0,1168.0,51.0,4.0,49.0,6217.0,103.0,3.92,1.378,9.0,0.8,3.4,7.3,2.13,1185.0
131,HOU,2010,3.77,6005.0,5452.0,611.0,1348.0,252.0,25.0,108.0,577.0,100.0,36.0,415.0,1025.0,0.247,0.303,0.362,0.665,83.0,1974.0,130.0,33.0,75.0,29.0,27.0,1060.0,4.5,0.469,4.09,4.0,11.0,2.0,45.0,1439.1,1446.0,729.0,654.0,140.0,548.0,39.0,1210.0,40.0,9.0,57.0,6221.0,95.0,3.89,1.385,9.0,0.9,3.4,7.6,2.21,1174.0
132,KCR,2010,4.17,6209.0,5604.0,676.0,1534.0,279.0,31.0,121.0,640.0,115.0,50.0,471.0,905.0,0.274,0.331,0.399,0.73,100.0,2238.0,152.0,35.0,45.0,53.0,25.0,1173.0,5.22,0.414,4.97,7.0,3.0,1.0,44.0,1436.2,1553.0,845.0,794.0,176.0,551.0,28.0,1035.0,47.0,7.0,55.0,6333.0,85.0,4.48,1.465,9.7,1.1,3.5,6.5,1.88,1178.0
133,LAA,2010,4.2,6089.0,5488.0,681.0,1363.0,276.0,19.0,155.0,656.0,104.0,52.0,466.0,1070.0,0.248,0.311,0.39,0.702,92.0,2142.0,125.0,52.0,42.0,37.0,28.0,1049.0,4.33,0.494,4.04,10.0,9.0,3.0,39.0,1449.1,1422.0,702.0,651.0,148.0,565.0,33.0,1130.0,46.0,6.0,80.0,6252.0,101.0,4.11,1.371,8.8,0.9,3.5,7.0,2.0,1202.0
134,LAD,2010,4.12,6140.0,5426.0,667.0,1368.0,270.0,29.0,120.0,621.0,92.0,50.0,533.0,1184.0,0.252,0.322,0.379,0.7,93.0,2056.0,123.0,46.0,85.0,50.0,57.0,1142.0,4.27,0.494,4.01,4.0,16.0,4.0,41.0,1441.2,1323.0,692.0,643.0,134.0,539.0,75.0,1274.0,58.0,8.0,58.0,6141.0,96.0,3.76,1.292,8.3,0.8,3.4,8.0,2.36,1124.0
135,MIL,2010,4.63,6304.0,5606.0,750.0,1471.0,293.0,33.0,182.0,710.0,81.0,26.0,546.0,1216.0,0.262,0.335,0.424,0.759,105.0,2376.0,115.0,81.0,35.0,35.0,35.0,1220.0,4.96,0.475,4.58,3.0,7.0,3.0,35.0,1439.0,1487.0,804.0,733.0,173.0,582.0,42.0,1258.0,48.0,3.0,71.0,6324.0,87.0,4.21,1.438,9.3,1.1,3.6,7.9,2.16,1203.0
136,MIN,2010,4.82,6257.0,5568.0,781.0,1521.0,318.0,41.0,142.0,749.0,68.0,28.0,559.0,967.0,0.273,0.341,0.422,0.762,106.0,2347.0,159.0,39.0,38.0,53.0,45.0,1156.0,4.14,0.58,3.95,9.0,13.0,3.0,40.0,1452.2,1493.0,671.0,638.0,155.0,383.0,19.0,1048.0,47.0,4.0,41.0,6106.0,105.0,3.91,1.291,9.2,1.0,2.4,6.5,2.74,1077.0
137,NYM,2010,4.05,6144.0,5465.0,656.0,1361.0,266.0,40.0,128.0,625.0,130.0,44.0,502.0,1095.0,0.249,0.314,0.383,0.697,90.0,2091.0,101.0,46.0,74.0,57.0,53.0,1124.0,4.02,0.488,3.7,8.0,19.0,4.0,36.0,1453.0,1438.0,652.0,597.0,135.0,545.0,55.0,1106.0,52.0,5.0,48.0,6245.0,105.0,4.0,1.365,8.9,0.8,3.4,6.9,2.03,1234.0
138,NYY,2010,5.3,6379.0,5567.0,859.0,1485.0,275.0,32.0,201.0,823.0,103.0,30.0,662.0,1136.0,0.267,0.35,0.436,0.786,109.0,2427.0,124.0,73.0,33.0,44.0,36.0,1228.0,4.28,0.586,4.06,3.0,8.0,0.0,39.0,1442.1,1349.0,693.0,651.0,179.0,540.0,37.0,1154.0,62.0,6.0,69.0,6102.0,106.0,4.34,1.31,8.4,1.1,3.4,7.2,2.14,1082.0
139,OAK,2010,4.09,6117.0,5448.0,663.0,1396.0,276.0,30.0,109.0,619.0,156.0,38.0,527.0,1061.0,0.256,0.324,0.378,0.702,92.0,2059.0,129.0,47.0,43.0,51.0,16.0,1159.0,3.86,0.5,3.56,7.0,17.0,3.0,38.0,1431.2,1315.0,626.0,566.0,153.0,512.0,29.0,1070.0,38.0,8.0,42.0,6011.0,116.0,4.13,1.276,8.3,1.0,3.2,6.7,2.09,1090.0
140,PHI,2010,4.77,6291.0,5581.0,772.0,1451.0,290.0,34.0,166.0,736.0,108.0,21.0,560.0,1064.0,0.26,0.332,0.413,0.745,99.0,2307.0,120.0,63.0,44.0,43.0,69.0,1194.0,3.95,0.599,3.67,14.0,21.0,6.0,40.0,1456.1,1402.0,640.0,594.0,168.0,416.0,42.0,1183.0,57.0,5.0,26.0,6095.0,110.0,3.93,1.248,8.7,1.0,2.6,7.3,2.84,1086.0
141,PIT,2010,3.62,5974.0,5386.0,587.0,1303.0,276.0,27.0,126.0,570.0,87.0,36.0,463.0,1207.0,0.242,0.304,0.373,0.678,83.0,2011.0,119.0,33.0,58.0,33.0,28.0,1078.0,5.35,0.352,5.0,1.0,6.0,1.0,31.0,1411.2,1567.0,866.0,784.0,167.0,538.0,40.0,1026.0,66.0,10.0,56.0,6300.0,82.0,4.45,1.491,10.0,1.1,3.4,6.5,1.91,1199.0
142,SDP,2010,4.1,6148.0,5434.0,665.0,1338.0,236.0,24.0,132.0,630.0,124.0,50.0,538.0,1183.0,0.246,0.317,0.371,0.689,93.0,2018.0,106.0,50.0,79.0,46.0,67.0,1125.0,3.59,0.556,3.39,2.0,20.0,2.0,49.0,1456.1,1305.0,581.0,549.0,139.0,517.0,51.0,1295.0,28.0,5.0,29.0,6058.0,108.0,3.66,1.251,8.1,0.9,3.2,8.0,2.5,1108.0
143,SEA,2010,3.17,5989.0,5409.0,513.0,1274.0,227.0,16.0,101.0,485.0,142.0,39.0,459.0,1184.0,0.236,0.298,0.339,0.637,79.0,1836.0,110.0,39.0,42.0,40.0,33.0,1116.0,4.31,0.377,3.93,11.0,10.0,2.0,38.0,1438.0,1402.0,698.0,628.0,157.0,452.0,33.0,973.0,40.0,11.0,73.0,6091.0,100.0,4.17,1.289,8.8,1.0,2.8,6.1,2.15,1079.0
144,SFG,2010,4.3,6143.0,5488.0,697.0,1411.0,284.0,30.0,162.0,660.0,55.0,32.0,487.0,1099.0,0.257,0.321,0.408,0.729,95.0,2241.0,158.0,50.0,76.0,41.0,53.0,1092.0,3.6,0.568,3.36,6.0,17.0,3.0,57.0,1461.0,1279.0,583.0,546.0,134.0,578.0,58.0,1331.0,51.0,4.0,74.0,6159.0,121.0,3.74,1.271,7.9,0.8,3.6,8.2,2.3,1193.0
145,STL,2010,4.54,6241.0,5542.0,736.0,1456.0,285.0,18.0,150.0,689.0,79.0,41.0,541.0,1027.0,0.263,0.332,0.402,0.733,100.0,2227.0,124.0,50.0,66.0,40.0,78.0,1164.0,3.96,0.531,3.57,7.0,16.0,3.0,32.0,1453.2,1412.0,641.0,577.0,133.0,477.0,32.0,1094.0,48.0,4.0,42.0,6137.0,110.0,3.85,1.299,8.7,0.8,3.0,6.8,2.29,1135.0
146,TBR,2010,4.95,6270.0,5439.0,802.0,1343.0,295.0,37.0,160.0,769.0,172.0,47.0,672.0,1292.0,0.247,0.333,0.403,0.736,104.0,2192.0,92.0,57.0,39.0,57.0,30.0,1152.0,4.01,0.593,3.78,6.0,12.0,3.0,51.0,1453.2,1347.0,649.0,611.0,175.0,478.0,34.0,1189.0,46.0,9.0,60.0,6103.0,104.0,4.09,1.255,8.3,1.1,3.0,7.4,2.49,1093.0
147,TEX,2010,4.86,6302.0,5635.0,787.0,1556.0,268.0,25.0,162.0,740.0,123.0,48.0,511.0,986.0,0.276,0.338,0.419,0.757,102.0,2360.0,129.0,45.0,53.0,54.0,37.0,1174.0,4.24,0.556,3.93,7.0,8.0,0.0,46.0,1455.1,1355.0,687.0,636.0,162.0,551.0,24.0,1181.0,63.0,4.0,56.0,6213.0,110.0,4.17,1.31,8.4,1.0,3.4,7.3,2.14,1160.0
148,TOR,2010,4.66,6072.0,5495.0,755.0,1364.0,319.0,21.0,257.0,732.0,58.0,20.0,471.0,1164.0,0.248,0.312,0.454,0.766,107.0,2496.0,114.0,55.0,16.0,34.0,25.0,1017.0,4.49,0.525,4.22,5.0,11.0,2.0,45.0,1440.2,1407.0,728.0,676.0,150.0,539.0,35.0,1184.0,60.0,3.0,69.0,6165.0,99.0,4.04,1.351,8.8,0.9,3.4,7.4,2.2,1115.0
149,WSN,2010,4.04,6100.0,5418.0,655.0,1355.0,250.0,31.0,149.0,634.0,110.0,41.0,503.0,1220.0,0.25,0.318,0.39,0.708,91.0,2114.0,125.0,60.0,71.0,47.0,36.0,1113.0,4.58,0.426,4.13,2.0,5.0,1.0,37.0,1435.0,1469.0,742.0,658.0,151.0,512.0,57.0,1068.0,46.0,7.0,33.0,6214.0,98.0,4.12,1.38,9.2,0.9,3.2,6.7,2.09,1167.0
150,ARI,2011,4.51,6096.0,5421.0,731.0,1357.0,293.0,37.0,172.0,702.0,133.0,55.0,531.0,1249.0,0.25,0.322,0.413,0.736,99.0,2240.0,82.0,61.0,50.0,33.0,55.0,1064.0,4.09,0.58,3.8,5.0,12.0,1.0,58.0,1443.1,1414.0,662.0,609.0,159.0,442.0,16.0,1058.0,53.0,7.0,39.0,6102.0,104.0,4.02,1.286,8.8,1.0,2.8,6.6,2.39,1110.0
151,ATL,2011,3.96,6169.0,5528.0,641.0,1345.0,244.0,16.0,173.0,606.0,77.0,44.0,504.0,1260.0,0.243,0.308,0.387,0.695,91.0,2140.0,113.0,28.0,75.0,30.0,45.0,1109.0,3.73,0.549,3.48,3.0,16.0,2.0,52.0,1479.2,1332.0,605.0,572.0,125.0,521.0,73.0,1332.0,53.0,5.0,61.0,6220.0,109.0,3.49,1.252,8.1,0.8,3.2,8.1,2.56,1176.0
152,BAL,2011,4.37,6156.0,5585.0,708.0,1434.0,273.0,13.0,191.0,684.0,81.0,25.0,452.0,1120.0,0.257,0.316,0.413,0.729,100.0,2306.0,154.0,52.0,24.0,43.0,24.0,1069.0,5.31,0.426,4.89,3.0,7.0,1.0,32.0,1446.2,1568.0,860.0,786.0,210.0,535.0,42.0,1044.0,45.0,4.0,32.0,6332.0,84.0,4.67,1.454,9.8,1.3,3.3,6.5,1.95,1132.0
153,BOS,2011,5.4,6414.0,5710.0,875.0,1600.0,352.0,35.0,203.0,842.0,102.0,42.0,578.0,1108.0,0.28,0.349,0.461,0.81,116.0,2631.0,136.0,50.0,22.0,50.0,52.0,1190.0,4.55,0.556,4.2,2.0,13.0,1.0,36.0,1457.1,1366.0,737.0,680.0,156.0,540.0,11.0,1213.0,90.0,7.0,58.0,6242.0,102.0,4.05,1.308,8.4,1.0,3.3,7.5,2.25,1133.0
154,CHC,2011,4.04,6130.0,5549.0,654.0,1423.0,285.0,36.0,148.0,610.0,69.0,23.0,425.0,1202.0,0.256,0.314,0.401,0.715,95.0,2224.0,123.0,59.0,60.0,35.0,35.0,1141.0,4.67,0.438,4.33,4.0,5.0,1.0,40.0,1434.1,1439.0,756.0,690.0,162.0,580.0,45.0,1224.0,53.0,5.0,51.0,6262.0,90.0,4.11,1.408,9.0,1.0,3.6,7.7,2.11,1203.0
155,CHW,2011,4.04,6159.0,5502.0,654.0,1387.0,252.0,16.0,154.0,625.0,81.0,53.0,475.0,989.0,0.252,0.319,0.388,0.706,91.0,2133.0,125.0,84.0,52.0,46.0,31.0,1126.0,4.36,0.488,4.1,6.0,14.0,4.0,42.0,1460.0,1463.0,706.0,665.0,147.0,439.0,50.0,1220.0,44.0,4.0,55.0,6188.0,103.0,3.66,1.303,9.0,0.9,2.7,7.5,2.78,1102.0
156,CIN,2011,4.54,6329.0,5612.0,735.0,1438.0,264.0,19.0,183.0,697.0,97.0,50.0,535.0,1250.0,0.256,0.326,0.408,0.734,99.0,2289.0,98.0,63.0,78.0,40.0,52.0,1189.0,4.44,0.488,4.16,4.0,5.0,2.0,39.0,1467.2,1414.0,720.0,678.0,185.0,539.0,47.0,1112.0,59.0,13.0,51.0,6259.0,94.0,4.37,1.331,8.7,1.1,3.3,6.8,2.06,1136.0
157,CLE,2011,4.35,6142.0,5509.0,704.0,1380.0,290.0,26.0,154.0,671.0,89.0,42.0,494.0,1269.0,0.25,0.317,0.396,0.714,99.0,2184.0,111.0,65.0,31.0,43.0,30.0,1075.0,4.69,0.494,4.23,2.0,4.0,0.0,38.0,1453.1,1482.0,760.0,683.0,153.0,463.0,34.0,1024.0,60.0,3.0,42.0,6235.0,94.0,4.06,1.338,9.2,0.9,2.9,6.3,2.21,1115.0
158,COL,2011,4.54,6275.0,5544.0,735.0,1429.0,274.0,40.0,163.0,697.0,118.0,42.0,555.0,1201.0,0.258,0.329,0.41,0.739,90.0,2272.0,112.0,57.0,75.0,44.0,54.0,1172.0,4.78,0.451,4.43,5.0,7.0,2.0,41.0,1447.2,1471.0,774.0,713.0,176.0,522.0,47.0,1118.0,48.0,7.0,65.0,6215.0,101.0,4.24,1.377,9.1,1.1,3.2,7.0,2.14,1098.0
159,DET,2011,4.86,6231.0,5563.0,787.0,1540.0,297.0,34.0,169.0,750.0,49.0,20.0,521.0,1143.0,0.277,0.34,0.434,0.773,110.0,2412.0,142.0,39.0,50.0,58.0,47.0,1165.0,4.39,0.586,4.04,4.0,14.0,2.0,52.0,1440.0,1406.0,711.0,647.0,149.0,492.0,34.0,1115.0,52.0,5.0,69.0,6108.0,102.0,3.95,1.318,8.8,0.9,3.1,7.0,2.27,1077.0
160,FLA,2011,3.86,6232.0,5508.0,625.0,1358.0,274.0,30.0,149.0,596.0,95.0,41.0,542.0,1244.0,0.247,0.318,0.388,0.706,93.0,2139.0,111.0,51.0,89.0,42.0,38.0,1198.0,4.33,0.444,3.95,7.0,11.0,4.0,40.0,1459.2,1403.0,702.0,640.0,149.0,500.0,72.0,1218.0,37.0,10.0,43.0,6200.0,99.0,3.79,1.304,8.7,0.9,3.1,7.5,2.44,1119.0
161,HOU,2011,3.8,6150.0,5598.0,615.0,1442.0,309.0,28.0,95.0,579.0,118.0,33.0,401.0,1164.0,0.258,0.311,0.374,0.684,89.0,2092.0,111.0,46.0,66.0,37.0,34.0,1154.0,4.91,0.346,4.51,2.0,6.0,0.0,25.0,1435.0,1477.0,796.0,719.0,188.0,560.0,59.0,1191.0,53.0,9.0,39.0,6268.0,84.0,4.35,1.42,9.3,1.2,3.5,7.5,2.13,1167.0
162,KCR,2011,4.51,6267.0,5672.0,730.0,1560.0,325.0,41.0,129.0,705.0,153.0,58.0,442.0,1006.0,0.275,0.329,0.415,0.744,105.0,2354.0,121.0,39.0,55.0,57.0,37.0,1156.0,4.7,0.438,4.44,2.0,6.0,0.0,37.0,1451.1,1487.0,762.0,716.0,163.0,557.0,42.0,1080.0,58.0,7.0,69.0,6280.0,91.0,4.27,1.408,9.2,1.0,3.5,6.7,1.94,1164.0
163,LAA,2011,4.12,6088.0,5513.0,667.0,1394.0,289.0,34.0,155.0,629.0,135.0,52.0,442.0,1086.0,0.253,0.313,0.402,0.714,101.0,2216.0,126.0,51.0,50.0,32.0,33.0,1051.0,3.91,0.531,3.57,12.0,11.0,6.0,39.0,1465.0,1388.0,633.0,581.0,142.0,476.0,34.0,1058.0,36.0,4.0,55.0,6124.0,107.0,3.89,1.272,8.5,0.9,2.9,6.5,2.22,1096.0
164,LAD,2011,4.0,6094.0,5436.0,644.0,1395.0,237.0,28.0,117.0,613.0,126.0,40.0,498.0,1087.0,0.257,0.322,0.375,0.697,94.0,2039.0,101.0,45.0,71.0,43.0,61.0,1165.0,3.8,0.509,3.54,7.0,17.0,2.0,40.0,1432.0,1287.0,612.0,563.0,132.0,507.0,48.0,1265.0,43.0,7.0,50.0,5997.0,105.0,3.61,1.253,8.1,0.8,3.2,8.0,2.5,1089.0
165,MIL,2011,4.45,6113.0,5447.0,721.0,1422.0,276.0,31.0,185.0,693.0,94.0,31.0,481.0,1083.0,0.261,0.325,0.425,0.75,102.0,2315.0,114.0,56.0,85.0,44.0,53.0,1110.0,3.94,0.593,3.63,1.0,13.0,1.0,47.0,1441.2,1348.0,638.0,582.0,147.0,440.0,16.0,1257.0,33.0,5.0,70.0,6048.0,108.0,3.59,1.24,8.4,0.9,2.7,7.8,2.86,1085.0
166,MIN,2011,3.82,6020.0,5487.0,619.0,1357.0,259.0,25.0,103.0,572.0,92.0,39.0,440.0,1048.0,0.247,0.306,0.36,0.666,84.0,1975.0,115.0,37.0,31.0,25.0,24.0,1080.0,4.96,0.389,4.58,7.0,8.0,3.0,32.0,1421.2,1564.0,804.0,724.0,161.0,480.0,37.0,940.0,54.0,5.0,47.0,6210.0,89.0,4.3,1.438,9.9,1.0,3.0,6.0,1.96,1141.0
167,NYM,2011,4.43,6335.0,5600.0,718.0,1477.0,309.0,39.0,108.0,676.0,130.0,35.0,571.0,1085.0,0.264,0.335,0.391,0.725,102.0,2188.0,112.0,51.0,65.0,48.0,56.0,1257.0,4.58,0.475,4.19,6.0,9.0,2.0,43.0,1448.0,1482.0,742.0,674.0,147.0,514.0,48.0,1126.0,70.0,7.0,46.0,6316.0,89.0,4.0,1.378,9.2,0.9,3.2,7.0,2.19,1230.0
168,NYY,2011,5.35,6306.0,5518.0,867.0,1452.0,267.0,33.0,222.0,836.0,147.0,46.0,627.0,1138.0,0.263,0.343,0.444,0.788,106.0,2451.0,146.0,74.0,36.0,51.0,34.0,1114.0,4.06,0.599,3.73,5.0,8.0,3.0,47.0,1458.1,1423.0,657.0,605.0,152.0,507.0,43.0,1222.0,58.0,3.0,67.0,6216.0,119.0,3.87,1.323,8.8,0.9,3.1,7.5,2.41,1184.0
169,OAK,2011,3.98,6104.0,5452.0,645.0,1330.0,280.0,29.0,114.0,612.0,117.0,43.0,509.0,1094.0,0.244,0.311,0.369,0.68,87.0,2010.0,119.0,50.0,34.0,57.0,20.0,1106.0,4.19,0.457,3.71,6.0,12.0,1.0,39.0,1447.2,1380.0,679.0,597.0,136.0,519.0,24.0,1160.0,41.0,3.0,53.0,6159.0,110.0,3.8,1.312,8.6,0.8,3.2,7.2,2.24,1137.0
170,PHI,2011,4.4,6279.0,5579.0,713.0,1409.0,258.0,38.0,153.0,693.0,96.0,24.0,539.0,1024.0,0.253,0.323,0.395,0.717,95.0,2202.0,108.0,56.0,65.0,38.0,52.0,1197.0,3.27,0.63,3.02,18.0,21.0,7.0,47.0,1477.0,1320.0,529.0,495.0,120.0,404.0,41.0,1299.0,47.0,6.0,23.0,6069.0,128.0,3.24,1.167,8.0,0.7,2.5,7.9,3.22,1109.0
171,PIT,2011,3.77,6064.0,5421.0,610.0,1325.0,277.0,35.0,107.0,580.0,108.0,52.0,489.0,1308.0,0.244,0.309,0.368,0.676,87.0,1993.0,123.0,34.0,75.0,44.0,31.0,1079.0,4.4,0.444,4.04,5.0,11.0,3.0,43.0,1449.1,1513.0,712.0,650.0,152.0,535.0,65.0,1031.0,62.0,6.0,60.0,6317.0,95.0,4.2,1.413,9.4,0.9,3.3,6.4,1.93,1257.0
172,SDP,2011,3.66,6074.0,5417.0,593.0,1284.0,247.0,42.0,91.0,563.0,170.0,44.0,501.0,1320.0,0.237,0.305,0.349,0.653,85.0,1888.0,105.0,48.0,55.0,47.0,42.0,1103.0,3.77,0.438,3.42,0.0,10.0,0.0,44.0,1449.1,1324.0,611.0,551.0,125.0,521.0,56.0,1139.0,37.0,6.0,45.0,6065.0,104.0,3.73,1.273,8.2,0.8,3.2,7.1,2.19,1106.0
173,SEA,2011,3.43,5972.0,5421.0,556.0,1263.0,253.0,22.0,109.0,534.0,125.0,40.0,435.0,1280.0,0.233,0.292,0.348,0.64,82.0,1887.0,82.0,37.0,38.0,41.0,33.0,1083.0,4.17,0.414,3.9,12.0,10.0,3.0,39.0,1433.0,1369.0,675.0,621.0,145.0,436.0,27.0,1088.0,51.0,6.0,68.0,6014.0,99.0,3.84,1.26,8.6,0.9,2.7,6.8,2.5,1040.0
174,SFG,2011,3.52,6091.0,5486.0,570.0,1327.0,282.0,24.0,121.0,534.0,85.0,51.0,448.0,1122.0,0.242,0.303,0.368,0.671,90.0,2020.0,117.0,52.0,62.0,43.0,47.0,1127.0,3.57,0.531,3.2,3.0,12.0,2.0,52.0,1468.0,1260.0,578.0,522.0,96.0,559.0,46.0,1316.0,50.0,4.0,42.0,6130.0,111.0,3.33,1.239,7.7,0.6,3.4,8.1,2.35,1148.0
175,STL,2011,4.7,6242.0,5532.0,762.0,1513.0,308.0,22.0,162.0,726.0,57.0,39.0,542.0,978.0,0.273,0.341,0.425,0.766,113.0,2351.0,169.0,44.0,84.0,40.0,64.0,1127.0,4.27,0.556,3.74,7.0,9.0,5.0,47.0,1462.0,1461.0,692.0,608.0,136.0,448.0,44.0,1098.0,46.0,3.0,48.0,6211.0,97.0,3.75,1.306,9.0,0.8,2.8,6.8,2.45,1133.0
176,TBR,2011,4.36,6152.0,5436.0,707.0,1324.0,273.0,37.0,172.0,674.0,155.0,62.0,571.0,1193.0,0.244,0.322,0.402,0.724,105.0,2187.0,101.0,73.0,37.0,35.0,31.0,1118.0,3.79,0.562,3.58,15.0,13.0,5.0,32.0,1449.0,1263.0,614.0,577.0,161.0,504.0,38.0,1143.0,46.0,3.0,45.0,6010.0,104.0,4.03,1.219,7.8,1.0,3.1,7.1,2.27,1049.0
177,TEX,2011,5.28,6261.0,5659.0,855.0,1599.0,310.0,32.0,210.0,807.0,143.0,45.0,475.0,930.0,0.283,0.34,0.46,0.8,108.0,2603.0,135.0,39.0,39.0,49.0,35.0,1126.0,4.18,0.593,3.79,10.0,19.0,7.0,38.0,1441.1,1327.0,677.0,607.0,170.0,461.0,21.0,1179.0,46.0,6.0,43.0,6021.0,118.0,3.98,1.241,8.3,1.1,2.9,7.4,2.56,1020.0
178,TOR,2011,4.59,6210.0,5559.0,743.0,1384.0,285.0,34.0,186.0,704.0,131.0,52.0,525.0,1184.0,0.249,0.317,0.413,0.73,96.0,2295.0,108.0,48.0,31.0,47.0,41.0,1090.0,4.7,0.5,4.32,7.0,10.0,3.0,33.0,1458.2,1433.0,761.0,700.0,179.0,540.0,28.0,1169.0,77.0,3.0,73.0,6286.0,99.0,4.29,1.353,8.8,1.1,3.3,7.2,2.16,1149.0
179,WSN,2011,3.88,6090.0,5441.0,624.0,1319.0,257.0,22.0,154.0,594.0,106.0,38.0,470.0,1323.0,0.242,0.309,0.383,0.691,89.0,2082.0,103.0,65.0,82.0,32.0,40.0,1114.0,3.99,0.497,3.58,3.0,10.0,2.0,49.0,1449.1,1403.0,643.0,577.0,129.0,477.0,43.0,1049.0,52.0,6.0,49.0,6141.0,107.0,3.83,1.297,8.7,0.8,3.0,6.5,2.2,1150.0
180,ARI,2012,4.53,6150.0,5462.0,734.0,1416.0,307.0,33.0,165.0,710.0,93.0,51.0,539.0,1266.0,0.259,0.328,0.418,0.746,97.0,2284.0,108.0,41.0,61.0,45.0,47.0,1122.0,4.25,0.5,3.93,4.0,9.0,2.0,39.0,1433.2,1432.0,688.0,626.0,155.0,417.0,18.0,1200.0,51.0,10.0,52.0,6063.0,106.0,3.81,1.29,9.0,1.0,2.6,7.5,2.88,1074.0
181,ATL,2012,4.32,6126.0,5425.0,700.0,1341.0,263.0,30.0,149.0,660.0,101.0,32.0,567.0,1289.0,0.247,0.32,0.389,0.709,90.0,2111.0,108.0,34.0,53.0,46.0,37.0,1127.0,3.7,0.58,3.42,5.0,16.0,4.0,47.0,1445.1,1310.0,600.0,549.0,145.0,464.0,40.0,1232.0,41.0,3.0,54.0,5991.0,117.0,3.74,1.227,8.2,0.9,2.9,7.7,2.66,1055.0
182,BAL,2012,4.4,6160.0,5560.0,712.0,1375.0,270.0,16.0,214.0,677.0,58.0,29.0,480.0,1315.0,0.247,0.311,0.417,0.728,97.0,2319.0,152.0,50.0,38.0,30.0,24.0,1027.0,4.35,0.574,3.9,1.0,10.0,1.0,55.0,1483.0,1433.0,705.0,642.0,184.0,481.0,36.0,1177.0,53.0,6.0,34.0,6278.0,109.0,4.2,1.291,8.7,1.1,2.9,7.1,2.45,1124.0
183,BOS,2012,4.53,6166.0,5604.0,734.0,1459.0,339.0,16.0,165.0,695.0,97.0,31.0,428.0,1197.0,0.26,0.315,0.415,0.73,94.0,2325.0,105.0,45.0,34.0,55.0,27.0,1076.0,4.98,0.426,4.7,6.0,4.0,2.0,35.0,1443.0,1449.0,806.0,754.0,190.0,529.0,33.0,1176.0,66.0,11.0,42.0,6209.0,92.0,4.41,1.371,9.0,1.2,3.3,7.3,2.22,1074.0
184,CHC,2012,3.78,5967.0,5411.0,613.0,1297.0,265.0,36.0,137.0,570.0,94.0,45.0,447.0,1235.0,0.24,0.302,0.378,0.68,85.0,2045.0,125.0,43.0,42.0,24.0,29.0,1044.0,4.69,0.377,4.51,1.0,9.0,0.0,28.0,1413.2,1399.0,759.0,708.0,175.0,573.0,36.0,1128.0,65.0,5.0,44.0,6140.0,88.0,4.46,1.395,8.9,1.1,3.6,7.2,1.97,1140.0
185,CHW,2012,4.62,6111.0,5518.0,748.0,1409.0,228.0,29.0,211.0,726.0,109.0,43.0,461.0,1203.0,0.255,0.318,0.422,0.74,97.0,2328.0,112.0,65.0,31.0,36.0,24.0,1040.0,4.17,0.525,4.02,6.0,11.0,2.0,37.0,1445.2,1365.0,676.0,646.0,186.0,503.0,29.0,1246.0,68.0,9.0,66.0,6098.0,108.0,4.23,1.292,8.5,1.2,3.1,7.8,2.48,1085.0
186,CIN,2012,4.13,6115.0,5477.0,669.0,1377.0,296.0,30.0,172.0,636.0,87.0,27.0,481.0,1266.0,0.251,0.315,0.411,0.726,90.0,2249.0,100.0,47.0,73.0,37.0,54.0,1135.0,3.63,0.599,3.34,9.0,12.0,2.0,56.0,1453.0,1356.0,588.0,540.0,152.0,427.0,33.0,1248.0,51.0,7.0,34.0,6056.0,126.0,3.72,1.227,8.4,0.9,2.6,7.7,2.92,1109.0
187,CLE,2012,4.12,6195.0,5525.0,667.0,1385.0,266.0,24.0,136.0,635.0,110.0,44.0,555.0,1087.0,0.251,0.324,0.381,0.705,100.0,2107.0,141.0,59.0,17.0,39.0,28.0,1162.0,5.22,0.42,4.78,2.0,6.0,1.0,43.0,1442.0,1503.0,845.0,766.0,174.0,543.0,27.0,1086.0,55.0,6.0,67.0,6283.0,82.0,4.4,1.419,9.4,1.1,3.4,6.8,2.0,1112.0
188,COL,2012,4.68,6183.0,5577.0,758.0,1526.0,306.0,52.0,166.0,716.0,100.0,40.0,450.0,1213.0,0.274,0.33,0.436,0.766,92.0,2434.0,132.0,36.0,74.0,39.0,34.0,1111.0,5.49,0.395,5.22,0.0,7.0,0.0,36.0,1422.0,1637.0,890.0,824.0,198.0,566.0,61.0,1144.0,47.0,6.0,94.0,6384.0,91.0,4.59,1.549,10.4,1.3,3.6,7.2,2.02,1228.0
189,DET,2012,4.48,6119.0,5476.0,726.0,1467.0,279.0,39.0,163.0,698.0,59.0,23.0,511.0,1103.0,0.268,0.335,0.422,0.757,104.0,2313.0,156.0,57.0,36.0,39.0,46.0,1121.0,4.14,0.543,3.75,9.0,8.0,3.0,40.0,1430.2,1409.0,670.0,596.0,151.0,438.0,35.0,1318.0,42.0,6.0,46.0,6045.0,111.0,3.63,1.291,8.9,0.9,2.8,8.3,3.01,1083.0
190,HOU,2012,3.6,6014.0,5407.0,583.0,1276.0,238.0,28.0,146.0,545.0,105.0,46.0,463.0,1365.0,0.236,0.302,0.371,0.673,83.0,2008.0,114.0,58.0,54.0,30.0,19.0,1090.0,4.9,0.34,4.56,3.0,11.0,2.0,31.0,1423.1,1493.0,794.0,721.0,173.0,540.0,40.0,1170.0,48.0,6.0,75.0,6238.0,88.0,4.27,1.428,9.4,1.1,3.4,7.4,2.17,1174.0
191,KCR,2012,4.17,6149.0,5636.0,676.0,1492.0,295.0,37.0,131.0,643.0,132.0,38.0,404.0,1032.0,0.265,0.317,0.4,0.716,96.0,2254.0,130.0,42.0,26.0,41.0,35.0,1087.0,4.6,0.444,4.3,2.0,12.0,1.0,44.0,1451.1,1504.0,746.0,693.0,163.0,542.0,44.0,1177.0,60.0,8.0,49.0,6251.0,97.0,4.18,1.41,9.3,1.0,3.4,7.3,2.17,1151.0
192,LAA,2012,4.73,6121.0,5536.0,767.0,1518.0,273.0,22.0,187.0,732.0,134.0,33.0,449.0,1113.0,0.274,0.332,0.433,0.764,116.0,2396.0,138.0,47.0,47.0,41.0,29.0,1079.0,4.31,0.549,4.02,6.0,16.0,5.0,38.0,1433.1,1339.0,699.0,640.0,186.0,483.0,20.0,1157.0,40.0,2.0,38.0,6034.0,94.0,4.26,1.271,8.4,1.2,3.0,7.3,2.4,1035.0
193,LAD,2012,3.93,6091.0,5438.0,637.0,1369.0,269.0,23.0,116.0,607.0,104.0,44.0,481.0,1156.0,0.252,0.317,0.374,0.69,91.0,2032.0,139.0,52.0,82.0,38.0,49.0,1112.0,3.69,0.531,3.34,2.0,10.0,2.0,40.0,1449.2,1277.0,597.0,538.0,122.0,539.0,62.0,1276.0,45.0,2.0,46.0,6068.0,114.0,3.64,1.253,7.9,0.8,3.3,7.9,2.37,1122.0
194,MIA,2012,3.76,6057.0,5437.0,609.0,1327.0,261.0,39.0,137.0,576.0,149.0,41.0,484.0,1228.0,0.244,0.308,0.382,0.69,87.0,2077.0,114.0,35.0,60.0,40.0,46.0,1092.0,4.47,0.426,4.09,5.0,7.0,3.0,38.0,1440.2,1448.0,724.0,655.0,133.0,495.0,61.0,1113.0,55.0,4.0,36.0,6186.0,97.0,3.9,1.349,9.0,0.8,3.1,7.0,2.25,1140.0
195,MIL,2012,4.79,6225.0,5557.0,776.0,1442.0,300.0,39.0,202.0,741.0,158.0,39.0,466.0,1240.0,0.259,0.325,0.437,0.762,102.0,2426.0,111.0,90.0,76.0,35.0,35.0,1104.0,4.52,0.512,4.22,0.0,9.0,0.0,44.0,1453.2,1458.0,733.0,682.0,169.0,525.0,20.0,1402.0,31.0,5.0,57.0,6245.0,97.0,3.82,1.364,9.0,1.0,3.3,8.7,2.67,1151.0
196,MIN,2012,4.33,6209.0,5562.0,701.0,1448.0,270.0,30.0,131.0,666.0,135.0,37.0,505.0,1069.0,0.26,0.325,0.39,0.715,99.0,2171.0,149.0,53.0,33.0,56.0,28.0,1144.0,5.14,0.407,4.77,3.0,6.0,1.0,35.0,1438.2,1536.0,832.0,762.0,198.0,465.0,43.0,943.0,57.0,2.0,60.0,6214.0,85.0,4.66,1.391,9.6,1.2,2.9,5.9,2.03,1066.0
197,NYM,2012,4.01,6091.0,5450.0,650.0,1357.0,286.0,21.0,139.0,625.0,79.0,38.0,503.0,1250.0,0.249,0.316,0.386,0.701,93.0,2102.0,118.0,42.0,64.0,30.0,43.0,1118.0,4.38,0.457,4.09,7.0,13.0,5.0,36.0,1434.0,1368.0,709.0,651.0,161.0,488.0,29.0,1240.0,40.0,3.0,40.0,6086.0,93.0,3.93,1.294,8.6,1.0,3.1,7.8,2.54,1075.0
198,NYY,2012,4.96,6231.0,5524.0,804.0,1462.0,280.0,13.0,245.0,774.0,93.0,27.0,565.0,1176.0,0.265,0.337,0.453,0.79,112.0,2503.0,136.0,62.0,31.0,49.0,31.0,1135.0,4.12,0.586,3.84,6.0,9.0,2.0,51.0,1445.1,1401.0,668.0,617.0,190.0,431.0,32.0,1318.0,49.0,9.0,53.0,6085.0,109.0,3.98,1.268,8.7,1.2,2.7,8.2,3.06,1081.0
199,OAK,2012,4.4,6183.0,5527.0,713.0,1315.0,267.0,32.0,195.0,676.0,122.0,32.0,550.0,1387.0,0.238,0.31,0.404,0.714,97.0,2231.0,97.0,45.0,27.0,34.0,29.0,1095.0,3.79,0.58,3.48,1.0,13.0,0.0,47.0,1470.0,1360.0,614.0,569.0,147.0,462.0,34.0,1136.0,46.0,5.0,40.0,6131.0,113.0,3.89,1.239,8.3,0.9,2.8,7.0,2.46,1107.0
200,PHI,2012,4.22,6172.0,5544.0,684.0,1414.0,271.0,28.0,158.0,659.0,116.0,23.0,454.0,1094.0,0.255,0.317,0.4,0.716,92.0,2215.0,114.0,63.0,72.0,39.0,41.0,1135.0,4.2,0.5,3.83,5.0,11.0,4.0,42.0,1451.1,1387.0,680.0,618.0,178.0,409.0,33.0,1385.0,44.0,3.0,30.0,6072.0,104.0,3.72,1.237,8.6,1.1,2.5,8.6,3.39,1038.0
201,PIT,2012,4.02,6014.0,5412.0,651.0,1313.0,241.0,37.0,170.0,620.0,73.0,52.0,444.0,1354.0,0.243,0.304,0.395,0.699,94.0,2138.0,98.0,51.0,62.0,45.0,32.0,1049.0,4.16,0.488,3.86,2.0,10.0,1.0,45.0,1433.1,1357.0,674.0,615.0,153.0,490.0,30.0,1192.0,45.0,3.0,45.0,6097.0,96.0,3.93,1.289,8.5,1.0,3.1,7.5,2.43,1123.0
202,SDP,2012,4.02,6112.0,5422.0,651.0,1339.0,272.0,43.0,121.0,610.0,155.0,46.0,539.0,1238.0,0.247,0.319,0.38,0.699,96.0,2060.0,100.0,54.0,63.0,34.0,36.0,1146.0,4.38,0.469,4.01,4.0,11.0,3.0,43.0,1434.2,1356.0,710.0,640.0,162.0,539.0,48.0,1205.0,48.0,8.0,49.0,6151.0,91.0,4.11,1.321,8.5,1.0,3.4,7.6,2.24,1137.0
203,SEA,2012,3.82,6057.0,5494.0,619.0,1285.0,241.0,27.0,149.0,584.0,104.0,35.0,466.0,1259.0,0.234,0.296,0.369,0.665,90.0,2027.0,95.0,30.0,32.0,35.0,21.0,1052.0,4.02,0.463,3.76,8.0,11.0,6.0,43.0,1456.2,1359.0,651.0,608.0,166.0,449.0,39.0,1166.0,49.0,5.0,61.0,6062.0,99.0,4.0,1.241,8.4,1.0,2.8,7.2,2.6,1041.0
204,SFG,2012,4.43,6200.0,5558.0,718.0,1495.0,287.0,57.0,103.0,675.0,118.0,39.0,483.0,1097.0,0.269,0.327,0.397,0.724,107.0,2205.0,114.0,29.0,69.0,61.0,44.0,1171.0,4.01,0.58,3.68,5.0,14.0,4.0,53.0,1451.0,1361.0,649.0,593.0,142.0,489.0,42.0,1237.0,51.0,4.0,54.0,6138.0,95.0,3.78,1.275,8.4,0.9,3.0,7.7,2.53,1136.0
205,STL,2012,4.72,6326.0,5622.0,765.0,1526.0,290.0,37.0,159.0,732.0,91.0,37.0,533.0,1192.0,0.271,0.338,0.421,0.759,107.0,2367.0,135.0,53.0,69.0,49.0,45.0,1198.0,4.0,0.543,3.71,4.0,10.0,2.0,42.0,1462.2,1420.0,648.0,603.0,134.0,436.0,28.0,1218.0,50.0,4.0,46.0,6158.0,104.0,3.62,1.269,8.7,0.8,2.7,7.5,2.79,1122.0
206,TBR,2012,4.3,6105.0,5398.0,697.0,1293.0,250.0,30.0,175.0,665.0,134.0,44.0,571.0,1323.0,0.24,0.317,0.394,0.711,100.0,2128.0,133.0,58.0,34.0,42.0,26.0,1058.0,3.56,0.556,3.19,7.0,15.0,4.0,50.0,1459.2,1233.0,577.0,518.0,139.0,469.0,35.0,1383.0,54.0,4.0,59.0,6000.0,120.0,3.51,1.166,7.6,0.9,2.9,8.5,2.95,1044.0
207,TEX,2012,4.99,6216.0,5590.0,808.0,1526.0,303.0,32.0,200.0,780.0,91.0,44.0,478.0,1103.0,0.273,0.334,0.446,0.78,102.0,2493.0,121.0,57.0,36.0,53.0,44.0,1113.0,4.36,0.574,3.99,7.0,10.0,2.0,43.0,1442.0,1378.0,707.0,639.0,175.0,446.0,15.0,1286.0,41.0,8.0,53.0,6067.0,113.0,3.9,1.265,8.6,1.1,2.8,8.0,2.88,1034.0
208,TOR,2012,4.42,6094.0,5487.0,716.0,1346.0,247.0,22.0,198.0,677.0,123.0,41.0,473.0,1251.0,0.245,0.309,0.407,0.716,92.0,2231.0,109.0,55.0,33.0,45.0,29.0,1026.0,4.84,0.451,4.64,5.0,11.0,4.0,29.0,1443.2,1439.0,784.0,745.0,204.0,574.0,20.0,1142.0,55.0,7.0,56.0,6216.0,92.0,4.66,1.394,9.0,1.3,3.6,7.1,1.99,1101.0
209,WSN,2012,4.51,6221.0,5615.0,731.0,1468.0,301.0,25.0,194.0,688.0,105.0,35.0,479.0,1325.0,0.261,0.322,0.428,0.75,102.0,2401.0,110.0,41.0,50.0,36.0,43.0,1127.0,3.67,0.605,3.33,3.0,9.0,1.0,51.0,1468.1,1296.0,594.0,543.0,129.0,497.0,32.0,1325.0,47.0,4.0,62.0,6133.0,119.0,3.54,1.221,7.9,0.8,3.0,8.1,2.67,1134.0
210,ARI,2013,4.23,6334.0,5676.0,685.0,1468.0,302.0,31.0,130.0,647.0,62.0,41.0,519.0,1142.0,0.259,0.323,0.391,0.715,96.0,2222.0,160.0,43.0,50.0,43.0,51.0,1160.0,4.29,0.5,3.92,6.0,7.0,2.0,38.0,1495.0,1460.0,695.0,651.0,176.0,485.0,42.0,1218.0,60.0,3.0,84.0,6338.0,98.0,4.04,1.301,8.8,1.1,2.9,7.3,2.51,1158.0
211,ATL,2013,4.25,6133.0,5441.0,688.0,1354.0,247.0,21.0,181.0,656.0,64.0,31.0,542.0,1384.0,0.249,0.321,0.402,0.723,97.0,2186.0,119.0,55.0,58.0,35.0,36.0,1132.0,3.38,0.593,3.18,1.0,12.0,0.0,53.0,1450.1,1326.0,548.0,512.0,127.0,409.0,35.0,1232.0,51.0,3.0,50.0,5989.0,122.0,3.44,1.196,8.2,0.8,2.5,7.6,3.01,1090.0
212,BAL,2013,4.6,6144.0,5620.0,745.0,1460.0,298.0,14.0,212.0,719.0,79.0,29.0,416.0,1125.0,0.26,0.313,0.431,0.744,99.0,2422.0,105.0,36.0,27.0,45.0,36.0,1053.0,4.38,0.525,4.2,2.0,6.0,1.0,57.0,1453.0,1438.0,709.0,678.0,202.0,473.0,32.0,1169.0,50.0,3.0,38.0,6144.0,100.0,4.33,1.315,8.9,1.3,2.9,7.2,2.47,1076.0
213,BOS,2013,5.27,6382.0,5651.0,853.0,1566.0,363.0,29.0,178.0,819.0,123.0,19.0,581.0,1308.0,0.277,0.349,0.446,0.795,117.0,2521.0,137.0,72.0,24.0,50.0,51.0,1212.0,4.05,0.599,3.79,5.0,8.0,2.0,33.0,1454.0,1366.0,656.0,613.0,156.0,524.0,10.0,1294.0,47.0,5.0,47.0,6143.0,108.0,3.84,1.3,8.5,1.0,3.2,8.0,2.47,1125.0
214,CHC,2013,3.72,6079.0,5498.0,602.0,1307.0,297.0,18.0,172.0,576.0,63.0,32.0,439.0,1230.0,0.238,0.3,0.392,0.693,88.0,2156.0,120.0,67.0,43.0,30.0,28.0,1092.0,4.25,0.407,4.0,3.0,6.0,1.0,39.0,1448.0,1332.0,689.0,643.0,160.0,540.0,43.0,1184.0,62.0,4.0,59.0,6149.0,99.0,4.1,1.293,8.3,1.0,3.4,7.4,2.19,1116.0
215,CHW,2013,3.69,6077.0,5563.0,598.0,1385.0,237.0,19.0,148.0,574.0,105.0,42.0,411.0,1207.0,0.249,0.302,0.378,0.68,82.0,2104.0,124.0,34.0,19.0,48.0,23.0,1068.0,4.46,0.389,3.98,5.0,5.0,1.0,40.0,1455.0,1424.0,723.0,643.0,182.0,509.0,24.0,1249.0,60.0,4.0,62.0,6214.0,108.0,4.13,1.329,8.8,1.1,3.1,7.7,2.45,1126.0
216,CIN,2013,4.31,6293.0,5499.0,698.0,1370.0,274.0,20.0,155.0,664.0,67.0,35.0,585.0,1245.0,0.249,0.327,0.391,0.718,96.0,2149.0,129.0,76.0,85.0,46.0,65.0,1191.0,3.64,0.556,3.38,5.0,17.0,2.0,43.0,1473.2,1294.0,589.0,554.0,170.0,435.0,28.0,1296.0,66.0,5.0,44.0,6077.0,113.0,3.81,1.173,7.9,1.0,2.7,7.9,2.98,1067.0
217,CLE,2013,4.6,6165.0,5465.0,745.0,1391.0,290.0,23.0,171.0,711.0,117.0,36.0,562.0,1283.0,0.255,0.327,0.41,0.737,109.0,2240.0,106.0,51.0,31.0,56.0,19.0,1126.0,4.09,0.568,3.82,3.0,16.0,3.0,38.0,1441.1,1359.0,662.0,611.0,147.0,554.0,26.0,1379.0,58.0,3.0,71.0,6154.0,99.0,3.73,1.327,8.5,0.9,3.5,8.6,2.49,1168.0
218,COL,2013,4.36,6152.0,5599.0,706.0,1511.0,283.0,36.0,159.0,673.0,112.0,32.0,427.0,1204.0,0.27,0.323,0.418,0.741,91.0,2343.0,111.0,26.0,65.0,35.0,26.0,1118.0,4.69,0.457,4.44,1.0,5.0,0.0,35.0,1436.0,1545.0,760.0,708.0,136.0,517.0,52.0,1064.0,40.0,15.0,62.0,6248.0,100.0,3.96,1.436,9.7,0.9,3.2,6.7,2.06,1180.0
219,DET,2013,4.91,6388.0,5735.0,796.0,1625.0,292.0,23.0,176.0,767.0,35.0,20.0,531.0,1073.0,0.283,0.346,0.434,0.78,110.0,2491.0,146.0,43.0,32.0,47.0,40.0,1250.0,3.85,0.574,3.61,3.0,12.0,1.0,39.0,1462.2,1369.0,624.0,587.0,128.0,462.0,29.0,1428.0,42.0,7.0,63.0,6119.0,117.0,3.27,1.252,8.4,0.8,2.8,8.8,3.09,1107.0
220,HOU,2013,3.77,6020.0,5457.0,610.0,1307.0,266.0,16.0,148.0,566.0,110.0,61.0,426.0,1535.0,0.24,0.299,0.375,0.674,86.0,2049.0,110.0,52.0,46.0,38.0,17.0,1007.0,5.23,0.315,4.79,2.0,5.0,1.0,32.0,1440.0,1530.0,848.0,766.0,191.0,616.0,32.0,1084.0,56.0,6.0,61.0,6370.0,85.0,4.67,1.49,9.6,1.2,3.9,6.8,1.76,1202.0
221,KCR,2013,4.0,6093.0,5549.0,648.0,1443.0,254.0,34.0,112.0,620.0,153.0,32.0,422.0,1048.0,0.26,0.315,0.379,0.694,89.0,2101.0,131.0,42.0,37.0,42.0,38.0,1110.0,3.71,0.531,3.45,5.0,12.0,2.0,52.0,1448.1,1366.0,601.0,555.0,155.0,469.0,21.0,1208.0,41.0,4.0,60.0,6049.0,120.0,3.83,1.267,8.5,1.0,2.9,7.5,2.58,1103.0
222,LAA,2013,4.52,6260.0,5588.0,733.0,1476.0,270.0,39.0,164.0,696.0,82.0,34.0,523.0,1221.0,0.264,0.329,0.414,0.743,110.0,2316.0,150.0,48.0,37.0,64.0,40.0,1144.0,4.55,0.481,4.23,4.0,12.0,2.0,41.0,1457.2,1475.0,737.0,685.0,167.0,533.0,36.0,1200.0,45.0,4.0,74.0,6298.0,89.0,4.08,1.378,9.1,1.0,3.3,7.4,2.25,1188.0
223,LAD,2013,4.01,6145.0,5491.0,649.0,1447.0,281.0,17.0,138.0,618.0,78.0,28.0,476.0,1146.0,0.264,0.326,0.396,0.722,104.0,2176.0,130.0,57.0,71.0,48.0,45.0,1175.0,3.59,0.568,3.25,7.0,22.0,4.0,46.0,1450.1,1321.0,582.0,524.0,127.0,460.0,44.0,1292.0,43.0,3.0,66.0,6032.0,110.0,3.44,1.228,8.2,0.8,2.9,8.0,2.81,1099.0
224,MIA,2013,3.17,6021.0,5449.0,513.0,1257.0,219.0,31.0,95.0,485.0,78.0,29.0,432.0,1232.0,0.231,0.293,0.335,0.627,73.0,1823.0,131.0,56.0,57.0,26.0,31.0,1080.0,3.99,0.383,3.71,2.0,13.0,1.0,36.0,1460.0,1376.0,646.0,602.0,121.0,526.0,58.0,1177.0,47.0,2.0,53.0,6166.0,104.0,3.69,1.303,8.5,0.7,3.2,7.3,2.24,1140.0
225,MIL,2013,3.95,6064.0,5474.0,640.0,1381.0,238.0,43.0,157.0,610.0,142.0,50.0,407.0,1183.0,0.252,0.311,0.398,0.708,91.0,2176.0,116.0,71.0,77.0,35.0,22.0,1071.0,4.24,0.457,3.84,4.0,15.0,2.0,40.0,1442.2,1401.0,687.0,615.0,175.0,466.0,29.0,1125.0,43.0,2.0,51.0,6100.0,103.0,4.12,1.294,8.7,1.1,2.9,7.0,2.41,1085.0
226,MIN,2013,3.79,6212.0,5564.0,614.0,1346.0,285.0,15.0,151.0,590.0,52.0,33.0,533.0,1430.0,0.242,0.312,0.38,0.692,92.0,2114.0,103.0,52.0,29.0,32.0,20.0,1206.0,4.86,0.407,4.55,1.0,7.0,1.0,40.0,1450.1,1591.0,788.0,733.0,168.0,458.0,31.0,985.0,44.0,4.0,50.0,6257.0,89.0,4.23,1.413,9.9,1.0,2.8,6.1,2.15,1118.0
227,NYM,2013,3.82,6207.0,5559.0,619.0,1318.0,263.0,32.0,130.0,593.0,114.0,35.0,512.0,1384.0,0.237,0.306,0.366,0.672,91.0,2035.0,106.0,51.0,53.0,32.0,40.0,1137.0,4.22,0.457,3.77,4.0,10.0,2.0,40.0,1476.2,1442.0,684.0,618.0,152.0,458.0,38.0,1209.0,54.0,3.0,47.0,6249.0,95.0,3.79,1.287,8.8,0.9,2.8,7.4,2.64,1135.0
228,NYY,2013,4.01,6045.0,5449.0,650.0,1321.0,247.0,24.0,144.0,614.0,115.0,31.0,466.0,1214.0,0.242,0.307,0.376,0.683,87.0,2048.0,121.0,57.0,36.0,36.0,33.0,1064.0,4.14,0.525,3.94,7.0,10.0,3.0,49.0,1447.1,1452.0,671.0,633.0,171.0,437.0,34.0,1233.0,51.0,1.0,57.0,6128.0,103.0,3.89,1.305,9.0,1.1,2.7,7.7,2.82,1115.0
229,OAK,2013,4.73,6209.0,5521.0,767.0,1403.0,301.0,25.0,186.0,725.0,74.0,28.0,573.0,1178.0,0.254,0.327,0.419,0.745,110.0,2312.0,108.0,45.0,21.0,49.0,29.0,1126.0,3.86,0.593,3.56,6.0,13.0,4.0,46.0,1452.0,1339.0,625.0,574.0,163.0,428.0,23.0,1183.0,35.0,1.0,56.0,6069.0,105.0,3.83,1.217,8.3,1.0,2.7,7.3,2.76,1088.0
230,PHI,2013,3.77,6014.0,5456.0,610.0,1355.0,255.0,32.0,140.0,578.0,73.0,29.0,417.0,1205.0,0.248,0.306,0.384,0.69,90.0,2094.0,131.0,53.0,57.0,31.0,41.0,1061.0,4.62,0.451,4.32,6.0,3.0,2.0,32.0,1436.1,1465.0,749.0,689.0,152.0,506.0,33.0,1199.0,62.0,6.0,48.0,6213.0,89.0,3.94,1.372,9.2,1.0,3.2,7.5,2.37,1155.0
231,PIT,2013,3.91,6135.0,5486.0,634.0,1346.0,273.0,35.0,161.0,603.0,94.0,42.0,469.0,1330.0,0.245,0.313,0.396,0.709,101.0,2172.0,120.0,88.0,62.0,29.0,41.0,1126.0,3.56,0.58,3.26,3.0,16.0,0.0,55.0,1470.2,1299.0,577.0,533.0,101.0,515.0,26.0,1261.0,70.0,6.0,81.0,6147.0,108.0,3.42,1.233,7.9,0.6,3.2,7.7,2.45,1158.0
232,SDP,2013,3.81,6122.0,5517.0,618.0,1349.0,246.0,26.0,146.0,578.0,118.0,34.0,467.0,1309.0,0.245,0.308,0.378,0.686,97.0,2085.0,99.0,52.0,52.0,34.0,36.0,1126.0,4.32,0.469,3.98,3.0,6.0,1.0,40.0,1455.0,1407.0,700.0,643.0,156.0,525.0,31.0,1171.0,40.0,2.0,51.0,6179.0,86.0,4.0,1.328,8.7,1.0,3.2,7.2,2.23,1114.0
233,SEA,2013,3.85,6172.0,5558.0,624.0,1318.0,249.0,17.0,188.0,597.0,49.0,23.0,529.0,1353.0,0.237,0.306,0.39,0.695,98.0,2165.0,122.0,31.0,26.0,28.0,21.0,1131.0,4.65,0.438,4.31,4.0,14.0,2.0,43.0,1465.0,1467.0,754.0,702.0,174.0,478.0,48.0,1297.0,42.0,1.0,74.0,6257.0,86.0,3.89,1.328,9.0,1.1,2.9,8.0,2.71,1108.0
234,SFG,2013,3.88,6168.0,5552.0,629.0,1446.0,280.0,35.0,107.0,596.0,67.0,26.0,469.0,1078.0,0.26,0.32,0.381,0.702,103.0,2117.0,131.0,39.0,66.0,42.0,40.0,1187.0,4.27,0.469,4.0,2.0,13.0,2.0,41.0,1447.1,1380.0,691.0,643.0,145.0,521.0,64.0,1256.0,50.0,4.0,60.0,6163.0,84.0,3.8,1.313,8.6,0.9,3.2,7.8,2.41,1130.0
235,STL,2013,4.83,6202.0,5557.0,783.0,1494.0,322.0,20.0,125.0,745.0,45.0,22.0,481.0,1110.0,0.269,0.332,0.401,0.733,104.0,2231.0,154.0,64.0,56.0,44.0,38.0,1087.0,3.68,0.599,3.42,7.0,15.0,4.0,44.0,1459.2,1366.0,596.0,555.0,112.0,451.0,26.0,1254.0,64.0,1.0,33.0,6104.0,107.0,3.39,1.245,8.4,0.7,2.8,7.7,2.78,1129.0
236,TBR,2013,4.29,6242.0,5538.0,700.0,1421.0,296.0,23.0,165.0,670.0,73.0,38.0,589.0,1171.0,0.257,0.329,0.408,0.737,107.0,2258.0,140.0,36.0,24.0,55.0,31.0,1172.0,3.96,0.564,3.74,9.0,17.0,3.0,42.0,1464.0,1315.0,646.0,608.0,153.0,482.0,38.0,1310.0,52.0,6.0,69.0,6083.0,102.0,3.71,1.227,8.1,0.9,3.0,8.1,2.72,1045.0
237,TEX,2013,4.48,6196.0,5585.0,730.0,1465.0,262.0,23.0,176.0,691.0,149.0,46.0,462.0,1067.0,0.262,0.323,0.412,0.735,99.0,2301.0,124.0,61.0,45.0,42.0,26.0,1110.0,3.9,0.558,3.62,4.0,10.0,2.0,46.0,1463.1,1370.0,636.0,589.0,157.0,498.0,35.0,1309.0,48.0,5.0,68.0,6146.0,114.0,3.77,1.277,8.4,1.0,3.1,8.1,2.63,1120.0
238,TOR,2013,4.4,6152.0,5537.0,712.0,1398.0,273.0,24.0,185.0,669.0,112.0,41.0,510.0,1123.0,0.252,0.318,0.411,0.729,99.0,2274.0,133.0,38.0,29.0,38.0,19.0,1065.0,4.67,0.457,4.25,4.0,11.0,2.0,39.0,1452.0,1451.0,756.0,685.0,195.0,500.0,33.0,1208.0,65.0,7.0,54.0,6250.0,96.0,4.3,1.344,9.0,1.2,3.1,7.5,2.42,1138.0
239,WSN,2013,4.05,6047.0,5436.0,656.0,1365.0,259.0,27.0,161.0,621.0,88.0,28.0,464.0,1192.0,0.251,0.313,0.398,0.71,94.0,2161.0,115.0,40.0,68.0,39.0,35.0,1071.0,3.86,0.531,3.59,6.0,13.0,4.0,47.0,1445.2,1367.0,626.0,576.0,142.0,405.0,17.0,1236.0,48.0,8.0,43.0,6038.0,106.0,3.56,1.226,8.5,0.9,2.5,7.7,3.05,1075.0
240,ARI,2014,3.8,6089.0,5552.0,615.0,1379.0,259.0,47.0,118.0,573.0,86.0,33.0,398.0,1165.0,0.248,0.302,0.376,0.678,88.0,2086.0,115.0,43.0,56.0,36.0,31.0,1092.0,4.58,0.395,4.26,2.0,4.0,1.0,35.0,1444.1,1467.0,742.0,683.0,154.0,469.0,43.0,1278.0,51.0,5.0,50.0,6162.0,88.0,3.83,1.34,9.1,1.0,2.9,8.0,2.72,1087.0
241,ATL,2014,3.54,6064.0,5468.0,573.0,1316.0,240.0,22.0,123.0,545.0,95.0,33.0,472.0,1369.0,0.241,0.305,0.36,0.665,87.0,1969.0,121.0,43.0,53.0,27.0,31.0,1128.0,3.69,0.488,3.38,5.0,13.0,2.0,54.0,1455.0,1369.0,597.0,547.0,121.0,472.0,36.0,1301.0,37.0,1.0,75.0,6087.0,108.0,3.47,1.265,8.5,0.7,2.9,8.0,2.76,1125.0
242,BAL,2014,4.35,6130.0,5596.0,705.0,1434.0,264.0,16.0,211.0,681.0,44.0,20.0,401.0,1285.0,0.256,0.311,0.422,0.734,106.0,2363.0,112.0,62.0,35.0,36.0,29.0,1088.0,3.66,0.593,3.43,3.0,13.0,2.0,53.0,1461.1,1342.0,593.0,557.0,151.0,472.0,25.0,1174.0,59.0,2.0,42.0,6104.0,112.0,3.96,1.241,8.3,0.9,2.9,7.2,2.49,1127.0
243,BOS,2014,3.91,6226.0,5551.0,634.0,1355.0,282.0,20.0,123.0,601.0,63.0,25.0,535.0,1337.0,0.244,0.316,0.369,0.684,92.0,2046.0,138.0,68.0,20.0,52.0,36.0,1168.0,4.41,0.438,4.01,3.0,7.0,2.0,36.0,1465.2,1458.0,715.0,653.0,154.0,482.0,19.0,1213.0,47.0,5.0,51.0,6231.0,97.0,3.93,1.324,9.0,0.9,3.0,7.4,2.52,1119.0
244,CHC,2014,3.79,6102.0,5508.0,614.0,1315.0,270.0,31.0,157.0,590.0,65.0,40.0,442.0,1477.0,0.239,0.3,0.385,0.684,88.0,2118.0,94.0,54.0,57.0,41.0,29.0,1069.0,4.36,0.451,3.91,1.0,11.0,1.0,37.0,1463.1,1398.0,707.0,636.0,115.0,504.0,37.0,1311.0,55.0,3.0,64.0,6208.0,98.0,3.51,1.3,8.6,0.7,3.1,8.1,2.6,1111.0
245,CHW,2014,4.07,6077.0,5543.0,660.0,1400.0,279.0,32.0,155.0,625.0,85.0,36.0,417.0,1362.0,0.253,0.31,0.398,0.708,100.0,2208.0,127.0,60.0,19.0,38.0,33.0,1071.0,4.68,0.451,4.29,3.0,6.0,0.0,36.0,1441.0,1468.0,758.0,687.0,140.0,557.0,42.0,1152.0,69.0,3.0,75.0,6255.0,90.0,4.09,1.405,9.2,0.9,3.5,7.2,2.07,1174.0
246,CIN,2014,3.67,5978.0,5395.0,595.0,1282.0,254.0,20.0,131.0,562.0,122.0,52.0,415.0,1252.0,0.238,0.296,0.365,0.661,86.0,1969.0,88.0,52.0,76.0,37.0,22.0,1037.0,3.78,0.469,3.59,5.0,13.0,3.0,44.0,1446.0,1282.0,612.0,576.0,163.0,507.0,33.0,1290.0,69.0,5.0,45.0,6067.0,101.0,4.01,1.237,8.0,1.0,3.2,8.0,2.54,1117.0
247,CLE,2014,4.13,6222.0,5575.0,669.0,1411.0,284.0,23.0,142.0,644.0,104.0,27.0,504.0,1189.0,0.253,0.317,0.389,0.706,102.0,2167.0,126.0,42.0,51.0,49.0,24.0,1154.0,4.03,0.525,3.56,6.0,15.0,4.0,40.0,1468.1,1398.0,653.0,581.0,135.0,464.0,51.0,1450.0,58.0,2.0,56.0,6193.0,104.0,3.42,1.268,8.6,0.8,2.8,8.9,3.13,1135.0
248,COL,2014,4.66,6164.0,5612.0,755.0,1551.0,307.0,41.0,186.0,721.0,85.0,48.0,397.0,1281.0,0.276,0.327,0.445,0.772,102.0,2498.0,121.0,48.0,59.0,48.0,39.0,1072.0,5.05,0.407,4.84,1.0,4.0,1.0,24.0,1431.0,1528.0,818.0,770.0,173.0,531.0,32.0,1074.0,54.0,8.0,72.0,6248.0,88.0,4.43,1.439,9.6,1.1,3.3,6.8,2.02,1137.0
249,DET,2014,4.67,6202.0,5630.0,757.0,1557.0,325.0,26.0,155.0,731.0,106.0,41.0,443.0,1144.0,0.277,0.331,0.426,0.757,109.0,2399.0,137.0,44.0,24.0,61.0,51.0,1111.0,4.35,0.556,4.01,5.0,8.0,4.0,41.0,1454.0,1475.0,705.0,648.0,127.0,462.0,34.0,1244.0,42.0,9.0,43.0,6191.0,100.0,3.6,1.332,9.1,0.8,2.9,7.7,2.69,1124.0
250,HOU,2014,3.88,6055.0,5447.0,629.0,1317.0,240.0,19.0,163.0,596.0,122.0,37.0,495.0,1442.0,0.242,0.309,0.383,0.692,95.0,2084.0,122.0,55.0,22.0,36.0,27.0,1086.0,4.46,0.432,4.11,7.0,3.0,2.0,31.0,1438.2,1437.0,723.0,657.0,139.0,484.0,32.0,1137.0,52.0,7.0,57.0,6154.0,95.0,3.93,1.335,9.0,0.9,3.0,7.1,2.35,1115.0
251,KCR,2014,4.02,6058.0,5545.0,651.0,1456.0,286.0,29.0,95.0,604.0,153.0,36.0,380.0,985.0,0.263,0.314,0.376,0.69,91.0,2085.0,131.0,53.0,33.0,47.0,22.0,1080.0,3.85,0.549,3.51,3.0,14.0,2.0,53.0,1450.2,1386.0,624.0,565.0,128.0,440.0,14.0,1168.0,56.0,6.0,58.0,6101.0,114.0,3.69,1.259,8.6,0.8,2.7,7.2,2.65,1125.0
252,LAA,2014,4.77,6285.0,5652.0,773.0,1464.0,304.0,31.0,155.0,729.0,81.0,39.0,492.0,1266.0,0.259,0.322,0.406,0.728,109.0,2295.0,112.0,60.0,26.0,54.0,42.0,1113.0,3.89,0.605,3.58,3.0,13.0,2.0,46.0,1482.2,1307.0,630.0,590.0,126.0,504.0,41.0,1342.0,63.0,4.0,74.0,6179.0,102.0,3.57,1.221,7.9,0.8,3.1,8.1,2.66,1101.0
253,LAD,2014,4.43,6231.0,5560.0,718.0,1476.0,302.0,38.0,134.0,686.0,138.0,50.0,519.0,1246.0,0.265,0.333,0.406,0.738,110.0,2256.0,119.0,61.0,47.0,43.0,30.0,1159.0,3.81,0.58,3.4,7.0,16.0,3.0,47.0,1464.2,1338.0,617.0,554.0,142.0,429.0,35.0,1373.0,41.0,4.0,64.0,6075.0,103.0,3.48,1.206,8.2,0.9,2.6,8.4,3.2,1064.0
254,MIA,2014,3.98,6185.0,5538.0,645.0,1399.0,254.0,36.0,122.0,614.0,58.0,21.0,501.0,1419.0,0.253,0.317,0.378,0.694,92.0,2091.0,143.0,35.0,71.0,39.0,49.0,1145.0,4.16,0.475,3.78,3.0,16.0,3.0,42.0,1457.2,1481.0,674.0,613.0,114.0,458.0,35.0,1190.0,49.0,4.0,56.0,6217.0,101.0,3.56,1.33,9.1,0.7,2.8,7.3,2.6,1170.0
255,MIL,2014,4.01,6065.0,5462.0,650.0,1366.0,297.0,28.0,150.0,617.0,102.0,43.0,423.0,1197.0,0.25,0.311,0.397,0.708,96.0,2169.0,135.0,73.0,70.0,37.0,32.0,1049.0,4.06,0.506,3.67,3.0,9.0,3.0,45.0,1457.2,1386.0,657.0,594.0,167.0,431.0,20.0,1246.0,42.0,2.0,44.0,6106.0,103.0,3.89,1.247,8.6,1.0,2.7,7.7,2.89,1076.0
256,MIN,2014,4.41,6233.0,5567.0,715.0,1412.0,316.0,27.0,128.0,675.0,99.0,36.0,544.0,1329.0,0.254,0.324,0.389,0.713,100.0,2166.0,97.0,53.0,25.0,44.0,29.0,1176.0,4.8,0.432,4.57,2.0,7.0,0.0,38.0,1435.0,1588.0,777.0,728.0,147.0,408.0,24.0,1031.0,45.0,6.0,50.0,6212.0,86.0,3.97,1.391,10.0,0.9,2.6,6.5,2.53,1130.0
257,NYM,2014,3.88,6145.0,5472.0,629.0,1306.0,275.0,19.0,125.0,602.0,101.0,34.0,516.0,1264.0,0.239,0.308,0.364,0.673,93.0,1994.0,112.0,54.0,59.0,44.0,42.0,1123.0,3.81,0.488,3.49,1.0,11.0,1.0,42.0,1463.2,1370.0,618.0,568.0,141.0,509.0,38.0,1303.0,50.0,1.0,56.0,6170.0,100.0,3.75,1.284,8.4,0.9,3.1,8.0,2.56,1161.0
258,NYY,2014,3.91,6082.0,5497.0,633.0,1349.0,247.0,26.0,147.0,591.0,112.0,26.0,452.0,1133.0,0.245,0.307,0.38,0.687,94.0,2089.0,111.0,56.0,29.0,47.0,16.0,1098.0,4.1,0.519,3.75,5.0,10.0,2.0,48.0,1453.0,1392.0,664.0,605.0,164.0,398.0,23.0,1370.0,65.0,6.0,49.0,6114.0,104.0,3.67,1.232,8.6,1.0,2.5,8.5,3.44,1091.0
259,OAK,2014,4.5,6245.0,5545.0,729.0,1354.0,253.0,33.0,146.0,686.0,83.0,20.0,586.0,1104.0,0.244,0.32,0.381,0.7,99.0,2111.0,118.0,49.0,19.0,43.0,34.0,1147.0,3.53,0.543,3.22,7.0,13.0,3.0,31.0,1463.1,1269.0,572.0,524.0,147.0,406.0,28.0,1244.0,48.0,1.0,59.0,5972.0,116.0,3.67,1.145,7.8,0.9,2.5,7.7,3.06,1010.0
260,PHI,2014,3.82,6198.0,5603.0,619.0,1356.0,251.0,27.0,125.0,584.0,109.0,26.0,443.0,1306.0,0.242,0.302,0.363,0.665,86.0,2036.0,94.0,55.0,59.0,37.0,42.0,1147.0,4.24,0.451,3.79,2.0,12.0,0.0,40.0,1468.1,1396.0,687.0,619.0,134.0,521.0,43.0,1255.0,69.0,1.0,49.0,6261.0,98.0,3.81,1.306,8.6,0.8,3.2,7.7,2.41,1169.0
261,PIT,2014,4.21,6224.0,5536.0,682.0,1436.0,275.0,30.0,156.0,659.0,104.0,47.0,520.0,1244.0,0.259,0.33,0.404,0.734,107.0,2239.0,127.0,78.0,54.0,35.0,46.0,1192.0,3.9,0.543,3.47,2.0,7.0,1.0,48.0,1456.1,1341.0,631.0,562.0,128.0,499.0,43.0,1228.0,88.0,3.0,71.0,6130.0,102.0,3.8,1.263,8.3,0.8,3.1,7.6,2.46,1130.0
262,SDP,2014,3.3,5905.0,5294.0,535.0,1199.0,224.0,30.0,109.0,500.0,91.0,34.0,468.0,1294.0,0.226,0.292,0.342,0.634,85.0,1810.0,118.0,41.0,56.0,45.0,27.0,1033.0,3.56,0.475,3.27,4.0,10.0,3.0,41.0,1438.2,1300.0,577.0,523.0,117.0,462.0,32.0,1284.0,46.0,4.0,57.0,6006.0,103.0,3.46,1.225,8.1,0.7,2.9,8.0,2.78,1113.0
263,SEA,2014,3.91,5977.0,5450.0,634.0,1328.0,247.0,32.0,136.0,600.0,96.0,42.0,396.0,1232.0,0.244,0.3,0.376,0.676,95.0,2047.0,112.0,60.0,35.0,34.0,33.0,1008.0,3.42,0.537,3.17,2.0,9.0,1.0,51.0,1452.0,1240.0,554.0,512.0,137.0,463.0,36.0,1317.0,52.0,8.0,80.0,5974.0,115.0,3.61,1.173,7.7,0.8,2.9,8.2,2.84,1064.0
264,SFG,2014,4.1,6087.0,5523.0,665.0,1407.0,257.0,42.0,132.0,636.0,56.0,27.0,427.0,1245.0,0.255,0.311,0.388,0.699,99.0,2144.0,113.0,43.0,45.0,49.0,37.0,1095.0,3.79,0.543,3.5,8.0,12.0,3.0,46.0,1449.0,1305.0,614.0,564.0,133.0,389.0,35.0,1211.0,57.0,6.0,49.0,5947.0,100.0,3.58,1.169,8.1,0.8,2.4,7.5,3.11,986.0
265,STL,2014,3.82,6086.0,5426.0,619.0,1371.0,275.0,21.0,105.0,585.0,57.0,32.0,471.0,1133.0,0.253,0.32,0.369,0.689,93.0,2003.0,140.0,86.0,64.0,39.0,28.0,1145.0,3.72,0.556,3.5,8.0,23.0,5.0,55.0,1448.2,1321.0,603.0,564.0,123.0,470.0,35.0,1221.0,61.0,5.0,44.0,6069.0,105.0,3.65,1.236,8.2,0.8,2.9,7.6,2.6,1120.0
266,TBR,2014,3.78,6205.0,5516.0,612.0,1361.0,263.0,24.0,117.0,586.0,63.0,27.0,527.0,1124.0,0.247,0.317,0.367,0.684,96.0,2023.0,135.0,66.0,43.0,53.0,31.0,1193.0,3.86,0.475,3.56,3.0,22.0,1.0,37.0,1463.2,1292.0,625.0,579.0,145.0,482.0,27.0,1437.0,58.0,3.0,65.0,6131.0,105.0,3.56,1.212,7.9,0.9,3.0,8.8,2.98,1115.0
267,TEX,2014,3.93,6026.0,5460.0,637.0,1400.0,260.0,28.0,111.0,597.0,105.0,59.0,417.0,1162.0,0.256,0.314,0.375,0.689,94.0,2049.0,148.0,61.0,41.0,45.0,37.0,1066.0,4.77,0.414,4.49,6.0,17.0,4.0,33.0,1426.1,1510.0,773.0,711.0,160.0,505.0,43.0,1110.0,61.0,7.0,61.0,6195.0,87.0,4.22,1.413,9.5,1.0,3.2,7.0,2.2,1143.0
268,TOR,2014,4.46,6167.0,5549.0,723.0,1435.0,282.0,24.0,177.0,690.0,78.0,21.0,502.0,1151.0,0.259,0.323,0.414,0.736,106.0,2296.0,128.0,41.0,35.0,40.0,27.0,1122.0,4.23,0.512,4.0,3.0,16.0,2.0,45.0,1443.0,1400.0,686.0,642.0,151.0,490.0,23.0,1199.0,57.0,5.0,43.0,6150.0,98.0,3.97,1.31,8.7,0.9,3.1,7.5,2.45,1135.0
269,WSN,2014,4.23,6216.0,5542.0,686.0,1403.0,265.0,27.0,152.0,635.0,101.0,23.0,517.0,1304.0,0.253,0.321,0.393,0.714,96.0,2178.0,115.0,56.0,60.0,41.0,29.0,1160.0,3.43,0.593,3.03,5.0,19.0,4.0,45.0,1470.2,1351.0,555.0,495.0,110.0,352.0,26.0,1288.0,51.0,2.0,37.0,6020.0,124.0,3.17,1.158,8.3,0.7,2.2,7.9,3.66,1053.0
