,Tm,Season_Yr,PF_Off,Yds_Off,Ply_Off,Y_Per_P_Off,TO_Off,FL_Off,1stD_Off,Cmp_Off,Att_Off,TD_Off,Int_Off,NY_Per_A_Off,Y_Per_A_Off,Pen_Off,1stPy_Off,Sc_Perc_Off,TO_Perc_Off,EXP_Off,Cmp_POff,Att_POff,Cmp_Perc_Off,Yds_POff,TD_POff,TD_Perc_Off,Int_POff,Int_Perc_Off,Lng,Y_Per_A_POff,AY_Per_A_Off,Y_Per_C_Off,Y_Per_G_Off,Rate_Off,Sk_Off,NY_Per_A_POff,ANY_Per_A_Off,Sk_Perc_Off,4QC,GWD,EXP_POff,PF_Def,Yds_Def,Ply_Def,Y_Per_P_Def,TO_Def,FL_Def,1stD_Def,Cmp_Def,Att_Def,TD_Def,Int_Def,NY_Per_A_Def,Y_Per_A_Def,Pen_Def,1stPy_Def,Sc_Perc_Def,TO_Perc_Def,EXP_Def,Cmp_PDef,Att_PDef,Cmp_Perc_Def,Yds_PDef,TD_PDef,TD_Perc_Def,Int_PDef,Int_Perc_Def,Y_Per_A_PDef,AY_Per_A_Def,Y_Per_C_Def,Y_Per_G_Def,Rate_Def,Sk_Def,NY_Per_A_PDef,ANY_Per_A_Def,Sk_Perc_Def,EXP_PDef
0,Atlanta Falcons,2016,305,3863,571,6.8,7,3,215,218,313,23,4,8.5,4.4,63,11,53.1,7.1,107.08,218,313,69.6,2835,23,7.3,4,1.3,75,9.5,10.4,13.7,315.0,119.0,22,8.5,9.3,6.6,1.0,2.0,110.12,259,3430,609,5.6,10,4,214,260,382,23,6,6.5,4.0,57,21,44.3,9.3,-57.09,260,382,68.1,2609,23,6.0,6,1.6,7.2,7.7,10.5,289.9,102.2,20,6.5,7.0,5.0,-76.16
1,San Diego Chargers,2016,268,3402,593,5.7,18,11,199,206,327,17,7,7.0,3.9,55,20,43.8,15.2,6.43,206,327,63.0,2442,17,5.2,7,2.1,59,7.8,7.9,12.4,271.3,95.6,22,7.0,7.1,6.3,1.0,1.0,35.9,247,3282,595,5.5,18,7,186,236,376,14,11,6.4,3.8,78,11,37.8,16.2,36.82,236,376,62.8,2513,14,3.7,11,2.9,7.0,6.4,11.2,279.2,83.8,18,6.4,5.8,4.6,7.51
2,Oakland Raiders,2016,245,3610,603,6.0,6,3,197,234,354,17,3,6.7,4.8,94,21,40.0,5.5,58.22,234,354,66.1,2460,17,4.8,3,0.8,68,7.1,7.7,10.7,273.3,99.1,11,6.7,7.3,3.0,3.0,3.0,78.55,223,3582,559,6.4,15,7,187,200,326,17,8,7.5,4.7,69,22,38.7,13.2,-49.11,200,326,61.3,2549,17,5.2,8,2.5,8.0,8.0,13.1,283.2,93.9,13,7.5,7.5,3.8,-45.2
3,New Orleans Saints,2016,242,3476,571,6.1,9,4,203,242,347,21,5,7.3,4.1,51,13,46.7,8.9,80.57,242,347,69.7,2610,21,6.1,5,1.4,98,7.7,8.3,11.1,326.3,106.6,12,7.3,7.8,3.3,2.0,3.0,100.6,238,3268,508,6.4,13,9,180,195,298,11,4,7.8,4.4,55,13,44.3,14.8,-53.33,195,298,65.4,2400,11,3.7,4,1.3,8.3,8.4,12.7,300.0,98.0,11,7.8,7.9,3.6,-76.93
4,Indianapolis Colts,2016,239,3239,597,5.4,10,3,196,221,347,17,7,6.2,4.1,68,22,42.7,9.7,16.3,221,347,63.7,2357,17,4.9,7,2.0,64,7.4,7.5,11.6,261.9,93.9,33,6.2,6.3,8.7,3.0,3.0,24.18,256,3625,586,6.2,8,5,214,229,347,17,3,7.1,4.7,70,22,47.0,8.0,-71.98,229,347,66.0,2591,17,4.9,3,0.9,7.7,8.3,11.7,287.9,102.0,17,7.1,7.7,4.7,-87.65
5,Buffalo Bills,2016,237,3093,562,5.5,5,2,182,164,274,10,3,5.7,5.3,72,20,38.1,5.2,26.64,164,274,59.9,1698,10,3.6,3,1.1,84,6.6,6.9,11.1,188.7,87.2,24,5.7,5.9,8.1,0.0,0.0,10.89,203,3160,560,5.6,12,6,191,180,288,10,6,6.9,4.0,75,23,38.6,10.9,-0.51,180,288,62.5,2180,10,3.5,6,2.1,8.3,8.0,13.2,242.2,91.5,30,6.9,6.6,9.4,-34.42
6,Dallas Cowboys,2016,223,3292,539,6.1,6,4,199,166,250,12,2,7.5,4.8,51,14,49.4,7.4,105.43,166,250,66.4,1970,12,4.8,2,0.8,53,8.1,8.7,12.2,246.3,103.9,11,7.5,8.1,4.2,2.0,2.0,87.44,140,2663,482,5.5,10,6,162,204,300,12,4,6.2,4.2,44,14,34.2,12.7,-13.77,204,300,68.0,1968,12,4.0,4,1.3,6.8,7.0,10.1,246.0,95.0,18,6.2,6.4,5.7,-30.18
7,New England Patriots,2016,217,3042,506,6.0,6,6,169,174,249,16,0,7.9,3.9,52,19,42.0,5.7,88.12,174,249,69.9,2111,16,6.4,0,0.0,63,8.9,10.2,12.7,263.9,118.8,17,7.9,9.1,6.4,1.0,1.0,115.15,132,2833,524,5.4,9,4,166,197,315,9,5,6.2,4.1,57,16,27.6,8.0,-23.24,197,315,62.5,2020,9,2.9,5,1.6,6.7,6.5,10.7,252.5,84.9,13,6.2,6.0,4.0,-36.37
8,Tennessee Titans,2016,217,3415,573,6.0,13,5,193,185,292,17,8,7.0,4.8,66,20,36.9,12.6,22.62,185,292,63.4,2117,17,5.8,8,2.7,60,7.5,7.5,11.9,235.2,94.2,12,7.0,6.9,3.9,1.0,1.0,33.49,226,3212,560,5.7,7,1,183,209,331,14,6,6.6,4.2,86,19,36.1,6.2,-21.02,209,331,63.1,2344,14,4.2,6,1.8,7.5,7.6,11.9,260.4,92.6,23,6.6,6.6,6.5,-48.83
9,Denver Broncos,2016,214,2910,557,5.2,13,7,169,187,310,12,6,6.2,3.8,71,20,35.2,12.0,-17.58,187,310,60.3,2039,12,3.9,6,1.9,69,7.0,6.9,11.6,226.6,86.3,20,6.2,6.1,6.1,2.0,2.0,7.26,166,2807,606,4.6,16,8,175,172,315,6,8,4.8,4.4,62,22,31.4,12.4,67.54,172,315,54.6,1650,6,1.9,8,2.5,5.7,5.0,10.5,183.3,67.2,28,4.8,4.1,8.2,43.43
10,Detroit Lions,2016,205,3040,537,5.7,6,1,185,214,318,18,5,6.7,3.9,66,24,43.5,7.1,1.63,214,318,67.3,2259,18,5.7,5,1.6,73,7.5,7.9,11.1,251.0,101.6,20,6.7,7.1,5.9,5.0,5.0,38.31,206,3297,557,5.9,7,3,196,232,313,20,4,7.0,4.3,69,17,42.5,8.0,-76.16,232,313,74.1,2334,20,6.4,4,1.3,7.8,8.5,10.6,259.3,112.4,20,7.0,7.7,6.0,-95.66
11,Carolina Panthers,2016,204,2959,537,5.5,17,7,172,174,291,11,10,6.5,4.1,54,13,36.2,16.0,17.36,174,291,59.8,2033,11,3.8,10,3.4,78,7.5,6.7,12.6,254.1,81.5,21,6.5,5.8,6.7,0.0,0.0,27.68,206,2908,511,5.7,11,3,158,195,298,17,8,7.1,3.3,59,5,34.0,11.0,-6.05,195,298,65.4,2288,17,5.7,8,2.7,8.2,8.1,12.5,286.0,98.5,24,7.1,7.0,7.5,-32.29
12,Philadelphia Eagles,2016,202,2667,506,5.3,9,4,156,177,276,9,5,6.2,4.0,65,15,40.7,9.9,-36.11,177,276,64.1,1805,9,3.3,5,1.8,73,6.8,6.7,10.7,225.6,87.4,17,6.2,6.0,5.8,0.0,0.0,0.56,145,2604,492,5.3,15,7,152,159,275,12,8,5.9,4.4,52,20,26.6,14.9,45.89,159,275,57.8,1747,12,4.4,8,2.9,6.9,6.4,11.9,218.4,81.4,23,5.9,5.5,7.7,32.45
13,Green Bay Packers,2016,198,2801,524,5.3,11,6,183,202,318,20,5,5.8,4.5,45,24,43.0,12.8,43.07,202,318,63.5,1948,20,6.3,5,1.6,58,6.4,7.0,10.1,243.5,96.1,17,5.8,6.3,5.1,0.0,0.0,58.83,187,2606,475,5.5,10,3,155,171,270,14,7,6.9,3.3,60,13,42.7,11.0,-17.54,171,270,63.3,2000,14,5.2,7,2.6,7.9,7.8,12.5,250.0,94.3,21,6.9,6.8,7.2,-45.96
14,Washington Redskins,2016,186,3282,531,6.2,11,4,186,216,322,12,7,7.2,4.5,66,20,41.4,11.5,65.15,216,322,67.1,2390,12,3.7,7,2.2,57,7.7,7.5,11.5,298.8,93.5,11,7.2,7.0,3.3,3.0,2.0,91.39,189,2958,511,5.8,11,6,185,188,285,8,5,6.4,4.9,61,21,38.6,12.0,-60.96,188,285,66.0,1968,8,2.8,5,1.8,7.4,7.2,11.2,246.0,89.9,22,6.4,6.2,7.2,-58.5
15,Kansas City Chiefs,2016,185,2739,508,5.4,7,5,152,190,289,11,2,6.3,4.0,47,8,36.6,7.5,-11.45,190,289,65.7,1933,11,3.8,2,0.7,49,7.1,7.5,10.8,241.6,96.2,19,6.3,6.7,6.2,1.0,1.0,38.61,151,2954,520,5.7,20,8,161,186,298,15,12,6.2,4.8,45,10,27.7,19.1,55.93,186,298,62.4,1958,15,5.0,12,4.0,6.9,6.1,11.0,244.8,82.8,16,6.2,5.5,5.1,8.15
16,Pittsburgh Steelers,2016,184,2883,514,5.6,10,2,152,197,319,18,8,6.4,4.2,55,12,30.9,10.3,8.61,197,319,61.8,2115,18,5.6,8,2.5,72,7.0,7.0,11.3,264.4,91.0,13,6.4,6.4,3.9,0.0,0.0,30.04,171,3005,505,6.0,9,5,160,201,305,9,4,7.0,4.2,57,17,34.0,8.5,-8.2,201,305,65.9,2208,9,3.0,4,1.3,7.4,7.4,11.3,276.0,92.3,11,7.0,7.0,3.5,-41.56
17,Baltimore Ravens,2016,182,2997,622,4.8,14,5,176,238,381,9,9,5.5,3.5,72,25,32.1,9.8,-86.02,238,381,62.5,2224,9,2.4,9,2.4,95,6.3,5.7,10.0,247.1,78.2,20,5.5,5.0,5.0,2.0,2.0,-38.57,160,2534,529,4.8,17,6,134,198,313,16,11,5.6,3.3,66,13,22.1,15.0,78.5,198,313,63.3,1892,16,5.1,11,3.5,6.6,6.0,10.4,210.2,84.6,22,5.6,5.1,6.6,25.82
18,Tampa Bay Buccaneers,2016,180,2858,557,5.1,14,5,174,191,317,18,9,6.0,3.9,58,23,29.0,14.0,-26.36,191,317,60.3,1994,18,5.7,9,2.8,45,6.7,6.5,11.1,249.3,87.2,18,6.0,5.8,5.4,0.0,1.0,17.09,232,3191,530,6.0,11,7,177,177,285,18,4,7.4,4.1,67,14,40.6,9.4,-34.35,177,285,62.1,2248,18,6.3,4,1.4,8.3,8.9,13.3,281.0,103.5,17,7.4,8.0,5.6,-54.15
19,Arizona Cardinals,2016,179,2995,566,5.3,12,4,182,194,326,12,8,6.0,4.2,55,17,29.0,12.0,11.06,194,326,59.5,2093,12,3.7,8,2.5,58,6.9,6.5,11.6,261.6,82.5,25,6.0,5.6,7.1,0.0,0.0,24.51,140,2376,505,4.7,15,6,134,159,272,5,9,5.3,3.9,60,8,25.5,14.3,51.45,159,272,58.5,1559,5,1.8,9,3.3,6.2,5.1,10.7,194.9,69.1,21,5.3,4.3,7.2,24.4
20,Cleveland Browns,2016,175,3213,599,5.4,15,4,179,215,358,11,11,5.7,4.7,63,15,27.4,13.3,-23.77,215,358,60.1,2223,11,3.1,11,3.1,58,6.8,6.0,11.2,222.3,77.7,30,5.7,5.0,7.7,0.0,0.0,7.35,301,4191,678,6.2,10,2,237,225,344,25,8,7.7,4.5,58,16,42.6,7.8,-96.21,225,344,65.4,2754,25,7.3,8,2.3,8.3,8.7,12.7,275.4,105.8,16,7.7,8.0,4.4,-96.9
21,Miami Dolphins,2016,173,2721,462,5.9,11,4,143,156,242,8,7,6.7,4.9,61,13,31.9,11.7,-10.64,156,242,64.5,1744,8,3.3,7,2.9,74,7.8,7.1,12.0,218.0,87.1,19,6.7,6.1,7.3,1.0,2.0,-7.01,182,2900,526,5.5,8,3,162,168,268,11,5,6.3,4.6,61,20,36.6,8.6,-2.81,168,268,62.7,1811,11,4.1,5,1.9,7.3,7.2,11.6,226.4,90.4,19,6.3,6.3,6.6,-11.25
22,New York Jets,2016,173,3057,568,5.4,19,5,169,178,314,9,14,6.1,4.4,57,20,34.3,18.2,-17.52,178,314,56.7,2036,9,2.9,14,4.5,69,6.8,5.3,12.0,226.2,68.5,20,6.1,4.7,6.0,0.0,0.0,-12.8,235,3179,559,5.7,9,3,184,217,332,16,6,7.0,3.5,47,18,38.0,8.0,-34.46,217,332,65.4,2450,16,4.8,6,1.8,7.7,7.9,11.8,272.2,97.3,16,7.0,7.2,4.6,-75.4
23,Cincinnati Bengals,2016,167,3163,533,5.9,8,5,183,193,288,9,3,7.0,4.4,48,21,36.0,6.7,67.5,193,288,67.0,2201,9,3.1,3,1.0,54,8.2,8.3,12.2,275.1,98.0,25,7.0,7.2,8.0,2.0,1.0,64.9,189,3028,509,5.9,10,3,168,182,282,16,7,7.0,4.4,57,18,37.1,11.2,-63.15,182,282,64.5,2099,16,5.7,7,2.5,7.8,7.8,12.0,262.4,96.8,16,7.0,7.1,5.4,-82.41
24,San Francisco 49ers,2016,167,2516,507,5.0,17,9,150,140,252,9,8,5.6,4.2,40,12,29.4,13.7,-55.05,140,252,55.6,1523,9,3.6,8,3.2,75,6.4,5.7,11.6,190.4,73.8,18,5.6,5.0,6.7,0.0,0.0,-36.86,260,3424,571,6.0,11,6,182,162,263,18,5,6.8,5.3,55,14,41.9,9.5,-47.99,162,263,61.6,1880,18,6.8,5,1.9,7.3,7.9,11.9,235.0,98.9,14,6.8,7.3,5.1,-43.34
25,Seattle Seahawks,2016,162,2657,482,5.5,6,3,144,186,278,8,3,7.0,3.2,65,11,34.1,6.6,-1.64,186,278,66.9,2054,8,2.9,3,1.1,59,7.9,8.0,11.8,256.8,95.9,16,7.0,7.1,5.4,3.0,2.0,43.32,134,2661,541,4.9,8,2,163,181,290,6,6,5.9,3.5,51,19,30.0,8.9,32.32,181,290,62.4,1871,6,2.1,6,2.1,7.0,6.5,11.2,233.9,81.6,27,5.9,5.4,8.5,-4.03
26,New York Giants,2016,161,2719,489,5.6,16,8,148,197,306,12,8,6.8,3.2,47,16,30.1,16.1,-23.88,197,306,64.4,2173,12,3.9,8,2.6,75,7.3,6.9,11.4,271.6,88.4,12,6.8,6.5,3.8,2.0,4.0,14.04,164,2970,574,5.2,9,1,168,210,354,7,8,6.1,3.6,60,13,37.9,8.4,31.96,210,354,59.3,2219,7,2.0,8,2.3,6.5,5.9,11.0,277.4,75.8,11,6.1,5.5,3.0,-5.62
27,Minnesota Vikings,2016,155,2390,511,4.7,5,4,142,184,276,9,1,6.1,2.7,53,10,28.4,3.4,-28.6,184,276,66.7,1809,9,3.3,1,0.4,46,7.1,7.6,10.6,226.1,96.5,21,6.1,6.5,7.1,0.0,0.0,26.34,126,2391,501,4.8,17,7,143,170,295,8,10,5.2,4.0,45,19,26.7,17.8,113.01,170,295,57.6,1646,8,2.7,10,3.4,6.1,5.1,10.6,205.8,70.5,21,5.2,4.3,6.6,51.0
28,Jacksonville Jaguars,2016,153,2763,516,5.4,17,7,168,196,331,14,10,5.9,4.3,71,22,30.4,15.2,-35.41,196,331,59.2,2050,14,4.2,10,3.0,51,6.5,6.0,11.0,256.3,80.1,19,5.9,5.4,5.4,1.0,1.0,14.45,215,2676,531,5.0,5,2,162,185,283,12,3,5.8,4.0,59,22,46.3,4.2,-23.41,185,283,65.4,1741,12,4.2,3,1.1,6.5,6.9,9.9,217.6,93.3,15,5.8,6.2,5.0,-22.29
29,Houston Texans,2016,137,2506,531,4.7,13,4,148,176,297,9,9,5.1,4.2,42,11,30.5,11.6,-30.67,176,297,59.3,1594,9,3.0,9,3.0,53,5.8,5.0,9.8,199.3,73.1,16,5.1,4.4,5.1,2.0,2.0,-9.16,167,2530,487,5.2,6,3,138,144,242,6,3,5.9,4.4,58,12,33.0,6.2,12.2,144,242,59.5,1524,6,2.5,3,1.2,6.7,6.7,11.3,190.5,82.8,17,5.9,5.8,6.6,-8.79
30,Chicago Bears,2016,131,2843,480,5.9,9,5,153,188,292,8,4,6.8,4.4,57,6,27.1,10.6,4.41,188,292,64.4,2070,8,2.7,4,1.4,64,7.4,7.3,11.4,258.8,89.9,14,6.8,6.7,4.6,0.0,0.0,22.86,179,2711,522,5.2,7,3,166,195,294,11,4,6.1,3.9,49,18,40.2,8.0,-30.69,195,294,66.3,1905,11,3.7,4,1.4,6.9,7.0,10.4,238.1,92.9,20,6.1,6.2,6.4,-54.36
31,Los Angeles Rams,2016,130,2492,495,5.0,14,3,141,174,283,9,11,6.2,3.2,68,13,26.4,15.4,-53.67,174,283,61.5,1874,9,3.2,11,3.9,65,7.1,6.0,11.5,234.3,77.2,20,6.2,5.1,6.6,1.0,1.0,-20.61,167,2647,524,5.1,10,6,165,186,298,12,4,5.9,3.7,49,21,28.3,10.9,-5.42,186,298,62.4,1858,12,4.0,4,1.3,6.6,6.8,10.6,232.3,89.5,15,5.9,6.1,4.8,-23.36
