,Tm,Season_Yr,W,L,OL,PTS_Perc,GF,GA,SRS,SOS,TG_Per_G,PP,PPO,PP_Perc,PPA,PPOA,PK_Perc,SH,SHA,S,S_Perc,SA,SV_Perc
0,Detroit Red Wings,2006,58,16,8,0.756,305,209,1.03,-0.14,6.27,102,461,22.13,67,461,85.47,7,10,2796,10.8,2176,0.908
1,Ottawa Senators,2006,52,21,9,0.689,314,211,1.18,-0.08,6.4,102,490,20.82,73,476,84.66,25,11,2811,11.1,2343,0.913
2,Dallas Stars,2006,53,23,6,0.683,265,218,0.61,0.04,5.89,88,498,17.67,82,504,83.73,10,7,2336,10.8,2096,0.898
3,Carolina Hurricanes,2006,52,22,8,0.683,294,260,0.29,-0.13,6.76,95,531,17.89,81,445,81.8,17,13,2553,11.2,2492,0.898
4,Buffalo Sabres,2006,52,24,6,0.671,281,239,0.5,-0.01,6.34,101,477,21.17,59,439,86.56,10,17,2510,11.0,2497,0.908
5,Nashville Predators,2006,49,25,8,0.646,259,227,0.32,-0.07,5.93,94,512,18.36,82,533,84.62,12,13,2380,10.6,2662,0.916
6,Calgary Flames,2006,46,25,11,0.628,218,200,0.3,0.08,5.1,87,478,18.2,80,508,84.25,8,7,2299,9.4,2256,0.917
7,Philadelphia Flyers,2006,45,26,11,0.616,267,259,0.0,-0.1,6.41,80,444,18.02,97,465,79.14,19,6,2552,10.3,2365,0.896
8,New Jersey Devils,2006,46,27,9,0.616,242,229,0.05,-0.11,5.74,78,441,17.69,63,349,81.95,3,6,2395,9.7,2400,0.908
9,New York Rangers,2006,44,26,12,0.61,257,215,0.38,-0.14,5.76,83,442,18.78,79,486,83.74,4,9,2448,10.2,2354,0.912
10,San Jose Sharks,2006,44,27,11,0.604,266,242,0.36,0.06,6.2,91,500,18.2,77,399,80.7,10,11,2483,10.7,2176,0.894
11,Mighty Ducks of Anaheim,2006,43,27,12,0.598,254,229,0.37,0.06,5.89,87,480,18.13,84,510,83.53,9,13,2585,9.7,2425,0.911
12,Colorado Avalanche,2006,43,30,9,0.579,283,257,0.39,0.07,6.59,89,473,18.82,69,448,84.6,11,12,2464,11.4,2408,0.899
13,Edmonton Oilers,2006,41,28,13,0.579,256,251,0.15,0.09,6.18,88,485,18.14,76,478,84.1,15,5,2442,10.2,2090,0.887
14,Montreal Canadiens,2006,42,31,9,0.567,243,247,-0.01,0.04,5.98,89,463,19.22,91,481,81.08,10,6,2470,9.8,2502,0.904
15,Vancouver Canucks,2006,42,32,8,0.561,256,255,0.11,0.1,6.23,96,526,18.25,93,512,81.84,6,10,2358,10.7,2462,0.9
16,Tampa Bay Lightning,2006,43,33,6,0.561,252,260,-0.18,-0.08,6.24,81,485,16.7,72,391,81.59,11,11,2594,9.5,2250,0.891
17,Atlanta Thrashers,2006,41,33,8,0.549,281,275,-0.03,-0.1,6.78,100,527,18.98,102,492,79.27,13,10,2522,10.9,2477,0.893
18,Toronto Maple Leafs,2006,41,33,8,0.549,257,270,-0.11,0.05,6.43,107,501,21.36,99,496,80.04,14,12,2323,10.9,2503,0.897
19,Los Angeles Kings,2006,42,35,5,0.543,249,270,-0.15,0.11,6.33,77,541,14.23,104,489,78.73,15,12,2394,10.2,2450,0.894
20,Florida Panthers,2006,37,34,11,0.518,240,257,-0.28,-0.07,6.06,63,411,15.33,91,514,82.3,5,12,2724,8.7,2848,0.913
21,Minnesota Wild,2006,38,36,8,0.512,231,215,0.28,0.08,5.44,77,454,16.96,55,436,87.39,11,7,2194,10.3,2454,0.916
22,Phoenix Coyotes,2006,38,39,5,0.494,246,271,-0.19,0.12,6.3,96,541,17.74,98,513,80.9,9,11,2318,10.4,2472,0.895
23,New York Islanders,2006,36,40,6,0.476,230,278,-0.62,-0.04,6.2,76,450,16.89,99,476,79.2,5,15,2481,8.9,2537,0.896
24,Boston Bruins,2006,29,37,16,0.451,230,266,-0.36,0.08,6.05,62,418,14.83,78,479,83.72,9,10,2511,9.1,2627,0.904
25,Columbus Blue Jackets,2006,35,43,4,0.451,223,279,-0.66,0.02,6.12,64,451,14.19,95,523,81.84,10,8,2250,9.6,2754,0.903
26,Washington Capitals,2006,29,41,12,0.427,237,306,-0.86,-0.02,6.62,72,490,14.69,116,550,78.91,15,18,2445,9.4,2871,0.899
27,Chicago Blackhawks,2006,26,43,13,0.396,211,285,-0.86,0.04,6.05,51,417,12.23,88,547,83.91,6,12,2480,8.4,2411,0.887
28,Pittsburgh Penguins,2006,22,46,14,0.354,244,316,-0.89,-0.01,6.83,94,495,18.99,113,533,78.8,13,16,2297,10.6,2716,0.888
29,St. Louis Blues,2006,21,46,15,0.348,197,292,-1.09,0.07,5.96,75,512,14.65,82,461,82.21,6,8,2335,8.3,2499,0.891
31,Detroit Red Wings,2007,50,19,13,0.689,254,199,0.72,0.05,5.52,68,401,16.96,63,408,84.56,12,11,2771,9.1,2016,0.907
32,Buffalo Sabres,2007,53,22,7,0.689,308,242,0.64,-0.16,6.71,71,407,17.44,72,386,81.35,8,13,2417,12.3,2539,0.907
33,Anaheim Ducks,2007,48,20,14,0.671,258,208,0.67,0.06,5.68,89,398,22.36,61,410,85.12,4,4,2582,9.8,2245,0.913
34,Nashville Predators,2007,51,23,8,0.671,272,212,0.78,0.05,5.9,71,408,17.4,55,390,85.9,8,2,2261,11.8,2553,0.922
35,Dallas Stars,2007,50,25,7,0.652,226,197,0.44,0.08,5.16,79,427,18.5,59,377,84.35,3,6,2296,9.5,2075,0.911
36,San Jose Sharks,2007,51,26,5,0.652,258,199,0.77,0.05,5.57,92,410,22.44,55,330,83.33,7,4,2346,10.9,2142,0.911
37,New Jersey Devils,2007,49,24,9,0.652,216,201,0.03,-0.15,5.09,65,367,17.71,40,271,85.24,4,11,2354,8.8,2326,0.92
38,Vancouver Canucks,2007,49,26,7,0.64,222,201,0.39,0.13,5.16,70,407,17.2,57,436,86.93,5,8,2405,9.0,2393,0.92
39,Ottawa Senators,2007,48,25,9,0.64,288,222,0.64,-0.16,6.22,72,403,17.87,61,394,84.52,17,12,2651,10.8,2475,0.914
40,Pittsburgh Penguins,2007,47,24,11,0.64,277,246,0.21,-0.17,6.38,94,463,20.3,75,419,82.1,14,13,2366,11.3,2526,0.907
41,Minnesota Wild,2007,48,26,8,0.634,235,191,0.65,0.11,5.2,72,380,18.95,48,342,85.96,9,8,2431,9.3,2360,0.922
42,Atlanta Thrashers,2007,43,28,11,0.591,246,245,-0.15,-0.16,5.99,67,407,16.46,79,391,79.8,9,10,2438,9.8,2575,0.909
43,Calgary Flames,2007,43,29,10,0.585,258,226,0.51,0.12,5.9,73,401,18.2,81,414,80.43,15,5,2242,11.4,2494,0.915
44,Colorado Avalanche,2007,44,31,7,0.579,272,251,0.39,0.13,6.38,79,374,21.12,70,353,80.17,7,9,2603,10.3,2369,0.9
45,New York Rangers,2007,42,30,10,0.573,242,216,0.16,-0.16,5.59,75,406,18.47,65,400,83.75,11,6,2586,9.0,2327,0.91
46,Tampa Bay Lightning,2007,44,33,5,0.567,253,261,-0.25,-0.15,6.27,69,374,18.45,66,305,78.36,14,11,2418,10.0,2225,0.888
47,New York Islanders,2007,40,30,12,0.561,248,240,-0.04,-0.14,5.95,63,348,18.1,79,433,81.76,7,9,2459,9.8,2667,0.914
48,Toronto Maple Leafs,2007,40,31,11,0.555,258,269,-0.21,-0.08,6.43,71,401,17.71,90,418,78.47,3,11,2681,9.5,2321,0.891
49,Montreal Canadiens,2007,42,34,6,0.549,245,256,-0.21,-0.08,6.11,86,378,22.75,69,419,83.53,17,6,2426,9.9,2678,0.909
50,Carolina Hurricanes,2007,40,34,8,0.537,241,253,-0.29,-0.15,6.02,67,447,14.99,61,395,84.56,12,8,2559,9.4,2327,0.897
51,Florida Panthers,2007,35,31,16,0.524,247,257,-0.27,-0.15,6.15,61,337,18.1,78,443,82.39,5,6,2730,9.0,2395,0.899
52,St. Louis Blues,2007,34,35,13,0.494,214,254,-0.33,0.15,5.71,46,381,12.07,83,414,79.95,7,10,2202,9.4,2359,0.899
53,Boston Bruins,2007,35,41,6,0.463,219,289,-0.87,-0.01,6.2,71,412,17.23,81,442,81.67,8,18,2370,8.9,2738,0.9
54,Columbus Blue Jackets,2007,33,42,7,0.445,201,249,-0.42,0.16,5.49,65,438,14.84,85,453,81.24,6,10,2273,8.6,2340,0.898
55,Chicago Blackhawks,2007,31,42,9,0.433,201,258,-0.52,0.17,5.6,43,364,11.81,77,443,82.62,12,6,2201,8.9,2399,0.899
56,Edmonton Oilers,2007,32,43,7,0.433,195,248,-0.43,0.22,5.4,53,373,14.21,59,382,84.55,6,4,2193,8.8,2426,0.904
57,Washington Capitals,2007,28,40,14,0.427,235,286,-0.73,-0.1,6.35,67,408,16.42,82,414,80.19,12,14,2295,10.2,2723,0.903
58,Los Angeles Kings,2007,27,41,14,0.415,227,283,-0.51,0.18,6.22,81,442,18.33,91,411,77.86,6,6,2542,8.8,2432,0.889
59,Phoenix Coyotes,2007,31,46,5,0.409,216,284,-0.64,0.19,6.1,66,400,16.5,92,425,78.35,5,13,2320,9.1,2465,0.888
60,Philadelphia Flyers,2007,22,48,12,0.341,214,303,-1.12,-0.04,6.3,53,376,14.1,65,420,84.52,15,14,2361,9.0,2664,0.892
62,Detroit Red Wings,2008,54,21,7,0.701,257,184,0.93,0.04,5.38,81,391,20.72,57,357,84.03,5,7,2820,8.9,1926,0.909
63,San Jose Sharks,2008,49,23,10,0.659,222,193,0.47,0.12,5.06,70,374,18.72,44,310,85.81,7,9,2428,8.9,1975,0.908
64,Montreal Canadiens,2008,47,25,10,0.634,262,222,0.35,-0.14,5.9,90,374,24.06,60,342,82.46,8,3,2383,10.8,2583,0.919
65,Anaheim Ducks,2008,47,27,8,0.622,205,191,0.3,0.13,4.83,60,361,16.62,69,408,83.09,8,7,2241,8.8,2294,0.922
66,Pittsburgh Penguins,2008,47,27,8,0.622,247,216,0.24,-0.14,5.65,77,378,20.37,68,357,80.95,6,10,2269,10.6,2518,0.918
67,New Jersey Devils,2008,46,29,7,0.604,206,197,0.0,-0.11,4.91,50,320,15.63,54,314,82.8,6,7,2362,8.4,2249,0.918
68,Minnesota Wild,2008,44,28,10,0.598,223,218,0.16,0.1,5.38,64,338,18.93,49,330,85.15,3,10,2218,9.9,2467,0.916
69,New York Rangers,2008,42,27,13,0.591,213,199,0.05,-0.12,5.02,61,370,16.49,53,343,84.55,4,6,2579,7.9,2119,0.913
70,Dallas Stars,2008,45,30,7,0.591,242,207,0.54,0.11,5.48,64,354,18.08,51,354,85.59,13,8,2187,10.8,2128,0.908
71,Colorado Avalanche,2008,44,31,7,0.579,231,219,0.24,0.09,5.49,49,335,14.63,56,301,81.4,2,5,2349,9.5,2226,0.908
72,Philadelphia Flyers,2008,42,29,11,0.579,248,233,0.06,-0.12,5.87,84,385,21.82,65,388,83.25,13,6,2359,10.4,2604,0.915
73,Washington Capitals,2008,43,31,8,0.573,242,231,-0.06,-0.19,5.77,65,346,18.79,68,349,80.52,5,8,2538,9.4,2252,0.902
74,Ottawa Senators,2008,43,31,8,0.573,261,247,0.06,-0.11,6.2,60,328,18.29,72,380,81.05,18,6,2471,10.4,2448,0.904
75,Boston Bruins,2008,41,29,12,0.573,212,222,-0.2,-0.08,5.29,56,319,17.55,71,332,78.61,9,6,2339,8.8,2492,0.916
76,Calgary Flames,2008,42,30,10,0.573,229,227,0.13,0.1,5.56,59,352,16.76,72,389,81.49,9,8,2316,9.8,2330,0.906
77,Carolina Hurricanes,2008,43,33,6,0.561,252,249,-0.15,-0.18,6.11,79,420,18.81,75,355,78.87,4,13,2669,9.4,2362,0.898
78,Nashville Predators,2008,41,32,9,0.555,230,229,0.13,0.12,5.6,53,358,14.8,49,335,85.37,7,10,2425,9.4,2433,0.911
79,Buffalo Sabres,2008,39,31,12,0.549,255,242,0.05,-0.11,6.06,66,366,18.03,56,333,83.18,9,8,2478,10.1,2318,0.903
80,Vancouver Canucks,2008,39,33,10,0.537,213,215,0.08,0.11,5.22,63,369,17.07,64,368,82.61,8,7,2252,9.2,2364,0.914
81,Chicago Blackhawks,2008,40,34,8,0.537,239,235,0.16,0.12,5.78,58,365,15.89,69,385,82.08,17,6,2298,10.2,2336,0.905
82,Edmonton Oilers,2008,41,35,6,0.537,235,251,-0.07,0.12,5.93,57,344,16.57,56,366,84.7,7,10,2156,10.2,2563,0.908
83,Florida Panthers,2008,38,35,9,0.518,216,226,-0.29,-0.17,5.39,60,313,19.17,66,374,82.35,4,3,2549,8.3,2748,0.922
84,Phoenix Coyotes,2008,38,37,7,0.506,214,231,-0.04,0.17,5.43,63,339,18.58,64,332,80.72,11,12,2500,8.4,2510,0.914
85,Toronto Maple Leafs,2008,36,35,11,0.506,231,260,-0.42,-0.06,5.99,61,343,17.78,77,352,78.13,4,10,2542,9.0,2395,0.896
86,Columbus Blue Jackets,2008,34,36,12,0.488,193,218,-0.16,0.15,5.01,53,356,14.89,63,378,83.33,8,5,2381,8.0,2240,0.91
87,New York Islanders,2008,35,38,9,0.482,194,243,-0.65,-0.05,5.33,48,330,14.55,68,375,81.87,10,15,2435,7.8,2479,0.907
88,St. Louis Blues,2008,33,36,13,0.482,205,237,-0.24,0.16,5.39,47,334,14.07,56,359,84.4,3,13,2141,9.4,2240,0.9
89,Atlanta Thrashers,2008,34,40,8,0.463,216,272,-0.8,-0.12,5.95,52,316,16.46,75,354,78.81,13,10,2115,9.8,2776,0.906
90,Los Angeles Kings,2008,32,43,7,0.433,231,266,-0.24,0.19,6.06,64,367,17.44,68,309,77.99,11,4,2349,9.6,2615,0.903
91,Tampa Bay Lightning,2008,31,42,9,0.433,223,267,-0.67,-0.13,5.98,57,296,19.26,56,312,82.05,7,7,2354,9.4,2298,0.89
93,San Jose Sharks,2009,53,18,11,0.713,257,204,0.61,-0.04,5.62,87,360,24.17,51,304,83.22,12,11,2720,9.2,2226,0.912
94,Boston Bruins,2009,53,19,10,0.707,274,196,0.89,-0.06,5.73,74,313,23.64,54,306,82.35,8,7,2482,10.9,2520,0.927
95,Detroit Red Wings,2009,51,21,10,0.683,295,244,0.62,0.0,6.57,90,353,25.5,71,327,78.29,6,4,2965,9.7,2269,0.896
96,Washington Capitals,2009,50,24,8,0.659,272,245,0.27,-0.06,6.3,85,337,25.22,75,387,80.62,7,11,2748,9.8,2412,0.903
97,New Jersey Devils,2009,51,27,4,0.646,244,209,0.38,-0.05,5.52,58,307,18.89,65,324,79.94,12,4,2698,8.8,2407,0.917
98,Chicago Blackhawks,2009,46,24,12,0.634,264,216,0.6,0.01,5.85,70,363,19.28,64,330,80.61,10,6,2683,9.7,2338,0.913
99,Vancouver Canucks,2009,45,27,10,0.61,246,220,0.3,-0.02,5.68,67,357,18.77,69,371,81.4,7,5,2335,10.4,2387,0.914
100,Philadelphia Flyers,2009,44,27,11,0.604,264,238,0.28,-0.04,6.12,71,316,22.47,67,393,82.95,16,1,2441,10.7,2665,0.914
101,Pittsburgh Penguins,2009,45,28,9,0.604,264,239,0.28,-0.02,6.13,62,360,17.22,60,347,82.71,7,13,2381,10.8,2476,0.909
102,Calgary Flames,2009,46,30,6,0.598,254,248,0.07,0.0,6.12,61,358,17.04,58,349,83.38,6,15,2643,9.5,2435,0.901
103,Carolina Hurricanes,2009,45,30,7,0.591,239,226,0.11,-0.05,5.67,70,374,18.72,59,301,80.4,8,9,2675,8.8,2408,0.913
104,New York Rangers,2009,43,30,9,0.579,210,218,-0.1,-0.01,5.22,48,346,13.87,40,329,87.84,9,14,2658,7.5,2428,0.915
105,Florida Panthers,2009,41,30,11,0.567,234,231,0.0,-0.04,5.67,51,308,16.56,54,311,82.64,7,9,2412,9.6,2832,0.925
106,Montreal Canadiens,2009,41,30,11,0.567,249,247,0.02,-0.01,6.05,72,374,19.25,65,370,82.43,10,11,2461,9.8,2597,0.909
107,St. Louis Blues,2009,41,31,10,0.561,233,233,0.05,0.05,5.68,72,351,20.51,58,357,83.75,10,8,2271,10.0,2333,0.907
108,Columbus Blue Jackets,2009,41,31,10,0.561,226,230,-0.01,0.04,5.56,41,322,12.73,62,346,82.08,8,12,2370,9.3,2272,0.906
109,Anaheim Ducks,2009,42,33,7,0.555,245,238,0.09,0.0,5.89,73,309,23.62,78,385,79.74,6,8,2481,9.6,2491,0.909
110,Buffalo Sabres,2009,41,32,9,0.555,250,234,0.18,-0.02,5.9,75,358,20.95,61,336,81.85,7,5,2505,9.7,2567,0.914
111,Minnesota Wild,2009,40,33,9,0.543,219,200,0.22,-0.02,5.11,66,328,20.12,36,291,87.63,9,6,2257,9.5,2512,0.924
112,Nashville Predators,2009,40,34,8,0.537,213,233,-0.19,0.06,5.44,50,318,15.72,59,338,82.54,9,8,2375,8.7,2398,0.91
113,Edmonton Oilers,2009,38,35,9,0.518,234,248,-0.16,0.01,5.88,60,354,16.95,76,338,77.51,3,8,2303,9.9,2663,0.91
114,Dallas Stars,2009,36,35,11,0.506,230,257,-0.3,0.03,5.94,54,351,15.38,70,327,78.59,2,4,2370,9.5,2295,0.895
115,Ottawa Senators,2009,36,35,11,0.506,217,237,-0.23,0.01,5.54,66,339,19.47,64,346,81.5,8,5,2405,8.9,2324,0.906
116,Toronto Maple Leafs,2009,34,35,13,0.494,250,293,-0.49,0.03,6.62,62,330,18.79,78,308,74.68,6,7,2603,9.4,2476,0.887
117,Phoenix Coyotes,2009,36,39,7,0.482,208,252,-0.5,0.04,5.61,50,341,14.66,68,293,76.79,5,4,2302,8.9,2584,0.906
118,Los Angeles Kings,2009,34,37,11,0.482,207,234,-0.29,0.04,5.38,69,360,19.17,62,361,82.83,4,8,2383,8.5,2290,0.906
119,Atlanta Thrashers,2009,35,41,6,0.463,257,280,-0.3,-0.02,6.55,69,357,19.33,88,366,75.96,13,10,2306,10.8,2674,0.899
120,Colorado Avalanche,2009,32,45,5,0.421,199,257,-0.66,0.05,5.56,50,318,15.72,64,318,79.87,4,8,2359,8.1,2367,0.897
121,Tampa Bay Lightning,2009,24,40,18,0.402,210,279,-0.81,0.03,5.96,61,343,17.78,89,405,78.02,4,9,2338,8.9,2691,0.904
122,New York Islanders,2009,26,47,9,0.372,201,279,-0.91,0.05,5.85,54,320,16.88,73,361,79.78,12,5,2372,8.3,2743,0.903
124,Washington Capitals,2010,54,15,13,0.738,318,233,0.9,-0.14,6.72,79,313,25.24,67,316,78.8,4,8,2693,11.6,2534,0.911
125,San Jose Sharks,2010,51,20,11,0.689,264,215,0.65,0.05,5.84,65,309,21.04,49,324,84.88,8,9,2602,9.9,2567,0.92
126,Chicago Blackhawks,2010,52,22,8,0.683,271,209,0.77,0.02,5.85,52,294,17.69,40,266,84.96,13,4,2798,9.4,2054,0.903
127,Phoenix Coyotes,2010,50,25,7,0.652,225,202,0.34,0.06,5.21,46,314,14.65,49,317,84.54,3,6,2502,8.4,2420,0.922
128,Vancouver Canucks,2010,49,28,5,0.628,272,222,0.6,-0.01,6.02,68,323,21.05,59,320,81.56,8,6,2534,10.6,2412,0.913
129,New Jersey Devils,2010,48,27,7,0.628,222,191,0.31,-0.07,5.04,51,272,18.75,41,240,82.92,7,5,2459,8.8,2211,0.917
130,Detroit Red Wings,2010,44,24,14,0.622,229,216,0.23,0.07,5.43,59,307,19.22,43,267,83.9,8,1,2737,8.1,2410,0.915
131,Pittsburgh Penguins,2010,47,28,7,0.616,257,237,0.17,-0.07,6.02,56,326,17.18,52,327,84.1,7,8,2688,9.3,2340,0.904
132,Los Angeles Kings,2010,46,27,9,0.616,241,219,0.32,0.05,5.61,64,307,20.85,60,304,80.26,4,6,2389,9.7,2255,0.909
133,Buffalo Sabres,2010,45,27,10,0.61,235,207,0.26,-0.08,5.39,55,313,17.57,38,284,86.62,4,3,2588,8.9,2567,0.924
134,Nashville Predators,2010,47,29,6,0.61,225,225,0.06,0.06,5.49,47,286,16.43,59,258,77.13,5,5,2508,8.7,2389,0.91
135,Colorado Avalanche,2010,43,30,9,0.579,244,233,0.16,0.02,5.82,56,310,18.06,60,303,80.2,8,9,2287,10.4,2619,0.917
136,Ottawa Senators,2010,44,32,6,0.573,225,238,-0.22,-0.06,5.65,49,290,16.9,50,318,84.28,5,4,2436,9.0,2333,0.903
137,Boston Bruins,2010,39,30,13,0.555,206,200,0.01,-0.06,4.95,44,265,16.6,37,272,86.4,6,3,2599,7.5,2442,0.923
138,St. Louis Blues,2010,40,32,10,0.549,225,223,0.08,0.06,5.46,53,308,17.21,45,342,86.84,6,6,2445,8.9,2463,0.916
139,Calgary Flames,2010,40,32,10,0.549,204,210,-0.03,0.04,5.05,43,268,16.04,54,305,82.3,7,1,2350,8.6,2367,0.916
140,Anaheim Ducks,2010,39,32,11,0.543,238,251,-0.07,0.09,5.96,63,300,21.0,67,323,79.26,8,9,2472,9.4,2728,0.914
141,Dallas Stars,2010,37,31,14,0.537,237,254,-0.12,0.09,5.99,61,328,18.6,65,288,77.43,8,8,2524,9.1,2551,0.908
142,Philadelphia Flyers,2010,41,35,6,0.537,236,225,0.08,-0.06,5.62,68,318,21.38,57,334,82.93,5,7,2589,9.0,2342,0.907
143,Montreal Canadiens,2010,39,33,10,0.537,217,223,-0.14,-0.07,5.37,57,261,21.84,53,311,82.96,3,8,2346,9.0,2630,0.919
144,New York Rangers,2010,38,33,11,0.53,222,218,0.0,-0.05,5.37,55,301,18.27,50,318,84.28,5,6,2425,9.0,2440,0.916
145,Minnesota Wild,2010,38,36,8,0.512,219,246,-0.26,0.07,5.67,59,309,19.09,53,306,82.68,3,13,2266,9.4,2406,0.904
146,Atlanta Thrashers,2010,35,34,13,0.506,234,256,-0.33,-0.06,5.98,51,316,16.14,57,320,82.19,9,4,2409,9.5,2708,0.911
147,Carolina Hurricanes,2010,35,37,10,0.488,230,256,-0.37,-0.05,5.93,56,329,17.02,62,320,80.63,7,8,2402,9.4,2559,0.908
148,Tampa Bay Lightning,2010,34,36,12,0.488,217,260,-0.56,-0.03,5.82,63,326,19.33,67,336,80.06,2,6,2367,9.0,2569,0.904
149,New York Islanders,2010,34,37,11,0.482,222,264,-0.53,-0.02,5.93,49,306,16.01,71,300,76.33,7,3,2493,8.6,2615,0.903
150,Columbus Blue Jackets,2010,32,35,15,0.482,216,259,-0.42,0.11,5.79,56,308,18.18,61,334,81.74,6,8,2338,9.2,2511,0.902
151,Florida Panthers,2010,32,37,13,0.47,208,244,-0.47,-0.03,5.51,44,309,14.24,59,286,79.37,7,8,2331,8.7,2789,0.92
152,Toronto Maple Leafs,2010,30,38,14,0.451,214,267,-0.68,-0.03,5.87,44,315,13.97,73,288,74.65,4,6,2671,7.9,2430,0.896
153,Edmonton Oilers,2010,27,47,8,0.378,214,284,-0.76,0.09,6.07,52,301,17.28,67,305,78.03,6,5,2321,8.9,2710,0.9
155,Vancouver Canucks,2011,54,19,9,0.713,262,185,0.87,-0.07,5.45,72,296,24.32,45,312,85.58,6,2,2624,9.8,2467,0.928
156,Washington Capitals,2011,48,23,11,0.652,224,197,0.27,-0.06,5.13,46,263,17.49,43,299,85.62,7,5,2566,8.5,2374,0.92
157,Philadelphia Flyers,2011,47,23,12,0.646,259,223,0.4,-0.04,5.88,49,295,16.61,54,313,82.75,13,5,2605,9.8,2465,0.915
158,Pittsburgh Penguins,2011,49,25,8,0.646,238,199,0.43,-0.05,5.33,49,311,15.76,45,324,86.11,13,6,2582,8.8,2346,0.919
159,San Jose Sharks,2011,48,25,9,0.64,248,213,0.44,0.02,5.62,68,290,23.45,56,273,79.49,6,7,2832,8.6,2365,0.914
160,Detroit Red Wings,2011,47,25,10,0.634,261,241,0.27,0.03,6.12,67,301,22.26,53,300,82.33,5,7,2757,9.3,2508,0.908
161,Boston Bruins,2011,46,25,11,0.628,246,195,0.56,-0.07,5.38,43,266,16.17,46,265,82.64,11,5,2696,9.1,2677,0.932
162,Tampa Bay Lightning,2011,46,25,11,0.628,247,240,0.04,-0.05,5.94,69,336,20.54,49,302,83.77,1,16,2605,9.3,2347,0.903
163,Anaheim Ducks,2011,47,30,5,0.604,239,235,0.09,0.05,5.78,67,285,23.51,57,305,81.31,7,7,2334,10.1,2641,0.915
164,Phoenix Coyotes,2011,43,26,13,0.604,231,226,0.11,0.05,5.57,46,289,15.92,64,296,78.38,5,6,2486,9.1,2670,0.919
165,Nashville Predators,2011,44,27,11,0.604,219,194,0.31,0.01,5.04,41,269,15.24,41,272,84.93,5,2,2362,9.0,2506,0.926
166,Los Angeles Kings,2011,46,30,6,0.598,219,198,0.29,0.03,5.09,47,291,16.15,40,276,85.51,4,6,2363,8.8,2283,0.916
167,Chicago Blackhawks,2011,44,29,9,0.591,258,225,0.41,0.01,5.89,64,277,23.1,53,255,79.22,6,4,2637,9.6,2344,0.91
168,Buffalo Sabres,2011,43,29,10,0.585,245,229,0.15,-0.04,5.78,54,279,19.35,51,300,83.0,2,13,2690,8.9,2504,0.913
169,Montreal Canadiens,2011,44,30,8,0.585,216,209,0.05,-0.04,5.18,57,290,19.66,51,327,84.4,5,6,2602,8.2,2530,0.922
170,Dallas Stars,2011,42,29,11,0.579,227,233,-0.02,0.05,5.61,55,306,17.97,55,277,80.14,10,15,2269,9.8,2493,0.914
171,Calgary Flames,2011,41,29,12,0.573,250,237,0.14,-0.02,5.94,62,318,19.5,53,282,81.21,7,9,2501,9.6,2326,0.906
172,New York Rangers,2011,44,33,5,0.567,233,198,0.37,-0.06,5.26,49,290,16.9,42,257,83.66,11,5,2453,9.1,2402,0.922
173,Carolina Hurricanes,2011,40,31,11,0.555,236,239,-0.08,-0.04,5.79,55,346,15.9,51,272,81.25,7,6,2517,9.2,2718,0.916
174,St. Louis Blues,2011,38,33,11,0.53,240,234,0.11,0.04,5.78,52,279,18.64,51,279,81.72,7,1,2475,9.5,2268,0.902
175,Minnesota Wild,2011,39,35,8,0.524,206,233,-0.3,0.03,5.35,53,292,18.15,53,309,82.85,7,7,2148,9.5,2615,0.917
176,Toronto Maple Leafs,2011,37,34,11,0.518,218,251,-0.41,0.0,5.72,52,326,15.95,62,275,77.45,5,8,2360,9.0,2531,0.907
177,Columbus Blue Jackets,2011,34,35,13,0.494,215,258,-0.45,0.08,5.77,42,301,13.95,62,314,80.25,6,11,2506,8.4,2440,0.9
178,New Jersey Devils,2011,38,39,5,0.494,174,209,-0.41,0.02,4.67,34,237,14.35,40,241,83.4,3,8,2344,7.3,2146,0.906
179,Atlanta Thrashers,2011,34,36,12,0.488,223,269,-0.57,-0.01,6.0,53,289,18.34,64,285,77.54,6,10,2581,8.4,2623,0.906
180,Ottawa Senators,2011,32,40,10,0.451,192,250,-0.69,0.02,5.39,45,257,17.51,48,295,83.73,6,4,2381,8.0,2552,0.907
181,New York Islanders,2011,30,39,13,0.445,229,264,-0.42,0.01,6.01,52,302,17.22,52,310,83.23,15,7,2408,9.3,2610,0.905
182,Florida Panthers,2011,30,40,12,0.439,195,229,-0.43,-0.01,5.17,35,267,13.11,41,267,84.64,4,5,2493,7.7,2600,0.918
183,Colorado Avalanche,2011,30,44,8,0.415,227,288,-0.7,0.05,6.28,49,265,18.49,75,314,76.11,8,11,2394,9.2,2595,0.895
184,Edmonton Oilers,2011,25,45,12,0.378,193,269,-0.87,0.06,5.63,44,304,14.47,74,321,76.95,8,2,2188,8.7,2587,0.903
186,Vancouver Canucks,2012,51,22,9,0.677,249,198,0.57,-0.05,5.45,57,288,19.79,40,286,86.01,7,4,2583,9.3,2522,0.926
187,New York Rangers,2012,51,24,7,0.665,226,187,0.46,-0.02,5.04,44,280,15.71,36,260,86.15,8,4,2338,9.5,2272,0.924
188,St. Louis Blues,2012,49,22,11,0.665,210,165,0.54,-0.01,4.57,45,269,16.73,40,282,85.82,7,3,2512,8.2,2183,0.932
189,Pittsburgh Penguins,2012,51,25,6,0.659,282,221,0.71,-0.03,6.13,57,289,19.72,33,270,87.78,11,10,2779,9.8,2240,0.906
190,Nashville Predators,2012,48,26,8,0.634,237,210,0.34,0.01,5.45,54,250,21.6,40,244,83.61,5,4,2261,10.3,2517,0.921
191,Philadelphia Flyers,2012,47,26,9,0.628,264,232,0.39,0.0,6.05,66,335,19.7,58,319,81.82,6,9,2641,9.8,2323,0.906
192,Detroit Red Wings,2012,48,28,6,0.622,248,203,0.55,0.0,5.5,48,298,16.11,50,274,81.75,2,11,2638,9.1,2204,0.913
193,Boston Bruins,2012,49,29,4,0.622,269,202,0.75,-0.07,5.74,43,250,17.2,43,260,83.46,8,1,2653,9.8,2435,0.921
194,New Jersey Devils,2012,48,28,6,0.622,228,209,0.23,0.0,5.33,46,267,17.23,27,259,89.58,15,13,2253,9.6,2190,0.911
195,Chicago Blackhawks,2012,45,26,11,0.616,248,238,0.14,0.02,5.93,42,277,15.16,51,233,78.11,7,3,2583,9.3,2341,0.902
196,Phoenix Coyotes,2012,42,27,13,0.591,216,204,0.16,0.01,5.12,34,251,13.55,36,249,85.54,6,6,2429,8.6,2588,0.927
197,San Jose Sharks,2012,43,29,10,0.585,228,210,0.22,0.0,5.34,57,270,21.11,52,225,76.89,3,4,2773,7.9,2337,0.915
198,Los Angeles Kings,2012,40,27,15,0.579,194,179,0.19,0.01,4.55,49,289,16.96,38,293,87.03,9,2,2509,7.5,2246,0.925
199,Florida Panthers,2012,38,26,18,0.573,203,227,-0.33,-0.03,5.24,53,286,18.53,49,239,79.5,4,6,2433,8.1,2498,0.916
200,Washington Capitals,2012,42,32,8,0.561,222,230,-0.13,-0.03,5.51,41,245,16.73,49,266,81.58,3,10,2295,9.5,2467,0.912
201,Ottawa Senators,2012,41,31,10,0.561,249,240,0.09,-0.02,5.96,49,270,18.15,57,310,81.61,9,7,2574,9.4,2624,0.911
202,Calgary Flames,2012,37,29,16,0.549,202,226,-0.28,0.01,5.22,46,260,17.69,42,268,84.33,3,6,2258,8.8,2518,0.918
203,Dallas Stars,2012,42,35,5,0.543,211,222,-0.1,0.03,5.28,33,244,13.52,52,303,82.84,5,3,2315,8.8,2519,0.917
204,Buffalo Sabres,2012,39,32,11,0.543,218,230,-0.15,0.0,5.46,44,258,17.05,47,257,81.71,5,7,2397,8.8,2562,0.916
205,Colorado Avalanche,2012,41,35,6,0.537,208,220,-0.13,0.01,5.22,41,223,18.39,47,277,83.03,5,4,2583,7.7,2414,0.915
206,Winnipeg Jets,2012,37,35,10,0.512,225,246,-0.3,-0.04,5.74,45,251,17.93,58,292,80.14,3,8,2471,8.9,2462,0.905
207,Tampa Bay Lightning,2012,38,36,8,0.512,235,281,-0.57,-0.01,6.29,41,269,15.24,59,284,79.23,2,12,2227,10.4,2490,0.893
208,Carolina Hurricanes,2012,33,33,16,0.5,213,243,-0.39,-0.02,5.56,49,294,16.67,49,252,80.56,12,4,2497,8.5,2645,0.913
209,Minnesota Wild,2012,35,36,11,0.494,177,226,-0.58,0.02,4.91,39,258,15.12,51,285,82.11,5,4,2174,7.6,2562,0.919
210,Anaheim Ducks,2012,34,36,12,0.488,204,231,-0.29,0.04,5.3,45,271,16.61,51,283,81.98,4,5,2291,8.8,2358,0.909
211,Toronto Maple Leafs,2012,35,37,10,0.488,231,264,-0.38,0.02,6.04,49,267,18.35,55,242,77.27,5,6,2322,9.8,2520,0.9
212,New York Islanders,2012,34,37,11,0.482,203,255,-0.58,0.05,5.59,45,243,18.52,46,236,80.51,4,5,2410,8.1,2455,0.903
213,Montreal Canadiens,2012,31,35,16,0.476,212,226,-0.17,0.0,5.34,43,301,14.29,36,315,88.57,10,8,2340,8.8,2422,0.916
214,Edmonton Oilers,2012,32,40,10,0.451,212,239,-0.32,0.01,5.5,54,262,20.61,52,296,82.43,5,8,2186,9.5,2506,0.912
215,Columbus Blue Jackets,2012,29,46,7,0.396,202,262,-0.65,0.08,5.66,49,317,15.46,64,274,76.64,7,8,2454,8.1,2525,0.903
217,Chicago Blackhawks,2013,36,7,5,0.802,155,102,1.04,-0.07,5.35,25,150,16.67,18,141,87.23,5,5,1494,10.0,1257,0.924
218,Pittsburgh Penguins,2013,36,12,0,0.75,165,119,0.91,-0.05,5.92,42,170,24.71,34,167,79.64,2,3,1438,11.3,1400,0.917
219,Anaheim Ducks,2013,30,12,6,0.688,140,118,0.43,-0.02,5.38,29,135,21.48,30,162,81.48,5,5,1347,9.9,1336,0.917
220,Montreal Canadiens,2013,29,14,5,0.656,149,126,0.46,-0.02,5.73,42,203,20.69,35,173,79.77,0,2,1468,9.9,1291,0.905
221,Boston Bruins,2013,28,14,6,0.646,131,109,0.44,-0.02,5.0,18,122,14.75,21,163,87.12,5,2,1557,8.2,1368,0.926
222,St. Louis Blues,2013,29,17,2,0.625,129,115,0.31,0.02,5.08,29,149,19.46,23,150,84.67,3,5,1336,9.3,1158,0.904
223,Vancouver Canucks,2013,26,15,7,0.615,127,121,0.07,-0.06,5.17,26,165,15.76,27,169,84.02,2,3,1350,9.0,1386,0.919
224,Los Angeles Kings,2013,27,16,5,0.615,133,118,0.29,-0.02,5.23,33,166,19.88,27,161,83.23,2,1,1431,9.2,1195,0.907
225,San Jose Sharks,2013,25,16,7,0.594,124,116,0.17,0.01,5.0,34,169,20.12,22,147,85.03,3,4,1526,7.6,1386,0.922
226,Toronto Maple Leafs,2013,26,17,5,0.594,145,133,0.27,0.02,5.79,31,166,18.67,19,157,87.9,1,4,1264,11.5,1543,0.921
227,Washington Capitals,2013,27,18,3,0.594,149,130,0.31,-0.09,5.81,44,164,26.83,36,163,77.91,3,4,1350,10.8,1549,0.917
228,Detroit Red Wings,2013,24,16,8,0.583,124,115,0.2,0.01,4.98,34,185,18.38,30,164,81.71,3,5,1447,8.4,1320,0.918
229,New York Rangers,2013,26,18,4,0.583,130,112,0.38,0.0,5.04,24,153,15.69,28,148,81.08,5,4,1483,8.5,1346,0.925
230,Ottawa Senators,2013,25,17,6,0.583,116,104,0.27,0.02,4.58,25,157,15.92,20,167,88.02,2,1,1591,7.0,1500,0.935
231,Columbus Blue Jackets,2013,24,17,7,0.573,120,119,0.03,0.01,4.98,22,155,14.19,25,144,82.64,3,2,1283,9.0,1430,0.924
232,New York Islanders,2013,24,17,7,0.573,139,139,0.03,0.03,5.79,31,156,19.87,28,142,80.28,2,0,1485,9.1,1344,0.905
233,Minnesota Wild,2013,26,19,3,0.573,122,127,-0.16,-0.05,5.19,27,151,17.88,26,135,80.74,1,0,1382,8.5,1297,0.905
234,Phoenix Coyotes,2013,21,18,9,0.531,125,131,-0.1,0.03,5.33,25,169,14.79,34,169,79.88,2,2,1482,8.2,1464,0.917
235,Winnipeg Jets,2013,24,21,3,0.531,128,144,-0.36,-0.03,5.67,20,145,13.79,28,138,79.71,1,3,1389,9.1,1419,0.904
236,Philadelphia Flyers,2013,23,22,3,0.51,133,141,-0.14,0.03,5.71,37,171,21.64,26,184,85.87,2,3,1394,9.5,1362,0.905
237,New Jersey Devils,2013,19,19,10,0.5,112,129,-0.31,0.04,5.02,28,176,15.91,32,169,81.07,11,6,1362,8.1,1105,0.894
238,Dallas Stars,2013,22,22,4,0.5,130,142,-0.21,0.05,5.67,29,171,16.96,34,179,81.01,2,3,1261,10.2,1484,0.908
239,Buffalo Sabres,2013,21,21,6,0.5,125,143,-0.31,0.07,5.58,23,163,14.11,37,178,79.21,7,7,1339,8.8,1602,0.916
240,Edmonton Oilers,2013,19,22,7,0.469,125,134,-0.22,-0.03,5.4,34,169,20.12,29,175,83.43,4,1,1285,9.6,1567,0.92
241,Calgary Flames,2013,19,25,4,0.438,128,160,-0.65,0.02,6.0,31,155,20.0,28,151,81.46,6,2,1293,9.9,1408,0.891
242,Carolina Hurricanes,2013,19,25,4,0.438,128,160,-0.65,0.02,6.0,24,165,14.55,36,161,77.64,3,4,1545,8.2,1538,0.902
243,Nashville Predators,2013,16,23,9,0.427,111,139,-0.5,0.09,5.21,24,140,17.14,34,139,75.54,1,4,1244,8.8,1330,0.904
244,Tampa Bay Lightning,2013,18,26,4,0.417,148,150,-0.11,-0.07,6.21,31,163,19.02,30,155,80.65,0,4,1323,11.1,1444,0.903
245,Colorado Avalanche,2013,16,25,7,0.406,116,152,-0.73,0.02,5.58,21,140,15.0,36,183,80.33,3,3,1415,8.1,1501,0.905
246,Florida Panthers,2013,15,27,6,0.375,112,171,-1.18,0.05,5.9,29,142,20.42,39,151,74.17,4,1,1400,7.8,1497,0.891
248,Boston Bruins,2014,54,19,9,0.713,261,177,0.92,-0.11,5.34,50,230,21.74,43,263,83.65,9,6,2613,9.9,2384,0.929
249,Anaheim Ducks,2014,54,20,8,0.707,266,209,0.68,-0.01,5.79,44,275,16.0,48,270,82.22,10,8,2569,10.2,2349,0.915
250,Colorado Avalanche,2014,52,22,8,0.683,250,220,0.4,0.04,5.73,50,252,19.84,48,249,80.72,3,1,2420,10.1,2671,0.922
251,San Jose Sharks,2014,51,22,9,0.677,249,200,0.6,0.0,5.48,50,291,17.18,33,219,84.93,8,6,2851,8.4,2276,0.917
252,St. Louis Blues,2014,52,23,7,0.677,248,191,0.71,0.01,5.35,56,283,19.79,42,293,85.67,6,6,2402,10.0,2157,0.916
253,Pittsburgh Penguins,2014,51,24,7,0.665,249,207,0.47,-0.04,5.56,65,278,23.38,38,254,85.04,4,6,2454,9.9,2356,0.915
254,Chicago Blackhawks,2014,46,21,15,0.652,267,220,0.6,0.02,5.94,50,257,19.46,46,248,81.45,9,6,2715,9.6,2224,0.907
255,Tampa Bay Lightning,2014,46,27,9,0.616,240,215,0.25,-0.06,5.55,50,270,18.52,52,270,80.74,10,8,2446,9.5,2389,0.916
256,Los Angeles Kings,2014,46,28,8,0.61,206,174,0.4,0.01,4.63,43,284,15.14,50,296,83.11,5,6,2595,7.6,2147,0.923
257,Montreal Canadiens,2014,46,28,8,0.61,215,204,0.08,-0.05,5.11,48,279,17.2,43,289,85.12,6,8,2330,9.0,2536,0.923
258,Minnesota Wild,2014,43,27,12,0.598,207,206,0.07,0.05,5.04,45,252,17.86,53,250,78.8,4,8,2180,9.1,2264,0.917
259,New York Rangers,2014,45,31,6,0.585,218,193,0.26,-0.04,5.01,48,264,18.18,34,232,85.34,10,7,2719,7.9,2408,0.923
260,Philadelphia Flyers,2014,42,30,10,0.573,236,235,-0.01,-0.02,5.74,58,294,19.73,48,316,84.81,8,11,2490,9.4,2500,0.912
261,Detroit Red Wings,2014,39,28,15,0.567,222,230,-0.14,-0.04,5.51,50,282,17.73,50,295,83.05,3,5,2456,8.8,2395,0.911
262,Columbus Blue Jackets,2014,43,32,7,0.567,231,216,0.16,-0.03,5.45,54,280,19.29,50,280,82.14,9,8,2431,9.3,2516,0.918
263,Dallas Stars,2014,40,31,11,0.555,235,228,0.14,0.05,5.65,46,290,15.86,49,263,81.37,8,5,2597,8.9,2485,0.913
264,Washington Capitals,2014,38,30,14,0.549,235,240,-0.08,-0.02,5.79,68,291,23.37,51,284,82.04,5,10,2412,9.3,2746,0.918
265,Phoenix Coyotes,2014,37,30,15,0.543,216,231,-0.16,0.03,5.45,56,282,19.86,57,272,79.04,3,5,2499,8.4,2529,0.916
266,New Jersey Devils,2014,35,29,18,0.537,197,208,-0.15,-0.02,4.94,47,241,19.5,36,264,86.36,9,4,2199,9.0,2078,0.911
267,Nashville Predators,2014,38,32,12,0.537,216,242,-0.25,0.07,5.59,46,239,19.25,47,238,80.25,2,0,2382,9.0,2365,0.904
268,Ottawa Senators,2014,37,31,14,0.537,236,265,-0.37,-0.02,6.11,50,271,18.45,61,320,80.94,5,10,2692,8.5,2842,0.912
269,Toronto Maple Leafs,2014,38,36,8,0.512,231,256,-0.34,-0.04,5.94,50,252,19.84,58,268,78.36,7,12,2290,9.7,2932,0.918
270,Winnipeg Jets,2014,37,35,10,0.512,227,237,-0.07,0.06,5.66,40,259,15.44,49,291,83.16,5,6,2516,8.7,2469,0.908
271,Vancouver Canucks,2014,36,35,11,0.506,196,223,-0.3,0.03,5.11,39,257,15.18,46,274,83.21,6,4,2527,7.6,2316,0.911
272,Carolina Hurricanes,2014,36,35,11,0.506,207,230,-0.29,-0.01,5.33,41,281,14.59,44,241,81.74,11,8,2561,8.0,2526,0.915
273,New York Islanders,2014,34,37,11,0.482,225,267,-0.51,0.0,6.0,49,276,17.75,58,265,78.11,8,7,2537,8.5,2453,0.898
274,Calgary Flames,2014,35,40,7,0.47,209,241,-0.35,0.04,5.49,39,249,15.66,43,235,81.7,12,7,2199,9.2,2336,0.902
275,Edmonton Oilers,2014,29,44,9,0.409,203,270,-0.75,0.07,5.77,46,271,16.97,50,280,82.14,4,13,2208,9.0,2686,0.904
276,Florida Panthers,2014,29,45,8,0.402,196,268,-0.87,0.01,5.66,27,269,10.04,63,262,75.95,8,6,2451,7.7,2542,0.9
277,Buffalo Sabres,2014,21,51,10,0.317,157,248,-1.09,0.02,4.94,36,256,14.06,51,274,81.39,5,5,2156,7.0,2805,0.918
279,New York Rangers,2015,53,22,7,0.689,252,192,0.69,-0.04,5.41,39,232,16.81,37,235,84.26,9,6,2582,9.6,2412,0.925
280,Montreal Canadiens,2015,50,22,10,0.671,221,189,0.36,-0.03,5.0,40,242,16.53,42,257,83.66,7,4,2334,9.2,2462,0.929
281,Anaheim Ducks,2015,51,24,7,0.665,236,226,0.1,-0.03,5.63,37,236,15.68,52,274,81.02,9,6,2458,9.3,2359,0.91
282,St. Louis Blues,2015,51,24,7,0.665,248,201,0.59,0.02,5.48,56,251,22.31,42,257,83.66,2,5,2535,9.4,2228,0.914
283,Tampa Bay Lightning,2015,50,24,8,0.659,262,211,0.57,-0.06,5.77,53,282,18.79,42,257,83.66,7,6,2428,10.7,2280,0.913
284,Nashville Predators,2015,47,25,10,0.634,232,208,0.33,0.03,5.37,42,259,16.22,45,234,80.77,4,5,2614,8.6,2304,0.918
285,Chicago Blackhawks,2015,48,28,6,0.622,229,189,0.51,0.02,5.1,46,260,17.69,35,211,83.41,3,7,2777,7.9,2469,0.928
286,New York Islanders,2015,47,28,7,0.616,252,230,0.26,-0.01,5.88,50,267,18.73,48,217,77.88,10,3,2771,8.8,2313,0.907
287,Washington Capitals,2015,45,26,11,0.616,242,203,0.44,-0.03,5.43,60,237,25.32,50,266,81.2,4,4,2419,9.8,2363,0.918
288,Vancouver Canucks,2015,48,29,5,0.616,242,222,0.2,-0.05,5.66,46,238,19.33,38,266,85.71,6,2,2453,9.6,2432,0.915
289,Detroit Red Wings,2015,43,25,14,0.61,235,221,0.14,-0.03,5.56,70,294,23.81,55,288,80.9,3,8,2429,9.5,2311,0.913
290,Minnesota Wild,2015,46,28,8,0.61,231,201,0.39,0.03,5.27,39,246,15.85,32,234,86.32,4,3,2522,9.0,2259,0.915
291,Winnipeg Jets,2015,43,26,13,0.604,230,210,0.29,0.04,5.37,48,269,17.84,56,308,81.82,10,5,2439,9.1,2339,0.917
292,Ottawa Senators,2015,43,26,13,0.604,238,215,0.25,-0.04,5.52,47,280,16.79,44,257,82.88,6,8,2539,9.1,2630,0.923
293,Pittsburgh Penguins,2015,43,27,12,0.598,221,210,0.12,-0.01,5.26,49,254,19.29,42,277,84.84,6,11,2594,8.4,2394,0.918
294,Calgary Flames,2015,45,30,7,0.591,241,216,0.26,-0.05,5.57,48,255,18.82,36,186,80.65,6,3,2252,10.5,2381,0.915
295,Boston Bruins,2015,41,27,14,0.585,213,211,0.01,-0.01,5.17,38,213,17.84,44,244,81.97,8,3,2546,8.2,2442,0.921
296,Los Angeles Kings,2015,40,27,15,0.579,220,205,0.16,-0.03,5.18,47,247,19.03,45,236,80.93,7,2,2536,8.6,2203,0.916
297,Dallas Stars,2015,41,31,10,0.561,261,260,0.06,0.05,6.35,55,290,18.97,49,254,80.71,9,7,2558,10.0,2442,0.9
298,Florida Panthers,2015,38,29,15,0.555,206,223,-0.23,-0.02,5.23,40,246,16.26,50,250,80.0,1,6,2516,7.9,2417,0.915
299,Colorado Avalanche,2015,39,31,12,0.549,219,227,-0.04,0.06,5.44,37,247,14.98,37,241,84.65,4,2,2286,9.1,2705,0.923
300,San Jose Sharks,2015,40,33,9,0.543,228,232,-0.08,-0.03,5.61,55,254,21.65,48,223,78.48,4,5,2591,8.6,2422,0.912
301,Columbus Blue Jackets,2015,42,35,5,0.543,236,250,-0.16,0.01,5.93,53,244,21.72,60,303,80.2,5,5,2366,9.6,2730,0.914
302,Philadelphia Flyers,2015,33,31,18,0.512,215,234,-0.23,0.0,5.48,60,256,23.44,61,266,77.07,3,6,2413,8.8,2471,0.914
303,New Jersey Devils,2015,32,36,14,0.476,181,216,-0.4,0.02,4.84,41,212,19.34,52,268,80.6,7,8,2008,8.8,2505,0.922
304,Carolina Hurricanes,2015,30,41,11,0.433,188,226,-0.44,0.02,5.05,45,240,18.75,29,190,84.74,2,4,2524,7.3,2225,0.907
305,Toronto Maple Leafs,2015,30,44,8,0.415,211,262,-0.61,0.02,5.77,45,283,15.9,52,266,80.45,7,12,2397,8.6,2736,0.91
306,Edmonton Oilers,2015,24,44,14,0.378,198,283,-1.01,0.03,5.87,41,232,17.67,51,219,76.71,4,7,2331,8.3,2454,0.892
307,Arizona Coyotes,2015,24,50,8,0.341,170,272,-1.2,0.04,5.39,46,230,20.0,65,279,76.7,4,7,2393,6.9,2708,0.907
308,Buffalo Sabres,2015,23,51,8,0.329,161,274,-1.33,0.05,5.3,30,224,13.39,64,257,75.1,7,8,1984,7.7,2911,0.911
